vid,host_id,host_location,host_name,host_since,host_url
1145,43039,"London, England, United Kingdom",Adriano,2009-10-03,https://www.airbnb.com/users/show/43039
1146,54730,"London, England, United Kingdom",Alina,2009-11-16,https://www.airbnb.com/users/show/54730
1147,60302,"Kensington, England, United Kingdom",Philippa,2009-12-05,https://www.airbnb.com/users/show/60302
1148,67564,"Brighton and Hove, England, United Kingdom",Liz,2010-01-04,https://www.airbnb.com/users/show/67564
1149,67915,"London, England, United Kingdom",Charlotte,2010-01-05,https://www.airbnb.com/users/show/67915
1150,103583,"London, England, United Kingdom",Grace,2010-04-05,https://www.airbnb.com/users/show/103583
1151,144444,"Isleworth, England, United Kingdom",Chi-Chi,2010-06-14,https://www.airbnb.com/users/show/144444
1152,155938,"Richmond, England, United Kingdom",Geert,2010-06-30,https://www.airbnb.com/users/show/155938
1153,157884,"London, England, United Kingdom",Agri & Roger,2010-07-04,https://www.airbnb.com/users/show/157884
1154,161459,"London, England, United Kingdom",Liz,2010-07-08,https://www.airbnb.com/users/show/161459
1155,163634,GB,Lisa,2010-07-11,https://www.airbnb.com/users/show/163634
1156,165579,United Kingdom,Elisa & Dom,2010-07-13,https://www.airbnb.com/users/show/165579
1157,167107,"London, England, United Kingdom",Paul,2010-07-15,https://www.airbnb.com/users/show/167107
1158,167281,"London, England, United Kingdom",Cesar,2010-07-15,https://www.airbnb.com/users/show/167281
1159,168920,"London, England, United Kingdom",Alec,2010-07-17,https://www.airbnb.com/users/show/168920
1160,180838,"Edgware, England, United Kingdom",Sean,2010-07-26,https://www.airbnb.com/users/show/180838
1161,181028,"London, England, United Kingdom",Peter,2010-07-26,https://www.airbnb.com/users/show/181028
1162,182322,"London, England, United Kingdom",Nina,2010-07-27,https://www.airbnb.com/users/show/182322
1163,182993,"London, England, United Kingdom",Bimpe,2010-07-27,https://www.airbnb.com/users/show/182993
1164,183658,"West Kensington, London, UK",Maria,2010-07-28,https://www.airbnb.com/users/show/183658
1165,186510,"Palo Alto, California, United States",Shelley,2010-07-31,https://www.airbnb.com/users/show/186510
1166,188138,"London, England, United Kingdom",Sylvan,2010-08-01,https://www.airbnb.com/users/show/188138
1167,188559,"Greater London, England, United Kingdom",Calypso,2010-08-02,https://www.airbnb.com/users/show/188559
1168,193280,"London, England, United Kingdom",Sally,2010-08-06,https://www.airbnb.com/users/show/193280
1169,194769,"London, England, United Kingdom",S,2010-08-08,https://www.airbnb.com/users/show/194769
1170,199530,London,Deb,2010-08-12,https://www.airbnb.com/users/show/199530
1171,199549,"London, England, United Kingdom",Lina,2010-08-12,https://www.airbnb.com/users/show/199549
1172,208052,"London, England, United Kingdom",Domenico,2010-08-21,https://www.airbnb.com/users/show/208052
1173,212734,"London, England, United Kingdom","Let'S Dance, Put On Your Red Shoes",2010-08-25,https://www.airbnb.com/users/show/212734
1174,216660,"London, England, United Kingdom",Boris,2010-08-29,https://www.airbnb.com/users/show/216660
1175,239020,"London, England, United Kingdom",Sarah,2010-09-19,https://www.airbnb.com/users/show/239020
1176,246399,"London, England, United Kingdom",Ciaran,2010-09-27,https://www.airbnb.com/users/show/246399
1177,57861,United Kingdom,Beth,2009-11-26,https://www.airbnb.com/users/show/57861
1178,269609,"London, England, United Kingdom",Trudi,2010-10-24,https://www.airbnb.com/users/show/269609
1179,289179,"London, England, United Kingdom",Jacinta,2010-11-16,https://www.airbnb.com/users/show/289179
1180,306592,"Greater London, England, United Kingdom",Khalid,2010-12-01,https://www.airbnb.com/users/show/306592
1181,54987,"London, England, United Kingdom",Prateek,2009-11-17,https://www.airbnb.com/users/show/54987
1182,193586,"London, England, United Kingdom",Julie,2010-08-06,https://www.airbnb.com/users/show/193586
1183,320901,"London, England, United Kingdom",Mike,2010-12-17,https://www.airbnb.com/users/show/320901
1184,321917,"Bladbean, England, United Kingdom",Patrick,2010-12-18,https://www.airbnb.com/users/show/321917
1185,322341,"Canterbury, New Zealand",Kate,2010-12-19,https://www.airbnb.com/users/show/322341
1186,235606,"Berlin, Berlin, Germany",Ben,2010-09-15,https://www.airbnb.com/users/show/235606
1187,335716,Edgware,Laura D,2011-01-05,https://www.airbnb.com/users/show/335716
1188,345886,"London, England, United Kingdom",Alda,2011-01-13,https://www.airbnb.com/users/show/345886
1189,357352,United Kingdom,Michael,2011-01-22,https://www.airbnb.com/users/show/357352
1190,371121,"London, England, United Kingdom",John,2011-02-01,https://www.airbnb.com/users/show/371121
1191,379315,United Kingdom,Matthew,2011-02-06,https://www.airbnb.com/users/show/379315
1192,380897,"Greater London, England, United Kingdom",Anna,2011-02-07,https://www.airbnb.com/users/show/380897
1193,383525,"London, England, United Kingdom",Emi,2011-02-09,https://www.airbnb.com/users/show/383525
1194,422362,"London, England, United Kingdom",Nicola,2011-03-04,https://www.airbnb.com/users/show/422362
1195,424230,"England, United Kingdom",Julia,2011-03-05,https://www.airbnb.com/users/show/424230
1196,425764,"Morden, England, United Kingdom",Danielle,2011-03-06,https://www.airbnb.com/users/show/425764
1197,426378,"Lewisham, England, United Kingdom",Thesla,2011-03-06,https://www.airbnb.com/users/show/426378
1198,428600,"New York, New York, United States",Nicholas,2011-03-07,https://www.airbnb.com/users/show/428600
1199,432648,"Greater London, England, United Kingdom",Melanie,2011-03-09,https://www.airbnb.com/users/show/432648
1200,416812,"London, England, United Kingdom",Esther,2011-03-01,https://www.airbnb.com/users/show/416812
1201,438948,"Greater London, England, United Kingdom",Aslak,2011-03-13,https://www.airbnb.com/users/show/438948
1202,439154,"London, United Kingdom",Lucy,2011-03-13,https://www.airbnb.com/users/show/439154
1203,439880,"London, England, United Kingdom",Liz,2011-03-13,https://www.airbnb.com/users/show/439880
1204,423650,"Hackney, England, United Kingdom",Mia,2011-03-05,https://www.airbnb.com/users/show/423650
1205,441494,"London, England, United Kingdom",Fernando,2011-03-14,https://www.airbnb.com/users/show/441494
1206,441736,"London, England, United Kingdom",Kris,2011-03-14,https://www.airbnb.com/users/show/441736
1207,441881,United Kingdom,Petra,2011-03-14,https://www.airbnb.com/users/show/441881
1208,443041,"Greater London, England, United Kingdom",Carol,2011-03-15,https://www.airbnb.com/users/show/443041
1209,445322,GB,Richard,2011-03-16,https://www.airbnb.com/users/show/445322
1210,462165,"London, England, United Kingdom",Murielle,2011-03-25,https://www.airbnb.com/users/show/462165
1211,462651,"London, United Kingdom",Maria,2011-03-25,https://www.airbnb.com/users/show/462651
1212,466353,"London, England, United Kingdom",Elisabetta,2011-03-27,https://www.airbnb.com/users/show/466353
1213,467835,"Paddington, England, United Kingdom",Cass,2011-03-28,https://www.airbnb.com/users/show/467835
1214,472474,"London, England, United Kingdom",Amy  Gabriella,2011-03-30,https://www.airbnb.com/users/show/472474
1215,352607,"Brighton, England, United Kingdom",Andrea,2011-01-18,https://www.airbnb.com/users/show/352607
1216,479209,GB,Paullus,2011-04-02,https://www.airbnb.com/users/show/479209
1217,485803,"Eltham, England, United Kingdom",Pearline,2011-04-05,https://www.airbnb.com/users/show/485803
1218,488175,"Feltham, England, United Kingdom",Dominic,2011-04-06,https://www.airbnb.com/users/show/488175
1219,489949,"London, England, United Kingdom",Dominic,2011-04-06,https://www.airbnb.com/users/show/489949
1220,490714,"Croydon, England, United Kingdom",Melinda And Tony,2011-04-07,https://www.airbnb.com/users/show/490714
1221,490830,"London, England, United Kingdom",Daniel,2011-04-07,https://www.airbnb.com/users/show/490830
1222,491286,"Greater London, England, United Kingdom",Chil,2011-04-07,https://www.airbnb.com/users/show/491286
1223,493497,"Ibiza, Balearic Islands, Spain",Clive,2011-04-08,https://www.airbnb.com/users/show/493497
1224,497172,"London, England, United Kingdom",Natalie,2011-04-10,https://www.airbnb.com/users/show/497172
1225,497366,"London, England, United Kingdom",Andrea & Mark,2011-04-10,https://www.airbnb.com/users/show/497366
1226,498201,"London, England, United Kingdom",Deirdre,2011-04-10,https://www.airbnb.com/users/show/498201
1227,499704,"London, England, United Kingdom",Sarah,2011-04-11,https://www.airbnb.com/users/show/499704
1228,500558,"London, England, United Kingdom",William,2011-04-11,https://www.airbnb.com/users/show/500558
1229,501399,"London, England, United Kingdom",Gabriele,2011-04-11,https://www.airbnb.com/users/show/501399
1230,497514,"London, England, United Kingdom",William,2011-04-10,https://www.airbnb.com/users/show/497514
1231,502496,"London, England, United Kingdom",Darshi Rowan And Tara,2011-04-12,https://www.airbnb.com/users/show/502496
1232,503548,"London, England, United Kingdom",Carl And Christie,2011-04-12,https://www.airbnb.com/users/show/503548
1233,448154,"London, England, United Kingdom",Aneta,2011-03-17,https://www.airbnb.com/users/show/448154
1234,512757,GB,Lucy,2011-04-16,https://www.airbnb.com/users/show/512757
1235,510439,"London, England, United Kingdom",Sallyjo,2011-04-15,https://www.airbnb.com/users/show/510439
1236,497537,"Lambeth, England, United Kingdom",Keith,2011-04-10,https://www.airbnb.com/users/show/497537
1237,516216,"London, England, United Kingdom",Caroline,2011-04-17,https://www.airbnb.com/users/show/516216
1238,517799,"London, UK",Sue & Jon,2011-04-18,https://www.airbnb.com/users/show/517799
1239,518852,"London, England, United Kingdom",Paulo,2011-04-18,https://www.airbnb.com/users/show/518852
1240,519891,GB,Alicja,2011-04-19,https://www.airbnb.com/users/show/519891
1241,134606,East London,Cryn,2010-05-29,https://www.airbnb.com/users/show/134606
1242,522802,"Kensington, London, England, United Kingdom",The Portobello Room,2011-04-20,https://www.airbnb.com/users/show/522802
1243,523246,"London, England, United Kingdom",Francesca,2011-04-20,https://www.airbnb.com/users/show/523246
1244,525075,LC,Katarina,2011-04-21,https://www.airbnb.com/users/show/525075
1245,527471,"London, England, United Kingdom",Cecile & Adam,2011-04-22,https://www.airbnb.com/users/show/527471
1246,506748,"London, England, United Kingdom",Mireya,2011-04-13,https://www.airbnb.com/users/show/506748
1247,535247,"London, England, United Kingdom",Angus Brown And Nelly,2011-04-25,https://www.airbnb.com/users/show/535247
1248,536025,"Boston, Massachusetts, United States",Anne,2011-04-26,https://www.airbnb.com/users/show/536025
1249,540340,"London, England, United Kingdom",Rachel,2011-04-27,https://www.airbnb.com/users/show/540340
1250,492218,"Hammersmith, England, United Kingdom",Richard,2011-04-07,https://www.airbnb.com/users/show/492218
1251,264345,"London, England, United Kingdom",Susie,2010-10-17,https://www.airbnb.com/users/show/264345
1252,259088,United Kingdom,Simon,2010-10-11,https://www.airbnb.com/users/show/259088
1253,554519,London,Meg,2011-05-03,https://www.airbnb.com/users/show/554519
1254,561772,"London, England, United Kingdom",Marina,2011-05-06,https://www.airbnb.com/users/show/561772
1255,564310,"London, England, United Kingdom",James,2011-05-07,https://www.airbnb.com/users/show/564310
1256,261091,"London, England, United Kingdom",Nina,2010-10-13,https://www.airbnb.com/users/show/261091
1257,586671,"London, England, United Kingdom",Joe,2011-05-14,https://www.airbnb.com/users/show/586671
1258,255103,"London, England, United Kingdom",Olga,2010-10-06,https://www.airbnb.com/users/show/255103
1259,617199,"London, England, United Kingdom",Monica,2011-05-23,https://www.airbnb.com/users/show/617199
1260,161720,"Twickenham, England, United Kingdom",Andy,2010-07-09,https://www.airbnb.com/users/show/161720
1261,639749,"London, England, United Kingdom",Farzam,2011-05-29,https://www.airbnb.com/users/show/639749
1262,646165,"London, England, United Kingdom",Yevgeniy,2011-05-31,https://www.airbnb.com/users/show/646165
1263,471088,"Kensington, England, United Kingdom",Anthony,2011-03-29,https://www.airbnb.com/users/show/471088
1264,677494,"Greater London, England, United Kingdom",Denise,2011-06-08,https://www.airbnb.com/users/show/677494
1265,192627,"London, England, United Kingdom",Clare,2010-08-05,https://www.airbnb.com/users/show/192627
1266,694198,"Greater London, England, United Kingdom",Yasmin,2011-06-12,https://www.airbnb.com/users/show/694198
1267,696065,London,Tania,2011-06-13,https://www.airbnb.com/users/show/696065
1268,598337,"London, England, United Kingdom",Dejan,2011-05-17,https://www.airbnb.com/users/show/598337
1269,704495,"London, England, United Kingdom",Nina,2011-06-15,https://www.airbnb.com/users/show/704495
1270,726717,"London, England, United Kingdom",Tatu,2011-06-21,https://www.airbnb.com/users/show/726717
1271,735248,"London, England, United Kingdom",Jamie,2011-06-23,https://www.airbnb.com/users/show/735248
1272,211018,"Rome, Lazio, Italy",Sylvia,2010-08-24,https://www.airbnb.com/users/show/211018
1273,757377,"","","",https://www.airbnb.com/users/show/757377
1274,766056,"London, England, United Kingdom",Trevor,2011-07-01,https://www.airbnb.com/users/show/766056
1275,761400,"London, England, United Kingdom",Nathan,2011-06-30,https://www.airbnb.com/users/show/761400
1276,802297,"London, England, United Kingdom",Alexandra,2011-07-10,https://www.airbnb.com/users/show/802297
1277,648725,"London, England, United Kingdom",Michele,2011-05-31,https://www.airbnb.com/users/show/648725
1278,32410,"London, England, United Kingdom",Fabio,2009-08-18,https://www.airbnb.com/users/show/32410
1279,814004,"London, England, United Kingdom",Marie,2011-07-13,https://www.airbnb.com/users/show/814004
1280,824591,"Berlin, Berlin, Germany",Anna,2011-07-15,https://www.airbnb.com/users/show/824591
1281,806983,"Camden Town, England, United Kingdom",Elinor,2011-07-11,https://www.airbnb.com/users/show/806983
1282,831866,"Paddington, England, United Kingdom",Erika,2011-07-17,https://www.airbnb.com/users/show/831866
1283,769488,"London, England, United Kingdom",Tanja,2011-07-02,https://www.airbnb.com/users/show/769488
1284,1954110,London,Tariq,2012-03-18,https://www.airbnb.com/users/show/1954110
1285,858555,"London, England, United Kingdom",Larissa,2011-07-23,https://www.airbnb.com/users/show/858555
1286,870749,"London, England, United Kingdom",Maz,2011-07-26,https://www.airbnb.com/users/show/870749
1287,871053,"London, England, United Kingdom",Doreen &  Nichola,2011-07-26,https://www.airbnb.com/users/show/871053
1288,876774,"Richmond-upon-Thames, London",Heather,2011-07-27,https://www.airbnb.com/users/show/876774
1289,878083,"London, United Kingdom.",Kyri,2011-07-27,https://www.airbnb.com/users/show/878083
1290,897316,"London, England, United Kingdom",Emily,2011-07-31,https://www.airbnb.com/users/show/897316
1291,911280,"London, England, United Kingdom",Vee,2011-08-02,https://www.airbnb.com/users/show/911280
1292,917148,"London, England, United Kingdom",Sara,2011-08-03,https://www.airbnb.com/users/show/917148
1293,940283,"Greater London, England, United Kingdom",Andrew,2011-08-08,https://www.airbnb.com/users/show/940283
1294,967537,"Barking, England, United Kingdom",Ryan,2011-08-14,https://www.airbnb.com/users/show/967537
1295,967645,"London, England, United Kingdom",Radhika And Lorenzo,2011-08-14,https://www.airbnb.com/users/show/967645
1296,970506,"London, England, United Kingdom",Mirco,2011-08-14,https://www.airbnb.com/users/show/970506
1297,923968,"London, England, United Kingdom",Patrick,2011-08-04,https://www.airbnb.com/users/show/923968
1298,968464,"London, England, United Kingdom",Catia,2011-08-14,https://www.airbnb.com/users/show/968464
1299,952983,"London, England, United Kingdom",Debbie,2011-08-10,https://www.airbnb.com/users/show/952983
1300,67625,"London, England, United Kingdom",The Team At The London Agent,2010-01-04,https://www.airbnb.com/users/show/67625
1301,1023326,"London, England, United Kingdom",Jocelyn,2011-08-26,https://www.airbnb.com/users/show/1023326
1302,1029332,"London, England, United Kingdom",Joan,2011-08-28,https://www.airbnb.com/users/show/1029332
1303,1035217,"London, England, United Kingdom",Ksenia,2011-08-29,https://www.airbnb.com/users/show/1035217
1304,1098411,"London, England, United Kingdom",Sarah,2011-09-01,https://www.airbnb.com/users/show/1098411
1305,1026967,"Warrington, England, United Kingdom",James,2011-08-27,https://www.airbnb.com/users/show/1026967
1306,1116804,"London, England, United Kingdom",Debbie,2011-09-06,https://www.airbnb.com/users/show/1116804
1307,452542,"London, England, United Kingdom",Joanne,2011-03-20,https://www.airbnb.com/users/show/452542
1308,204615,"London, England, United Kingdom",Mr,2010-08-17,https://www.airbnb.com/users/show/204615
1309,1189533,"Tottenham, England, United Kingdom",Dominique,2011-09-21,https://www.airbnb.com/users/show/1189533
1310,1197888,"London, England, United Kingdom",Louise,2011-09-23,https://www.airbnb.com/users/show/1197888
1311,448365,"London, England, United Kingdom",Roland,2011-03-17,https://www.airbnb.com/users/show/448365
1312,1204138,"Kensington, England, United Kingdom",Adam,2011-09-24,https://www.airbnb.com/users/show/1204138
1313,671259,"London, England, United Kingdom",Kiki,2011-06-06,https://www.airbnb.com/users/show/671259
1314,1210175,"London, England, United Kingdom",Ungelie,2011-09-26,https://www.airbnb.com/users/show/1210175
1315,1211430,"London, England, United Kingdom",Janina,2011-09-26,https://www.airbnb.com/users/show/1211430
1316,1219410,"London, England, United Kingdom",Kobi,2011-09-28,https://www.airbnb.com/users/show/1219410
1317,1237006,"London, England, United Kingdom",Dani,2011-10-02,https://www.airbnb.com/users/show/1237006
1318,979363,London,Donovan,2011-08-16,https://www.airbnb.com/users/show/979363
1319,1249927,"London, England, United Kingdom",Katherine,2011-10-05,https://www.airbnb.com/users/show/1249927
1320,1210195,"London, England, United Kingdom",Chris,2011-09-26,https://www.airbnb.com/users/show/1210195
1321,1251427,"London, England, United Kingdom",Benjamin,2011-10-05,https://www.airbnb.com/users/show/1251427
1322,1252248,"London, England, United Kingdom",Debra,2011-10-05,https://www.airbnb.com/users/show/1252248
1323,1256723,"London, England, United Kingdom",Elaine,2011-10-06,https://www.airbnb.com/users/show/1256723
1324,1262783,"London, England, United Kingdom",Zoë,2011-10-08,https://www.airbnb.com/users/show/1262783
1325,542769,United Kingdom,Dean,2011-04-28,https://www.airbnb.com/users/show/542769
1326,1267045,"London, England, United Kingdom",Clare,2011-10-09,https://www.airbnb.com/users/show/1267045
1327,1269568,"London, England, United Kingdom",Iki,2011-10-09,https://www.airbnb.com/users/show/1269568
1328,1275907,"Hackney, England, United Kingdom",Madeleine,2011-10-11,https://www.airbnb.com/users/show/1275907
1329,1271134,"London, England, United Kingdom",Sophia,2011-10-10,https://www.airbnb.com/users/show/1271134
1330,1280712,"London, England, United Kingdom",Helen,2011-10-12,https://www.airbnb.com/users/show/1280712
1331,1270755,"London, England, United Kingdom",Claire,2011-10-10,https://www.airbnb.com/users/show/1270755
1332,1285864,UK,Miss Salem,2011-10-13,https://www.airbnb.com/users/show/1285864
1333,1289522,"London, England, United Kingdom",Nina,2011-10-14,https://www.airbnb.com/users/show/1289522
1334,852183,"London, England, United Kingdom",Liz,2011-07-22,https://www.airbnb.com/users/show/852183
1335,1291505,"Greater London, England, United Kingdom",Vanessa,2011-10-14,https://www.airbnb.com/users/show/1291505
1336,1322089,"London, England, United Kingdom",Rachel,2011-10-22,https://www.airbnb.com/users/show/1322089
1337,1323479,"London, England, United Kingdom",Maurice,2011-10-22,https://www.airbnb.com/users/show/1323479
1338,1332358,"London, England, United Kingdom",Matt,2011-10-25,https://www.airbnb.com/users/show/1332358
1339,6821,"London, England, United Kingdom",Madlyn,2009-01-16,https://www.airbnb.com/users/show/6821
1340,1339807,"London, England, United Kingdom",Tina,2011-10-26,https://www.airbnb.com/users/show/1339807
1341,1315562,"London, England, United Kingdom",Nicoletta,2011-10-20,https://www.airbnb.com/users/show/1315562
1342,280260,"Greater London, England, United Kingdom",James And Kathleen,2010-11-07,https://www.airbnb.com/users/show/280260
1343,1353674,"London, England, United Kingdom",Otto,2011-10-31,https://www.airbnb.com/users/show/1353674
1344,1286929,"London, England, United Kingdom",Gurpal,2011-10-13,https://www.airbnb.com/users/show/1286929
1345,1376095,"London, England, United Kingdom",Vladimir,2011-11-06,https://www.airbnb.com/users/show/1376095
1346,1383749,"London, England, United Kingdom",Henrietta,2011-11-08,https://www.airbnb.com/users/show/1383749
1347,1384320,"London, England, United Kingdom",Steven,2011-11-08,https://www.airbnb.com/users/show/1384320
1348,1389063,United Kingdom,Sue,2011-11-09,https://www.airbnb.com/users/show/1389063
1349,1409580,"London Borough of Ealing, England, United Kingdom",Kate,2011-11-15,https://www.airbnb.com/users/show/1409580
1350,1410091,"London, England, United Kingdom",Kath,2011-11-15,https://www.airbnb.com/users/show/1410091
1351,1416605,"London, England, United Kingdom",Emma,2011-11-17,https://www.airbnb.com/users/show/1416605
1352,1419096,"Michigan, United States",Claudia,2011-11-18,https://www.airbnb.com/users/show/1419096
1353,444388,"Hove, England, United Kingdom",Marie,2011-03-15,https://www.airbnb.com/users/show/444388
1354,8066494,London,Liliana / Daniel,2013-08-10,https://www.airbnb.com/users/show/8066494
1355,7337548,"London, England, United Kingdom",Ewa,2013-07-07,https://www.airbnb.com/users/show/7337548
1356,1436390,London,Maria,2011-11-23,https://www.airbnb.com/users/show/1436390
1357,381894,"Greater London, England, United Kingdom",Eddy,2011-02-08,https://www.airbnb.com/users/show/381894
1358,1438437,"London, England, United Kingdom",D.C.,2011-11-24,https://www.airbnb.com/users/show/1438437
1359,1441235,"Lambeth, England, United Kingdom",Anne Marie,2011-11-25,https://www.airbnb.com/users/show/1441235
1360,1442674,"London, England, United Kingdom",Tosi,2011-11-25,https://www.airbnb.com/users/show/1442674
1361,1453552,UK,Aya,2011-11-29,https://www.airbnb.com/users/show/1453552
1362,1464452,London,Maria And Rino,2011-12-02,https://www.airbnb.com/users/show/1464452
1363,1467581,"London, England, United Kingdom",Philip,2011-12-03,https://www.airbnb.com/users/show/1467581
1364,1413029,"New York, New York, United States",Lucy,2011-11-16,https://www.airbnb.com/users/show/1413029
1365,1471370,"London, England, United Kingdom",Jamie,2011-12-04,https://www.airbnb.com/users/show/1471370
1366,1473649,UK,Hoda,2011-12-05,https://www.airbnb.com/users/show/1473649
1367,1476754,"London, England, United Kingdom",Nina,2011-12-06,https://www.airbnb.com/users/show/1476754
1368,1481412,"London, England, United Kingdom",Luca,2011-12-07,https://www.airbnb.com/users/show/1481412
1369,1481851,"London, England, United Kingdom",Tania,2011-12-07,https://www.airbnb.com/users/show/1481851
1370,1491611,UK,Nora,2011-12-10,https://www.airbnb.com/users/show/1491611
1371,1357630,"London, England, United Kingdom",Chung Han,2011-11-01,https://www.airbnb.com/users/show/1357630
1372,737248,"Greater London, England, United Kingdom",Ragnhild,2011-06-23,https://www.airbnb.com/users/show/737248
1373,1506151,"London, England, United Kingdom",Portia,2011-12-15,https://www.airbnb.com/users/show/1506151
1374,1508385,"London, England, United Kingdom",Neema,2011-12-15,https://www.airbnb.com/users/show/1508385
1375,1254028,"London, England, United Kingdom",Matt,2011-10-05,https://www.airbnb.com/users/show/1254028
1376,1521032,"London, England, United Kingdom",Oliver,2011-12-20,https://www.airbnb.com/users/show/1521032
1377,1521435,"London, England, United Kingdom",Milena,2011-12-20,https://www.airbnb.com/users/show/1521435
1378,1527176,"London, England, United Kingdom",Gill,2011-12-22,https://www.airbnb.com/users/show/1527176
1379,1525125,"London, England, United Kingdom",Ernest,2011-12-21,https://www.airbnb.com/users/show/1525125
1380,1530293,"London, United Kingdom",Carolina,2011-12-23,https://www.airbnb.com/users/show/1530293
1381,1542753,"Wembley, England, United Kingdom",Yvonne,2011-12-28,https://www.airbnb.com/users/show/1542753
1382,1546859,"London, England, United Kingdom",Nagla,2011-12-29,https://www.airbnb.com/users/show/1546859
1383,1549137,"London, England, United Kingdom",Rita,2011-12-30,https://www.airbnb.com/users/show/1549137
1384,1554006,"London, England, United Kingdom",Christopher,2012-01-01,https://www.airbnb.com/users/show/1554006
1385,1559053,"London, England, United Kingdom",Isabel,2012-01-02,https://www.airbnb.com/users/show/1559053
1386,1349562,"London, England, United Kingdom",Fola,2011-10-29,https://www.airbnb.com/users/show/1349562
1387,281951,"London, England, United Kingdom",Ed,2010-11-09,https://www.airbnb.com/users/show/281951
1388,1573022,"London, England, United Kingdom",Sue,2012-01-06,https://www.airbnb.com/users/show/1573022
1389,1575800,"London, England, United Kingdom",Mary,2012-01-06,https://www.airbnb.com/users/show/1575800
1390,1577254,"London, England, United Kingdom",Pm,2012-01-07,https://www.airbnb.com/users/show/1577254
1391,1577723,"London, England, United Kingdom",Yael,2012-01-07,https://www.airbnb.com/users/show/1577723
1392,1579159,"London, England, United Kingdom",Sam,2012-01-07,https://www.airbnb.com/users/show/1579159
1393,1584404,"Uxbridge, England, United Kingdom",Rubina,2012-01-09,https://www.airbnb.com/users/show/1584404
1394,1586861,"London, England, United Kingdom",Eliza,2012-01-09,https://www.airbnb.com/users/show/1586861
1395,292707,"London, England, United Kingdom",Kevin,2010-11-20,https://www.airbnb.com/users/show/292707
1396,1460505,"London, England, United Kingdom",Catherine,2011-12-01,https://www.airbnb.com/users/show/1460505
1397,1500877,United Kingdom,John,2011-12-13,https://www.airbnb.com/users/show/1500877
1398,1598430,"London, England, United Kingdom",Maria,2012-01-12,https://www.airbnb.com/users/show/1598430
1399,1599044,"London, England, United Kingdom",Robert And Antonio,2012-01-12,https://www.airbnb.com/users/show/1599044
1400,1606425,"London, England, United Kingdom",Paolo,2012-01-14,https://www.airbnb.com/users/show/1606425
1401,1608226,"London, England, United Kingdom",Pippa,2012-01-15,https://www.airbnb.com/users/show/1608226
1402,1612623,"London, England, United Kingdom",Alex,2012-01-16,https://www.airbnb.com/users/show/1612623
1403,1613803,"Las Palmas de Gran Canaria, Canary Islands, Spain",Talat And Nalan,2012-01-16,https://www.airbnb.com/users/show/1613803
1404,1614205,"London, England, United Kingdom",Lara,2012-01-16,https://www.airbnb.com/users/show/1614205
1405,1617885,"London, England, United Kingdom",Roger,2012-01-17,https://www.airbnb.com/users/show/1617885
1406,1619024,"London, England, United Kingdom",Sally,2012-01-17,https://www.airbnb.com/users/show/1619024
1407,1620606,"London, England, United Kingdom",Shirley,2012-01-18,https://www.airbnb.com/users/show/1620606
1408,1620906,"London, England, United Kingdom",Graeme,2012-01-18,https://www.airbnb.com/users/show/1620906
1409,1621004,"London, England, United Kingdom",Gideon,2012-01-18,https://www.airbnb.com/users/show/1621004
1410,1369081,"London, England, United Kingdom",Mirjam,2011-11-04,https://www.airbnb.com/users/show/1369081
1411,1636529,"Greater London, England, United Kingdom",Marie-Louise,2012-01-22,https://www.airbnb.com/users/show/1636529
1412,1637212,"London, England, United Kingdom",Apprameya,2012-01-22,https://www.airbnb.com/users/show/1637212
1413,1637179,"London, England, United Kingdom",Toni,2012-01-22,https://www.airbnb.com/users/show/1637179
1414,1438723,"London, England, United Kingdom",Neried,2011-11-24,https://www.airbnb.com/users/show/1438723
1415,1655726,"Greater London, England, United Kingdom",Eleni & Tom,2012-01-26,https://www.airbnb.com/users/show/1655726
1416,621725,"London, England, United Kingdom",R & T,2011-05-24,https://www.airbnb.com/users/show/621725
1417,1664001,"London, England, United Kingdom",Ganesan,2012-01-28,https://www.airbnb.com/users/show/1664001
1418,1659555,"London, England, United Kingdom",Edmund,2012-01-27,https://www.airbnb.com/users/show/1659555
1419,734142,"London, England, United Kingdom",Mariano & Eduardo,2011-06-23,https://www.airbnb.com/users/show/734142
1420,1665741,"London, England, United Kingdom",Alon,2012-01-28,https://www.airbnb.com/users/show/1665741
1421,1666422,"London, England, United Kingdom",Stephen,2012-01-28,https://www.airbnb.com/users/show/1666422
1422,1667975,"London, England, United Kingdom",Inma,2012-01-29,https://www.airbnb.com/users/show/1667975
1423,1668677,"London, England, United Kingdom",Chris,2012-01-29,https://www.airbnb.com/users/show/1668677
1424,1645632,"London, United Kingdom",Jimmy & Janie,2012-01-24,https://www.airbnb.com/users/show/1645632
1425,1682825,"London, England, United Kingdom",Ramon,2012-02-01,https://www.airbnb.com/users/show/1682825
1426,1684191,"London, England, United Kingdom",Alessandra,2012-02-01,https://www.airbnb.com/users/show/1684191
1427,1687570,"London, England, United Kingdom",Claire,2012-02-02,https://www.airbnb.com/users/show/1687570
1428,1688557,"Greater London, England, United Kingdom",Layla,2012-02-02,https://www.airbnb.com/users/show/1688557
1429,1693107,"England, United Kingdom",Zara,2012-02-03,https://www.airbnb.com/users/show/1693107
1430,1703080,"45 Ladywell Road, London SE13 7UT, England, United Kingdom",Allan,2012-02-05,https://www.airbnb.com/users/show/1703080
1431,1703579,"London, England, United Kingdom",Baxter,2012-02-05,https://www.airbnb.com/users/show/1703579
1432,1703967,"London, England, United Kingdom",Victor & Rachel,2012-02-05,https://www.airbnb.com/users/show/1703967
1433,1706248,"London, England, United Kingdom",Richard,2012-02-06,https://www.airbnb.com/users/show/1706248
1434,1716535,"London, England, United Kingdom",Dalston,2012-02-07,https://www.airbnb.com/users/show/1716535
1435,1717343,"London, England, United Kingdom",Tom Tyrell,2012-02-07,https://www.airbnb.com/users/show/1717343
1436,1721165,"London, England, United Kingdom",Elaine,2012-02-08,https://www.airbnb.com/users/show/1721165
1437,1727431,"London, England, United Kingdom",Kenichiro,2012-02-09,https://www.airbnb.com/users/show/1727431
1438,1729294,"London, England, United Kingdom",Tamara,2012-02-10,https://www.airbnb.com/users/show/1729294
1439,1730010,"London, England, United Kingdom",Natalie,2012-02-10,https://www.airbnb.com/users/show/1730010
1440,1499506,"London, England, United Kingdom",Anna,2011-12-13,https://www.airbnb.com/users/show/1499506
1441,1734105,"London, England, United Kingdom",Tricia,2012-02-11,https://www.airbnb.com/users/show/1734105
1442,1735026,"London, England, United Kingdom",Sylwia,2012-02-11,https://www.airbnb.com/users/show/1735026
1443,1740979,"London, England, United Kingdom",Hilary,2012-02-12,https://www.airbnb.com/users/show/1740979
1444,507972,"London, England, United Kingdom",Maryam,2011-04-14,https://www.airbnb.com/users/show/507972
1445,875652,"West Sussex, England, United Kingdom",Kadija,2011-07-26,https://www.airbnb.com/users/show/875652
1446,1744522,"London Borough of Enfield, England, United Kingdom",Denise,2012-02-13,https://www.airbnb.com/users/show/1744522
1447,1745432,UK,Karen,2012-02-13,https://www.airbnb.com/users/show/1745432
1448,1746057,GB,Ashudill,2012-02-13,https://www.airbnb.com/users/show/1746057
1449,1750074,"London, England, United Kingdom",Oliver,2012-02-14,https://www.airbnb.com/users/show/1750074
1450,1750169,"London, England, United Kingdom",Adam,2012-02-14,https://www.airbnb.com/users/show/1750169
1451,1751472,"London, England, United Kingdom",Leona,2012-02-14,https://www.airbnb.com/users/show/1751472
1452,1754088,"London, England, United Kingdom",Clare,2012-02-15,https://www.airbnb.com/users/show/1754088
1453,1756532,"London, England, United Kingdom",Julia,2012-02-15,https://www.airbnb.com/users/show/1756532
1454,1090342,"London, England, United Kingdom",John,2011-08-31,https://www.airbnb.com/users/show/1090342
1455,1763100,"27 Fieldhouse Road, Balham, London, SW12 0HL, England, United Kingdom",Yvonne,2012-02-16,https://www.airbnb.com/users/show/1763100
1456,1764754,"London, England, United Kingdom",Tom,2012-02-17,https://www.airbnb.com/users/show/1764754
1457,1769704,"London, England, United Kingdom",Fai,2012-02-18,https://www.airbnb.com/users/show/1769704
1458,1769902,"London, England, United Kingdom",Fiona,2012-02-18,https://www.airbnb.com/users/show/1769902
1459,1773176,"London, England, United Kingdom",Arnie,2012-02-19,https://www.airbnb.com/users/show/1773176
1460,1775832,"London, England, United Kingdom",Natalie,2012-02-19,https://www.airbnb.com/users/show/1775832
1461,1775224,"England, United Kingdom",Christina,2012-02-19,https://www.airbnb.com/users/show/1775224
1462,1788460,"London, England, United Kingdom",Anne,2012-02-21,https://www.airbnb.com/users/show/1788460
1463,1792369,"London, England, United Kingdom",Eleonor,2012-02-22,https://www.airbnb.com/users/show/1792369
1464,130231,"London, England, United Kingdom",Nathan,2010-05-23,https://www.airbnb.com/users/show/130231
1465,1755482,london,Liz,2012-02-15,https://www.airbnb.com/users/show/1755482
1466,1811246,"London, England, United Kingdom",Sandra,2012-02-26,https://www.airbnb.com/users/show/1811246
1467,1807743,"London, England, United Kingdom",Nathan,2012-02-25,https://www.airbnb.com/users/show/1807743
1468,727110,"London, England, United Kingdom",Serge,2011-06-21,https://www.airbnb.com/users/show/727110
1469,1813972,"London, England, United Kingdom",Rachella,2012-02-26,https://www.airbnb.com/users/show/1813972
1470,1741058,"London, England, United Kingdom",Frankie,2012-02-12,https://www.airbnb.com/users/show/1741058
1471,335879,"Detroit, Michigan, United States",Sophie,2011-01-05,https://www.airbnb.com/users/show/335879
1472,1827865,"London, England, United Kingdom",Francine,2012-02-28,https://www.airbnb.com/users/show/1827865
1473,1829481,"London, England, United Kingdom",Orsi,2012-02-29,https://www.airbnb.com/users/show/1829481
1474,1810850,"London, England, United Kingdom",Christopher,2012-02-26,https://www.airbnb.com/users/show/1810850
1475,1832206,GB,Jo,2012-02-29,https://www.airbnb.com/users/show/1832206
1476,1836808,GB,Di,2012-03-01,https://www.airbnb.com/users/show/1836808
1477,710493,"London, England, United Kingdom",Marsha,2011-06-16,https://www.airbnb.com/users/show/710493
1478,1847762,"London, England, United Kingdom",D & D,2012-03-03,https://www.airbnb.com/users/show/1847762
1479,1853739,"London, England, United Kingdom",Andres,2012-03-04,https://www.airbnb.com/users/show/1853739
1480,1849921,"London, England, United Kingdom",Oliver,2012-03-03,https://www.airbnb.com/users/show/1849921
1481,1844072,"London, England, United Kingdom",Mary,2012-03-02,https://www.airbnb.com/users/show/1844072
1482,1861649,London,Vicky,2012-03-05,https://www.airbnb.com/users/show/1861649
1483,49783090,"England, United Kingdom",Jo,2015-11-24,https://www.airbnb.com/users/show/49783090
1484,1883830,"London, England, United Kingdom",Aisling & Matt,2012-03-08,https://www.airbnb.com/users/show/1883830
1485,1749231,"London, England, United Kingdom",Lizzy,2012-02-14,https://www.airbnb.com/users/show/1749231
1486,1886636,"London, England, United Kingdom",Tope,2012-03-08,https://www.airbnb.com/users/show/1886636
1487,1554514,"London, England, United Kingdom",Sandy,2012-01-01,https://www.airbnb.com/users/show/1554514
1488,1889832,"New Malden, England, United Kingdom",Glynis,2012-03-09,https://www.airbnb.com/users/show/1889832
1489,1898009,"349 Fulbourne road,E17 4HL,London, England, United Kingdom.",Raimonda & Paulius,2012-03-10,https://www.airbnb.com/users/show/1898009
1490,1878852,"Leith, Scotland, United Kingdom",Alienor & Piers,2012-03-07,https://www.airbnb.com/users/show/1878852
1491,1900844,"London, England, United Kingdom",Pippa,2012-03-11,https://www.airbnb.com/users/show/1900844
1492,1901556,"London, England, United Kingdom",Marianne,2012-03-11,https://www.airbnb.com/users/show/1901556
1493,1903473,"London, England, United Kingdom",Suzanne,2012-03-11,https://www.airbnb.com/users/show/1903473
1494,892187,"London, England, United Kingdom",Wayne,2011-07-30,https://www.airbnb.com/users/show/892187
1495,1903242,"London, England, United Kingdom",Åsa,2012-03-11,https://www.airbnb.com/users/show/1903242
1496,1908027,"Lisbon, Lisbon, Portugal",Louisa,2012-03-12,https://www.airbnb.com/users/show/1908027
1497,1909905,"London, England, United Kingdom",Eddie,2012-03-12,https://www.airbnb.com/users/show/1909905
1498,1911148,"London, England, United Kingdom",Brendan,2012-03-12,https://www.airbnb.com/users/show/1911148
1499,1913410,"London, England, United Kingdom",Thanos,2012-03-13,https://www.airbnb.com/users/show/1913410
1500,1890206,"14 Holmewood Gardens. SW2 3RS. London, England, United Kingdom",Francien,2012-03-09,https://www.airbnb.com/users/show/1890206
1501,1917742,"London, England, United Kingdom",Aaron,2012-03-13,https://www.airbnb.com/users/show/1917742
1502,1917784,"London, England, United Kingdom",Faisal,2012-03-13,https://www.airbnb.com/users/show/1917784
1503,1923818,"London, England, United Kingdom",Querida,2012-03-14,https://www.airbnb.com/users/show/1923818
1504,1926757,"London, England, United Kingdom",Jonathan,2012-03-15,https://www.airbnb.com/users/show/1926757
1505,1920828,"London, England, United Kingdom",Marcus,2012-03-14,https://www.airbnb.com/users/show/1920828
1506,1927072,"London, England, United Kingdom",Helen,2012-03-15,https://www.airbnb.com/users/show/1927072
1507,1936326,"I live in London, UK",Vedrana,2012-03-16,https://www.airbnb.com/users/show/1936326
1508,1940607,"London, England, United Kingdom",Graham,2012-03-17,https://www.airbnb.com/users/show/1940607
1509,1941155,"Cambridgeshire, England, United Kingdom",Nynke,2012-03-17,https://www.airbnb.com/users/show/1941155
1510,1941185,"London, England, United Kingdom",Jimmy,2012-03-17,https://www.airbnb.com/users/show/1941185
1511,1941211,London,"Cheryl, Anna ,Lee",2012-03-17,https://www.airbnb.com/users/show/1941211
1512,1941593,"London, England, United Kingdom",Susan,2012-03-17,https://www.airbnb.com/users/show/1941593
1513,1942893,"London, England, United Kingdom",Nigel,2012-03-17,https://www.airbnb.com/users/show/1942893
1514,1942925,"London, England, United Kingdom",Helena,2012-03-17,https://www.airbnb.com/users/show/1942925
1515,1943308,GB,Maurizio,2012-03-17,https://www.airbnb.com/users/show/1943308
1516,1943439,"London, England, United Kingdom",Caroline,2012-03-17,https://www.airbnb.com/users/show/1943439
1517,1944640,"London, England, United Kingdom",Alicia,2012-03-17,https://www.airbnb.com/users/show/1944640
1518,1944736,"London, England, United Kingdom",Henry,2012-03-17,https://www.airbnb.com/users/show/1944736
1519,1944777,"London, England, United Kingdom",Geraldine,2012-03-17,https://www.airbnb.com/users/show/1944777
1520,1944867,"London, England, United Kingdom",Colin,2012-03-17,https://www.airbnb.com/users/show/1944867
1521,1944988,London,Lena,2012-03-17,https://www.airbnb.com/users/show/1944988
1522,1945054,"London, England, United Kingdom",Jennifer,2012-03-17,https://www.airbnb.com/users/show/1945054
1523,1945165,"London central, GB",Tessa,2012-03-17,https://www.airbnb.com/users/show/1945165
1524,1945378,"London, England, United Kingdom",Rose,2012-03-17,https://www.airbnb.com/users/show/1945378
1525,1946207,"London, England, United Kingdom",Anandraj,2012-03-17,https://www.airbnb.com/users/show/1946207
1526,1946664,"London, England, United Kingdom",Philip,2012-03-17,https://www.airbnb.com/users/show/1946664
1527,1946900,"London, England, United Kingdom",David,2012-03-17,https://www.airbnb.com/users/show/1946900
1528,1947169,"London, England, United Kingdom",Anna,2012-03-17,https://www.airbnb.com/users/show/1947169
1529,1947338,"London, England, United Kingdom",Patricia,2012-03-17,https://www.airbnb.com/users/show/1947338
1530,1949031,"Greater London, England, United Kingdom",Susanna,2012-03-18,https://www.airbnb.com/users/show/1949031
1531,1949274,"London, United Kingdom",Tracey,2012-03-18,https://www.airbnb.com/users/show/1949274
1532,1949877,"London, England, United Kingdom",NokuMary,2012-03-18,https://www.airbnb.com/users/show/1949877
1533,1950053,"London, England, United Kingdom",Toyin,2012-03-18,https://www.airbnb.com/users/show/1950053
1534,1950060,"London, England, United Kingdom",Stella,2012-03-18,https://www.airbnb.com/users/show/1950060
1535,1950478,"London, England, United Kingdom",Alison,2012-03-18,https://www.airbnb.com/users/show/1950478
1536,1950992,"London, England, United Kingdom",Frances,2012-03-18,https://www.airbnb.com/users/show/1950992
1537,1951861,London,Alvin,2012-03-18,https://www.airbnb.com/users/show/1951861
1538,1952637,"London, United Kingdom",Blair,2012-03-18,https://www.airbnb.com/users/show/1952637
1539,1952645,"London, England, United Kingdom",Julia,2012-03-18,https://www.airbnb.com/users/show/1952645
1540,1952786,"London, England, United Kingdom",Anne,2012-03-18,https://www.airbnb.com/users/show/1952786
1541,1953374,London,John Paul,2012-03-18,https://www.airbnb.com/users/show/1953374
1542,1954407,"London, England, United Kingdom",Eileen,2012-03-18,https://www.airbnb.com/users/show/1954407
1543,1954418,"London, England, United Kingdom",Kathryn,2012-03-18,https://www.airbnb.com/users/show/1954418
1544,1954980,"Middlesex, England.",Mary,2012-03-18,https://www.airbnb.com/users/show/1954980
1545,1955537,"London, England, United Kingdom",Ali,2012-03-18,https://www.airbnb.com/users/show/1955537
1546,1955705,"Greater London, England, United Kingdom",Lark,2012-03-18,https://www.airbnb.com/users/show/1955705
1547,1956888,"London, England, United Kingdom",Serge,2012-03-18,https://www.airbnb.com/users/show/1956888
1548,1956993,GB,Blanca,2012-03-18,https://www.airbnb.com/users/show/1956993
1549,1958808,London,Urszula,2012-03-18,https://www.airbnb.com/users/show/1958808
1550,1959245,"London, England, United Kingdom",Brion,2012-03-18,https://www.airbnb.com/users/show/1959245
1551,1959452,London,Michael,2012-03-18,https://www.airbnb.com/users/show/1959452
1552,1959677,"Greater London, England, United Kingdom",Janet,2012-03-18,https://www.airbnb.com/users/show/1959677
1553,1961043,"Greater London, England, United Kingdom",Mayda,2012-03-18,https://www.airbnb.com/users/show/1961043
1554,1961516,"London, England, United Kingdom",Muriel,2012-03-18,https://www.airbnb.com/users/show/1961516
1555,1961586,"London, England, United Kingdom",Jess,2012-03-18,https://www.airbnb.com/users/show/1961586
1556,1966685,GB,Mark,2012-03-19,https://www.airbnb.com/users/show/1966685
1557,1973515,"London, England, United Kingdom",Lara,2012-03-20,https://www.airbnb.com/users/show/1973515
1558,1908992,"London, England, United Kingdom",Stefano & Maria,2012-03-12,https://www.airbnb.com/users/show/1908992
1559,1946856,"London, England, United Kingdom",Esther,2012-03-17,https://www.airbnb.com/users/show/1946856
1560,1955405,United Kingdom,Daphne,2012-03-18,https://www.airbnb.com/users/show/1955405
1561,339492,"London, England, United Kingdom",Mr NADORI,2011-01-08,https://www.airbnb.com/users/show/339492
1562,1986197,"Greater London, England, United Kingdom",Wills,2012-03-22,https://www.airbnb.com/users/show/1986197
1563,1986199,"London, England, United Kingdom",Carolyn,2012-03-22,https://www.airbnb.com/users/show/1986199
1564,1677345,"London, England, United Kingdom",Laryssa,2012-01-31,https://www.airbnb.com/users/show/1677345
1565,1997622,"London, England, United Kingdom",Emmy,2012-03-24,https://www.airbnb.com/users/show/1997622
1566,1879125,UK,Micheal,2012-03-07,https://www.airbnb.com/users/show/1879125
1567,2000806,"London, England, United Kingdom",Seane,2012-03-24,https://www.airbnb.com/users/show/2000806
1568,2000146,"London, England, United Kingdom",Natasha&Ed,2012-03-24,https://www.airbnb.com/users/show/2000146
1569,2003172,"Christ Church, Barbados",Simon,2012-03-25,https://www.airbnb.com/users/show/2003172
1570,2003221,"London, England, United Kingdom",CharliesAngel,2012-03-25,https://www.airbnb.com/users/show/2003221
1571,2006285,GB,Kamila,2012-03-25,https://www.airbnb.com/users/show/2006285
1572,2006404,"London, England, United Kingdom",Sadakat,2012-03-25,https://www.airbnb.com/users/show/2006404
1573,1609550,"Greater London, England, United Kingdom",Tyron,2012-01-15,https://www.airbnb.com/users/show/1609550
1574,800096,LONDON,Claudia,2011-07-10,https://www.airbnb.com/users/show/800096
1575,1857893,"London, England, United Kingdom",Pablo,2012-03-04,https://www.airbnb.com/users/show/1857893
1576,2010626,"Quarteira, Faro, Portugal",Lorraine,2012-03-26,https://www.airbnb.com/users/show/2010626
1577,2018776,GB,Cynthia,2012-03-27,https://www.airbnb.com/users/show/2018776
1578,1625632,"London, England, United Kingdom",Alan,2012-01-19,https://www.airbnb.com/users/show/1625632
1579,1755433,"Greater London, England, United Kingdom",Teresa,2012-02-15,https://www.airbnb.com/users/show/1755433
1580,2024791,GB,Will,2012-03-28,https://www.airbnb.com/users/show/2024791
1581,2009396,"London, England, United Kingdom",Jose And Teresa,2012-03-26,https://www.airbnb.com/users/show/2009396
1582,2026845,"London, England, United Kingdom",Alison,2012-03-28,https://www.airbnb.com/users/show/2026845
1583,2026952,"London, England, United Kingdom",Edson,2012-03-28,https://www.airbnb.com/users/show/2026952
1584,1956256,GB,Juliette,2012-03-18,https://www.airbnb.com/users/show/1956256
1585,2029727,"London, England, United Kingdom",Leila,2012-03-29,https://www.airbnb.com/users/show/2029727
1586,958656,"Northolt, England, United Kingdom",Karmen And Tomislav,2011-08-11,https://www.airbnb.com/users/show/958656
1587,1942597,"London, England, United Kingdom",Nanako,2012-03-17,https://www.airbnb.com/users/show/1942597
1588,1556847,"London, England, United Kingdom",Joseph,2012-01-02,https://www.airbnb.com/users/show/1556847
1589,2038199,"London, England, United Kingdom",Rachel,2012-03-30,https://www.airbnb.com/users/show/2038199
1590,2040927,"Croydon, England, United Kingdom",Diego,2012-03-31,https://www.airbnb.com/users/show/2040927
1591,2041605,"London, England, United Kingdom",Harrison,2012-03-31,https://www.airbnb.com/users/show/2041605
1592,2042167,"London, England, United Kingdom",Sunita,2012-03-31,https://www.airbnb.com/users/show/2042167
1593,2046191,"London, England, United Kingdom",Marc,2012-04-01,https://www.airbnb.com/users/show/2046191
1594,2046484,"London, England, United Kingdom",Fiona,2012-04-01,https://www.airbnb.com/users/show/2046484
1595,2048126,"London Borough of Tower Hamlets, England, United Kingdom",Tracey,2012-04-01,https://www.airbnb.com/users/show/2048126
1596,2049213,"London, England, United Kingdom",Maz,2012-04-01,https://www.airbnb.com/users/show/2049213
1597,1764906,"London, England, United Kingdom",Jon,2012-02-17,https://www.airbnb.com/users/show/1764906
1598,2053887,"Greater London, England, United Kingdom",Danny,2012-04-02,https://www.airbnb.com/users/show/2053887
1599,2060399,"London, England, United Kingdom",Maksim,2012-04-03,https://www.airbnb.com/users/show/2060399
1600,515834,"Clapton, Hackney, London",Geraldine,2011-04-17,https://www.airbnb.com/users/show/515834
1601,1302946,"London, England, United Kingdom",Robin,2011-10-17,https://www.airbnb.com/users/show/1302946
1602,1956788,"Cambridge, England, United Kingdom",Clare,2012-03-18,https://www.airbnb.com/users/show/1956788
1603,2068822,"Forest Hill, London SE13 1AN",Ming,2012-04-04,https://www.airbnb.com/users/show/2068822
1604,2069875,"Ko Tao, Surat Thani, Thailand",Nan And Sam,2012-04-04,https://www.airbnb.com/users/show/2069875
1605,2032990,"London, England, United Kingdom",Niya,2012-03-29,https://www.airbnb.com/users/show/2032990
1606,2074413,France,Francois,2012-04-05,https://www.airbnb.com/users/show/2074413
1607,1953872,"London, England, United Kingdom",Living In London City,2012-03-18,https://www.airbnb.com/users/show/1953872
1608,1952082,"Gloucestershire, England, United Kingdom",Lidia,2012-03-18,https://www.airbnb.com/users/show/1952082
1609,2081473,"Angel, Islington, London",Jenny,2012-04-06,https://www.airbnb.com/users/show/2081473
1610,1952761,GB,Lucy,2012-03-18,https://www.airbnb.com/users/show/1952761
1611,2087745,"Royal Borough of Greenwich, London Se18 4AT",Tony,2012-04-07,https://www.airbnb.com/users/show/2087745
1612,351018,"London, England, United Kingdom",John And Sarah,2011-01-17,https://www.airbnb.com/users/show/351018
1613,2091712,"London, England, United Kingdom",Cassidy,2012-04-08,https://www.airbnb.com/users/show/2091712
1614,2092122,London,George,2012-04-08,https://www.airbnb.com/users/show/2092122
1615,2094351,"London, England, United Kingdom",Xavier,2012-04-08,https://www.airbnb.com/users/show/2094351
1616,2097774,"London, England, United Kingdom",Chinwe,2012-04-09,https://www.airbnb.com/users/show/2097774
1617,1765474,"London, England, United Kingdom",Samantha,2012-02-17,https://www.airbnb.com/users/show/1765474
1618,2099630,"London, England, United Kingdom",Richard,2012-04-09,https://www.airbnb.com/users/show/2099630
1619,2100335,"Greater London, England, United Kingdom",Renja,2012-04-09,https://www.airbnb.com/users/show/2100335
1620,2093388,"London, England, United Kingdom",Tessa,2012-04-08,https://www.airbnb.com/users/show/2093388
1621,2110389,"London, England, United Kingdom",Giray,2012-04-10,https://www.airbnb.com/users/show/2110389
1622,2011372,"London, England, United Kingdom",Cagdas,2012-03-26,https://www.airbnb.com/users/show/2011372
1623,2124088,"London, England, United Kingdom",Corrine,2012-04-12,https://www.airbnb.com/users/show/2124088
1624,2124185,"London, England, United Kingdom",Graham & Ivano,2012-04-12,https://www.airbnb.com/users/show/2124185
1625,2125123,"London, England, United Kingdom",Sophie,2012-04-12,https://www.airbnb.com/users/show/2125123
1626,2126954,"London, England, United Kingdom",Carmen,2012-04-12,https://www.airbnb.com/users/show/2126954
1627,2129966,"Guildford, England, United Kingdom",Alex,2012-04-13,https://www.airbnb.com/users/show/2129966
1628,2130604,"London, England, United Kingdom",Aaron,2012-04-13,https://www.airbnb.com/users/show/2130604
1629,2128446,GB,Betty,2012-04-12,https://www.airbnb.com/users/show/2128446
1630,2132532,"London, England, United Kingdom",Vv,2012-04-13,https://www.airbnb.com/users/show/2132532
1631,2120084,"London, England, United Kingdom",Costa,2012-04-11,https://www.airbnb.com/users/show/2120084
1632,2137073,"London, England, United Kingdom",Anne Caroline,2012-04-14,https://www.airbnb.com/users/show/2137073
1633,2138542,"London, England, United Kingdom",Judith,2012-04-14,https://www.airbnb.com/users/show/2138542
1634,2140668,London,Andrew,2012-04-14,https://www.airbnb.com/users/show/2140668
1635,2144751,"Greater London, England, United Kingdom",Shane,2012-04-15,https://www.airbnb.com/users/show/2144751
1636,2146699,"Angel, Islington",Mei-Ling,2012-04-15,https://www.airbnb.com/users/show/2146699
1637,2134315,"London, England, United Kingdom",Kalpna,2012-04-13,https://www.airbnb.com/users/show/2134315
1638,2151378,"Greater London, England, United Kingdom",Simon,2012-04-16,https://www.airbnb.com/users/show/2151378
1639,491402,"Greater London, England, United Kingdom",Jay,2011-04-07,https://www.airbnb.com/users/show/491402
1640,1799991,"London, England, United Kingdom",Jonathan,2012-02-23,https://www.airbnb.com/users/show/1799991
1641,2159331,"London, England, United Kingdom",Manivannan,2012-04-17,https://www.airbnb.com/users/show/2159331
1642,2056768,"London, England, United Kingdom",Dipo,2012-04-02,https://www.airbnb.com/users/show/2056768
1643,2160749,"London, England, United Kingdom",Grant,2012-04-17,https://www.airbnb.com/users/show/2160749
1644,2162878,"London, England, United Kingdom",Sharon,2012-04-17,https://www.airbnb.com/users/show/2162878
1645,2163206,"London, England, United Kingdom",Judy,2012-04-17,https://www.airbnb.com/users/show/2163206
1646,1944179,"London, England, United Kingdom",Monica,2012-03-17,https://www.airbnb.com/users/show/1944179
1647,2167935,"London, England, United Kingdom",Jeanie,2012-04-18,https://www.airbnb.com/users/show/2167935
1648,2167992,"London, England, United Kingdom",Richard,2012-04-18,https://www.airbnb.com/users/show/2167992
1649,2171632,"London, England, United Kingdom",Sana,2012-04-18,https://www.airbnb.com/users/show/2171632
1650,2173932,"London, England, United Kingdom",Sinead,2012-04-19,https://www.airbnb.com/users/show/2173932
1651,2174619,"London, England, United Kingdom",Adam,2012-04-19,https://www.airbnb.com/users/show/2174619
1652,1365824,"London, England, United Kingdom",Jenny,2011-11-03,https://www.airbnb.com/users/show/1365824
1653,2178400,"London, England, United Kingdom",Andrew,2012-04-19,https://www.airbnb.com/users/show/2178400
1654,2182532,"London, England, United Kingdom",Izzy,2012-04-20,https://www.airbnb.com/users/show/2182532
1655,2183050,"Greater London, England, United Kingdom",James,2012-04-20,https://www.airbnb.com/users/show/2183050
1656,2193944,"Greater London, England, United Kingdom",Martin,2012-04-22,https://www.airbnb.com/users/show/2193944
1657,2194105,London,Cihan,2012-04-22,https://www.airbnb.com/users/show/2194105
1658,2195549,"London, England, United Kingdom",Margaret,2012-04-22,https://www.airbnb.com/users/show/2195549
1659,2195588,"London, England, United Kingdom.",Per,2012-04-22,https://www.airbnb.com/users/show/2195588
1660,2195781,"London, England, United Kingdom",Mario,2012-04-22,https://www.airbnb.com/users/show/2195781
1661,2196876,"London, England, United Kingdom",Tom,2012-04-22,https://www.airbnb.com/users/show/2196876
1662,2198458,"7 Truro Road, Wood Green, London N22 8EH, United Kingdom",Sukhendu,2012-04-22,https://www.airbnb.com/users/show/2198458
1663,2198603,"London, England, United Kingdom",Isabelle,2012-04-22,https://www.airbnb.com/users/show/2198603
1664,2202412,"Greater London, England, United Kingdom",Sunshine,2012-04-23,https://www.airbnb.com/users/show/2202412
1665,2210555,"London, England, United Kingdom",Sarah Jane,2012-04-24,https://www.airbnb.com/users/show/2210555
1666,2123366,GB,Chris,2012-04-12,https://www.airbnb.com/users/show/2123366
1667,2204197,"London, England, United Kingdom",Katie,2012-04-23,https://www.airbnb.com/users/show/2204197
1668,1206753,"London, England, United Kingdom",Matthew,2011-09-25,https://www.airbnb.com/users/show/1206753
1669,2219247,"London, United Kingdom",Sonia,2012-04-25,https://www.airbnb.com/users/show/2219247
1670,2219616,"Fribourg, Fribourg, Switzerland",Hicham,2012-04-25,https://www.airbnb.com/users/show/2219616
1671,2220786,"England, United Kingdom",Hannelore,2012-04-25,https://www.airbnb.com/users/show/2220786
1672,1944157,london,Yvonne,2012-03-17,https://www.airbnb.com/users/show/1944157
1673,2231552,"Greater London, England, United Kingdom",Caroline,2012-04-26,https://www.airbnb.com/users/show/2231552
1674,2236150,"London, England, United Kingdom",Marcelle,2012-04-27,https://www.airbnb.com/users/show/2236150
1675,2236620,"London, England, United Kingdom",Danna,2012-04-27,https://www.airbnb.com/users/show/2236620
1676,2236798,"London, England, United Kingdom",Adelina,2012-04-27,https://www.airbnb.com/users/show/2236798
1677,2237610,"London, UK",Sarah,2012-04-27,https://www.airbnb.com/users/show/2237610
1678,2243245,"London, England, United Kingdom",Anna,2012-04-28,https://www.airbnb.com/users/show/2243245
1679,2247541,"London, England, United Kingdom",Stella,2012-04-29,https://www.airbnb.com/users/show/2247541
1680,2248443,"Greater London, England, United Kingdom",Moira,2012-04-29,https://www.airbnb.com/users/show/2248443
1681,2248527,"London, England, United Kingdom",Jim,2012-04-29,https://www.airbnb.com/users/show/2248527
1682,354569,"London, England, United Kingdom",Evelina,2011-01-20,https://www.airbnb.com/users/show/354569
1683,2251533,"London, England, United Kingdom",See-Beng,2012-04-29,https://www.airbnb.com/users/show/2251533
1684,949926,"London, England, United Kingdom",Tobias & Annette,2011-08-10,https://www.airbnb.com/users/show/949926
1685,2255965,"London, England, United Kingdom",Tea,2012-04-30,https://www.airbnb.com/users/show/2255965
1686,423711,"London, England, United Kingdom",Rachel,2011-03-05,https://www.airbnb.com/users/show/423711
1687,2258435,"London, England, United Kingdom",Sarah,2012-04-30,https://www.airbnb.com/users/show/2258435
1688,2258693,"Chadwell Heath, London",Robyne,2012-04-30,https://www.airbnb.com/users/show/2258693
1689,2259464,Barbados,Michelle & Frank,2012-04-30,https://www.airbnb.com/users/show/2259464
1690,1298370,"London, England, United Kingdom",Zoe,2011-10-16,https://www.airbnb.com/users/show/1298370
1691,2098510,"London, England, United Kingdom",James,2012-04-09,https://www.airbnb.com/users/show/2098510
1692,2263463,"","","",https://www.airbnb.com/users/show/2263463
1693,600179,"London, England, United Kingdom",Fee,2011-05-18,https://www.airbnb.com/users/show/600179
1694,2267668,"46 Hackford Road, London SW9 0RF London, England, United Kingdom",Sky,2012-05-01,https://www.airbnb.com/users/show/2267668
1695,1952363,"London, England, United Kingdom",Amanda,2012-03-18,https://www.airbnb.com/users/show/1952363
1696,2210837,"Greater London, England, United Kingdom",April,2012-04-24,https://www.airbnb.com/users/show/2210837
1697,2277028,"1 REGENT SQUARE, Flat 5. LONDON.  WC1H 8HZ",Dieter,2012-05-02,https://www.airbnb.com/users/show/2277028
1698,2280481,London,Riccardo,2012-05-03,https://www.airbnb.com/users/show/2280481
1699,494369,"London, England, United Kingdom",Juliano,2011-04-08,https://www.airbnb.com/users/show/494369
1700,1948520,"England, United Kingdom",Helen,2012-03-18,https://www.airbnb.com/users/show/1948520
1701,1951049,London,Claudia,2012-03-18,https://www.airbnb.com/users/show/1951049
1702,2286520,"East London, England, United Kingdom",Yasmin,2012-05-03,https://www.airbnb.com/users/show/2286520
1703,1957532,"London, England, United Kingdom",Janet,2012-03-18,https://www.airbnb.com/users/show/1957532
1704,1950414,"London, England, United Kingdom",Annette,2012-03-18,https://www.airbnb.com/users/show/1950414
1705,2290030,"London, England, United Kingdom",Alicia,2012-05-04,https://www.airbnb.com/users/show/2290030
1706,2117678,"London, England, United Kingdom",London,2012-04-11,https://www.airbnb.com/users/show/2117678
1707,2296025,"England, United Kingdom",Vanessa,2012-05-05,https://www.airbnb.com/users/show/2296025
1708,2161648,"London, England, United Kingdom",Michaela,2012-04-17,https://www.airbnb.com/users/show/2161648
1709,2297142,"London, England, United Kingdom",Olga,2012-05-05,https://www.airbnb.com/users/show/2297142
1710,2299855,"London, England, United Kingdom",Paul,2012-05-05,https://www.airbnb.com/users/show/2299855
1711,656176,"London, England, United Kingdom",Paul,2011-06-02,https://www.airbnb.com/users/show/656176
1712,2304052,"London, England, United Kingdom",Tricia,2012-05-06,https://www.airbnb.com/users/show/2304052
1713,1429305,"Santa Cruz de Tenerife, Canarias, Spain",Hossam,2011-11-21,https://www.airbnb.com/users/show/1429305
1714,2309742,London,Gavin,2012-05-07,https://www.airbnb.com/users/show/2309742
1715,2310026,"London, England, United Kingdom",Ekua Andrea,2012-05-07,https://www.airbnb.com/users/show/2310026
1716,761655,"London, England, United Kingdom",Adriana,2011-06-30,https://www.airbnb.com/users/show/761655
1717,2311270,"London, England, United Kingdom",Simon,2012-05-07,https://www.airbnb.com/users/show/2311270
1718,2312317,"Wivenhoe, England, United Kingdom",Jonathan,2012-05-07,https://www.airbnb.com/users/show/2312317
1719,2277549,"London, England, United Kingdom",Alec,2012-05-02,https://www.airbnb.com/users/show/2277549
1720,2313835,"London, England, United Kingdom",Judith,2012-05-07,https://www.airbnb.com/users/show/2313835
1721,2074557,London,Catherine,2012-04-05,https://www.airbnb.com/users/show/2074557
1722,2314606,"London, England, United Kingdom",Subhashis,2012-05-07,https://www.airbnb.com/users/show/2314606
1723,1608267,GB,Freytag Horthy,2012-01-15,https://www.airbnb.com/users/show/1608267
1724,2323030,GB,Anna,2012-05-08,https://www.airbnb.com/users/show/2323030
1725,1104451,"London, England, United Kingdom",Agnetha,2011-09-03,https://www.airbnb.com/users/show/1104451
1726,2324518,"London, England, United Kingdom",Alison,2012-05-08,https://www.airbnb.com/users/show/2324518
1727,2328569,"London, United Kingdom",Valentina,2012-05-09,https://www.airbnb.com/users/show/2328569
1728,1405621,"London, England, United Kingdom",Claudius,2011-11-14,https://www.airbnb.com/users/show/1405621
1729,2328878,"London, England, United Kingdom",Nicki,2012-05-09,https://www.airbnb.com/users/show/2328878
1730,2227950,"PETTS WOOD, BROMLEY,KENT",Ann,2012-04-26,https://www.airbnb.com/users/show/2227950
1731,2330358,"London, England, United Kingdom",Tomaz,2012-05-09,https://www.airbnb.com/users/show/2330358
1732,2330517,"London, England, United Kingdom",Andrew,2012-05-09,https://www.airbnb.com/users/show/2330517
1733,2332880,"Salisbury, England, United Kingdom",Monica,2012-05-09,https://www.airbnb.com/users/show/2332880
1734,2334345,"London, England, United Kingdom",Marco,2012-05-09,https://www.airbnb.com/users/show/2334345
1735,745846,"London, England, United Kingdom",James,2011-06-26,https://www.airbnb.com/users/show/745846
1736,2339612,GB,Harvey,2012-05-10,https://www.airbnb.com/users/show/2339612
1737,488581,"Greater London, England, United Kingdom",Emily,2011-04-06,https://www.airbnb.com/users/show/488581
1738,2341641,"13 Ramsay Rd, London, E7 9EN, England, United Kingdom","Eric, Alison & Hugo",2012-05-10,https://www.airbnb.com/users/show/2341641
1739,2346010,"London, England, United Kingdom",Baba,2012-05-11,https://www.airbnb.com/users/show/2346010
1740,2347143,London,Valerie,2012-05-11,https://www.airbnb.com/users/show/2347143
1741,359943,"London, England, United Kingdom",Chloe,2011-01-24,https://www.airbnb.com/users/show/359943
1742,2354091,"San Francisco, California, United States",Janina,2012-05-12,https://www.airbnb.com/users/show/2354091
1743,2354821,"London, England, United Kingdom",Monique,2012-05-12,https://www.airbnb.com/users/show/2354821
1744,2358441,"London, England, United Kingdom",Jane,2012-05-13,https://www.airbnb.com/users/show/2358441
1745,2362705,"London, England, United Kingdom",Piotr,2012-05-13,https://www.airbnb.com/users/show/2362705
1746,2363250,US,Anna,2012-05-13,https://www.airbnb.com/users/show/2363250
1747,2363492,"London, England, United Kingdom",Larisa,2012-05-13,https://www.airbnb.com/users/show/2363492
1748,1616720,UK,Anna,2012-01-17,https://www.airbnb.com/users/show/1616720
1749,12363863,"London, United Kingdom",Claudia,2014-02-18,https://www.airbnb.com/users/show/12363863
1750,2377094,"London, England, United Kingdom",Lee,2012-05-15,https://www.airbnb.com/users/show/2377094
1751,2176101,"London, England, United Kingdom",Andrew,2012-04-19,https://www.airbnb.com/users/show/2176101
1752,2389626,"London, England, United Kingdom",Mark,2012-05-16,https://www.airbnb.com/users/show/2389626
1753,2395784,GB,Clare,2012-05-17,https://www.airbnb.com/users/show/2395784
1754,2401278,"Singapore, Singapore",Kathy,2012-05-17,https://www.airbnb.com/users/show/2401278
1755,2405795,"London, England, United Kingdom",Gen,2012-05-18,https://www.airbnb.com/users/show/2405795
1756,2407165,US,Roy,2012-05-18,https://www.airbnb.com/users/show/2407165
1757,979982,"London, England, United Kingdom",Lesley,2011-08-16,https://www.airbnb.com/users/show/979982
1758,2398949,"London, England, United Kingdom",Verginett,2012-05-17,https://www.airbnb.com/users/show/2398949
1759,2413601,"Kingston upon Thames, England, United Kingdom",Claire,2012-05-19,https://www.airbnb.com/users/show/2413601
1760,2420883,London,Andrew,2012-05-20,https://www.airbnb.com/users/show/2420883
1761,2229486,"Duddingston, Edinburgh",Freda,2012-04-26,https://www.airbnb.com/users/show/2229486
1762,2435231,"London, England, United Kingdom",John,2012-05-22,https://www.airbnb.com/users/show/2435231
1763,2437571,"England, United Kingdom",Hindu,2012-05-22,https://www.airbnb.com/users/show/2437571
1764,423121,"Greater London, England, United Kingdom",Olivia,2011-03-04,https://www.airbnb.com/users/show/423121
1765,2240892,"London, England, United Kingdom",Debbie,2012-04-28,https://www.airbnb.com/users/show/2240892
1766,1908888,"London, England, United Kingdom",Stephane,2012-03-12,https://www.airbnb.com/users/show/1908888
1767,2444882,GB,Derrick,2012-05-23,https://www.airbnb.com/users/show/2444882
1768,2447876,"Greater London, England, United Kingdom",Ann,2012-05-23,https://www.airbnb.com/users/show/2447876
1769,2453036,"London, United Kingdom",Cecilia,2012-05-24,https://www.airbnb.com/users/show/2453036
1770,2453720,London,Francesca,2012-05-24,https://www.airbnb.com/users/show/2453720
1771,2453753,"London, England, United Kingdom",Clare,2012-05-24,https://www.airbnb.com/users/show/2453753
1772,2461233,"Greater London, England, United Kingdom",Rodrigo,2012-05-25,https://www.airbnb.com/users/show/2461233
1773,1310675,"London, England, United Kingdom",Dev,2011-10-19,https://www.airbnb.com/users/show/1310675
1774,1412824,"Los Angeles, California, United States",Rene,2011-11-16,https://www.airbnb.com/users/show/1412824
1775,901719,"London, England, United Kingdom",Linda,2011-08-01,https://www.airbnb.com/users/show/901719
1776,2470948,GB,Adel,2012-05-26,https://www.airbnb.com/users/show/2470948
1777,2462063,"London, England, United Kingdom",Nati,2012-05-25,https://www.airbnb.com/users/show/2462063
1778,2427174,"London, England, United Kingdom",Kam,2012-05-21,https://www.airbnb.com/users/show/2427174
1779,2476271,"London, England, United Kingdom",Michael,2012-05-27,https://www.airbnb.com/users/show/2476271
1780,2476374,"London, England, United Kingdom",Tia,2012-05-27,https://www.airbnb.com/users/show/2476374
1781,2478162,"London, England, United Kingdom",Agnes,2012-05-27,https://www.airbnb.com/users/show/2478162
1782,2481667,GB,Anthony,2012-05-28,https://www.airbnb.com/users/show/2481667
1783,2482146,"London, England, United Kingdom",Karen,2012-05-28,https://www.airbnb.com/users/show/2482146
1784,2482516,"London, England, United Kingdom",Katrin,2012-05-28,https://www.airbnb.com/users/show/2482516
1785,2220067,"Tokyo, Japan",Sergio,2012-04-25,https://www.airbnb.com/users/show/2220067
1786,2493978,"London, England, United Kingdom",Natalie,2012-05-29,https://www.airbnb.com/users/show/2493978
1787,2492503,GB,Nick,2012-05-29,https://www.airbnb.com/users/show/2492503
1788,581309,"London, England, United Kingdom",Alexandra,2011-05-12,https://www.airbnb.com/users/show/581309
1789,2484288,"London, England, United Kingdom",Violetta,2012-05-28,https://www.airbnb.com/users/show/2484288
1790,2501849,"Flat 14, 6 Exmoor st, London W10 6BF",Violeta,2012-05-30,https://www.airbnb.com/users/show/2501849
1791,2503132,"London, England, United Kingdom",Sarah,2012-05-30,https://www.airbnb.com/users/show/2503132
1792,2490500,"London, England, United Kingdom",Lucas,2012-05-29,https://www.airbnb.com/users/show/2490500
1793,2508973,"London, England, United Kingdom",Mikail,2012-05-31,https://www.airbnb.com/users/show/2508973
1794,2510617,"London, England, United Kingdom",Nicole,2012-05-31,https://www.airbnb.com/users/show/2510617
1795,2514268,"Neuchatel, Canton of Neuchâtel, Switzerland",Mizanur,2012-05-31,https://www.airbnb.com/users/show/2514268
1796,2126819,"London, England, United Kingdom",Manfredi,2012-04-12,https://www.airbnb.com/users/show/2126819
1797,716607,"London, England, United Kingdom",Veri,2011-06-18,https://www.airbnb.com/users/show/716607
1798,2520997,"London, England, United Kingdom",Kasia,2012-06-01,https://www.airbnb.com/users/show/2520997
1799,2525344,"Greater London, England, United Kingdom",Michele,2012-06-02,https://www.airbnb.com/users/show/2525344
1800,2526454,"London, England, United Kingdom",Stefania,2012-06-02,https://www.airbnb.com/users/show/2526454
1801,2526516,"London, England, United Kingdom",Lol,2012-06-02,https://www.airbnb.com/users/show/2526516
1802,2526995,"London, England, United Kingdom",Declan,2012-06-02,https://www.airbnb.com/users/show/2526995
1803,2528030,London,Geraldine,2012-06-02,https://www.airbnb.com/users/show/2528030
1804,2528072,"London, England, United Kingdom",Sonali,2012-06-02,https://www.airbnb.com/users/show/2528072
1805,2229160,"London, England, United Kingdom",Nancy,2012-04-26,https://www.airbnb.com/users/show/2229160
1806,2536877,GB,Oliver,2012-06-03,https://www.airbnb.com/users/show/2536877
1807,2538088,"London, England, United Kingdom",Tabitha,2012-06-03,https://www.airbnb.com/users/show/2538088
1808,518792,"London Borough of Islington, England, United Kingdom",Fuad,2011-04-18,https://www.airbnb.com/users/show/518792
1809,2544801,"London, England, United Kingdom",Michael,2012-06-04,https://www.airbnb.com/users/show/2544801
1810,2546459,"London, England, United Kingdom",Susan,2012-06-04,https://www.airbnb.com/users/show/2546459
1811,2550236,"London, England, United Kingdom",Gemma,2012-06-05,https://www.airbnb.com/users/show/2550236
1812,2512594,"London, England, United Kingdom",Sophie,2012-05-31,https://www.airbnb.com/users/show/2512594
1813,2551676,GB,Jane,2012-06-05,https://www.airbnb.com/users/show/2551676
1814,2555275,"London, England, United Kingdom",Reyhana,2012-06-05,https://www.airbnb.com/users/show/2555275
1815,172533,"London, England, United Kingdom",Anna,2010-07-19,https://www.airbnb.com/users/show/172533
1816,2557253,"London, England, United Kingdom",Astrid,2012-06-05,https://www.airbnb.com/users/show/2557253
1817,584454,"London, England, United Kingdom",Igor,2011-05-13,https://www.airbnb.com/users/show/584454
1818,2353375,"London, England, United Kingdom",S,2012-05-12,https://www.airbnb.com/users/show/2353375
1819,2562216,"England, United Kingdom",Robert,2012-06-06,https://www.airbnb.com/users/show/2562216
1820,2566748,GB,Mrs V.,2012-06-06,https://www.airbnb.com/users/show/2566748
1821,2562357,"London, England, United Kingdom",Jasmin,2012-06-06,https://www.airbnb.com/users/show/2562357
1822,2563886,"London, England, United Kingdom",Patsy,2012-06-06,https://www.airbnb.com/users/show/2563886
1823,2565061,"London, England, United Kingdom",Edris,2012-06-06,https://www.airbnb.com/users/show/2565061
1824,2565699,"London, England, United Kingdom",Manuel And Cecilia,2012-06-06,https://www.airbnb.com/users/show/2565699
1825,2567278,"London, England, United Kingdom",Hazel,2012-06-06,https://www.airbnb.com/users/show/2567278
1826,2569925,"London, England, United Kingdom",Alex,2012-06-07,https://www.airbnb.com/users/show/2569925
1827,2529797,"London, England, United Kingdom",Lyndy,2012-06-02,https://www.airbnb.com/users/show/2529797
1828,2571032,"London, England, United Kingdom",Malcolm,2012-06-07,https://www.airbnb.com/users/show/2571032
1829,2571027,"London, England, United Kingdom",Valeria,2012-06-07,https://www.airbnb.com/users/show/2571027
1830,2572307,"London, United Kingdom",Emmanuel,2012-06-07,https://www.airbnb.com/users/show/2572307
1831,2574556,"London, England, United Kingdom",Sam,2012-06-07,https://www.airbnb.com/users/show/2574556
1832,2531619,"London, England, United Kingdom",Jelena,2012-06-03,https://www.airbnb.com/users/show/2531619
1833,2575752,GB,Ani,2012-06-07,https://www.airbnb.com/users/show/2575752
1834,1469674,"London, England, United Kingdom",Karla,2011-12-04,https://www.airbnb.com/users/show/1469674
1835,2580901,"London, England, United Kingdom",Clare,2012-06-08,https://www.airbnb.com/users/show/2580901
1836,2581266,"London, England, United Kingdom",Elli,2012-06-08,https://www.airbnb.com/users/show/2581266
1837,2582452,London,Geoff And Marianne,2012-06-08,https://www.airbnb.com/users/show/2582452
1838,2585853,"London, England, United Kingdom",Imtiaz,2012-06-09,https://www.airbnb.com/users/show/2585853
1839,2587136,"London, England, United Kingdom",Melody,2012-06-09,https://www.airbnb.com/users/show/2587136
1840,2589288,"London, England, United Kingdom",Ronnie,2012-06-09,https://www.airbnb.com/users/show/2589288
1841,2590175,London,Ralitsa,2012-06-09,https://www.airbnb.com/users/show/2590175
1842,2598938,"Greater London, England, United Kingdom",Grace,2012-06-10,https://www.airbnb.com/users/show/2598938
1843,1424990,"Greater London, England, United Kingdom",Scott,2011-11-20,https://www.airbnb.com/users/show/1424990
1844,2594485,"London, England, United Kingdom",James,2012-06-10,https://www.airbnb.com/users/show/2594485
1845,2594517,LONDON,Nyome,2012-06-10,https://www.airbnb.com/users/show/2594517
1846,2594885,"London, England, United Kingdom",Robert,2012-06-10,https://www.airbnb.com/users/show/2594885
1847,2198249,"London, England, United Kingdom",Monique,2012-04-22,https://www.airbnb.com/users/show/2198249
1848,2599290,"London, England, United Kingdom",Chris And Renata,2012-06-10,https://www.airbnb.com/users/show/2599290
1849,2601595,"London, England, United Kingdom",Carole,2012-06-11,https://www.airbnb.com/users/show/2601595
1850,1240748,"London, United Kingdom",Brigitte,2011-10-03,https://www.airbnb.com/users/show/1240748
1851,2603416,"London, England, United Kingdom",Polly,2012-06-11,https://www.airbnb.com/users/show/2603416
1852,2603958,"London, England, United Kingdom",Julie,2012-06-11,https://www.airbnb.com/users/show/2603958
1853,2604045,GB,Irina,2012-06-11,https://www.airbnb.com/users/show/2604045
1854,2604545,"London, England, United Kingdom",Pierre,2012-06-11,https://www.airbnb.com/users/show/2604545
1855,2605151,"London, England, United Kingdom",Dana,2012-06-11,https://www.airbnb.com/users/show/2605151
1856,2606707,"London, England, United Kingdom",Tooba,2012-06-11,https://www.airbnb.com/users/show/2606707
1857,2213145,"148 Glengall Road, First Floor, London, NW6 7HH, England, United Kingdom",AnnMarie,2012-04-24,https://www.airbnb.com/users/show/2213145
1858,2621084,Buckinghamshire,Nick,2012-06-12,https://www.airbnb.com/users/show/2621084
1859,1830359,"London, England, United Kingdom",Antonio,2012-02-29,https://www.airbnb.com/users/show/1830359
1860,2625454,"London, England, United Kingdom",Michael,2012-06-13,https://www.airbnb.com/users/show/2625454
1861,2626657,"London, England, United Kingdom",Dieneke,2012-06-13,https://www.airbnb.com/users/show/2626657
1862,2626934,"London, England, United Kingdom",Louise,2012-06-13,https://www.airbnb.com/users/show/2626934
1863,2387455,"London, England, United Kingdom",Seeta,2012-05-16,https://www.airbnb.com/users/show/2387455
1864,2484437,"London, England, United Kingdom",Franco,2012-05-28,https://www.airbnb.com/users/show/2484437
1865,1949799,"London, England, United Kingdom",Pat,2012-03-18,https://www.airbnb.com/users/show/1949799
1866,2110774,"London, England, United Kingdom",Nicky,2012-04-10,https://www.airbnb.com/users/show/2110774
1867,2483466,"London, England, United Kingdom",Yeonju,2012-05-28,https://www.airbnb.com/users/show/2483466
1868,2634160,"London, England, United Kingdom",Raul&Carol,2012-06-14,https://www.airbnb.com/users/show/2634160
1869,1330009,"London, England, United Kingdom",Annamaria,2011-10-24,https://www.airbnb.com/users/show/1330009
1870,2639566,GB,Gerry,2012-06-14,https://www.airbnb.com/users/show/2639566
1871,2639063,"London, England, United Kingdom",May,2012-06-14,https://www.airbnb.com/users/show/2639063
1872,2645421,London,Sybille,2012-06-15,https://www.airbnb.com/users/show/2645421
1873,2648082,"Tooting Bec, London, England, United Kingdom",Sarah,2012-06-15,https://www.airbnb.com/users/show/2648082
1874,2653397,"Paris, Île-de-France, France",Claire,2012-06-16,https://www.airbnb.com/users/show/2653397
1875,2658721,"London, England, United Kingdom",Carin,2012-06-17,https://www.airbnb.com/users/show/2658721
1876,2661418,"London, England, United Kingdom",Sanya,2012-06-17,https://www.airbnb.com/users/show/2661418
1877,2521779,Clapham North,Neil,2012-06-01,https://www.airbnb.com/users/show/2521779
1878,1969324,"London, England, United Kingdom",Lesley,2012-03-19,https://www.airbnb.com/users/show/1969324
1879,403430235,"London, England, United Kingdom",James,2021-05-25,https://www.airbnb.com/users/show/403430235
1880,2490271,london,Elizabeth,2012-05-29,https://www.airbnb.com/users/show/2490271
1881,2684593,"London, England, United Kingdom",Cathy,2012-06-19,https://www.airbnb.com/users/show/2684593
1882,2686310,"London, England, United Kingdom",Viva,2012-06-19,https://www.airbnb.com/users/show/2686310
1883,2691142,"London, England, United Kingdom",Elisabetta,2012-06-20,https://www.airbnb.com/users/show/2691142
1884,2690474,"London, England, United Kingdom",Rob,2012-06-20,https://www.airbnb.com/users/show/2690474
1885,2672153,"London, England, United Kingdom",Rich,2012-06-18,https://www.airbnb.com/users/show/2672153
1886,2692893,"London, England, United Kingdom",Giorgio,2012-06-20,https://www.airbnb.com/users/show/2692893
1887,1941402,"London, England, United Kingdom",Christina,2012-03-17,https://www.airbnb.com/users/show/1941402
1888,651184,"London, England, United Kingdom",Mikhail,2011-06-01,https://www.airbnb.com/users/show/651184
1889,1212307,"London, England, United Kingdom",Annemarie,2011-09-26,https://www.airbnb.com/users/show/1212307
1890,219947,"Greater London, England, United Kingdom",Alex,2010-09-01,https://www.airbnb.com/users/show/219947
1891,2556468,"London, England, United Kingdom",Alice,2012-06-05,https://www.airbnb.com/users/show/2556468
1892,2703897,"New York, New York, United States",Christina,2012-06-21,https://www.airbnb.com/users/show/2703897
1893,2719549,London,Anto & Jules,2012-06-23,https://www.airbnb.com/users/show/2719549
1894,2705499,"Greater London, England, United Kingdom",Adam,2012-06-21,https://www.airbnb.com/users/show/2705499
1895,2706110,"London, England, United Kingdom",Serena,2012-06-21,https://www.airbnb.com/users/show/2706110
1896,2706724,"Romford, England, United Kingdom",Cibele,2012-06-21,https://www.airbnb.com/users/show/2706724
1897,190494,"London, England, United Kingdom",Fil,2010-08-03,https://www.airbnb.com/users/show/190494
1898,2720301,"London, England, United Kingdom",Devadas,2012-06-23,https://www.airbnb.com/users/show/2720301
1899,2725756,London,Dhan,2012-06-24,https://www.airbnb.com/users/show/2725756
1900,2706648,"London, England, United Kingdom",Juan,2012-06-21,https://www.airbnb.com/users/show/2706648
1901,1960867,"Greater London, England, United Kingdom",Gerry,2012-03-18,https://www.airbnb.com/users/show/1960867
1902,2728507,GB,Rachel,2012-06-24,https://www.airbnb.com/users/show/2728507
1903,2731071,"London, England, United Kingdom",Natalie,2012-06-24,https://www.airbnb.com/users/show/2731071
1904,2734869,"London, England, United Kingdom",Jonathan,2012-06-25,https://www.airbnb.com/users/show/2734869
1905,1650802,"London, England, United Kingdom",Sophia,2012-01-25,https://www.airbnb.com/users/show/1650802
1906,2736211,"London, England, United Kingdom",Hengameh,2012-06-25,https://www.airbnb.com/users/show/2736211
1907,1945624,"London, England, United Kingdom",Louisa,2012-03-17,https://www.airbnb.com/users/show/1945624
1908,2737689,UK,Rachel,2012-06-25,https://www.airbnb.com/users/show/2737689
1909,2727446,"London, United Kingdom",Silvie,2012-06-24,https://www.airbnb.com/users/show/2727446
1910,1658402,"Miami, Florida, United States",Laura,2012-01-26,https://www.airbnb.com/users/show/1658402
1911,2747119,London,Clare Frances,2012-06-26,https://www.airbnb.com/users/show/2747119
1912,1581619,"London, England, United Kingdom",Mark,2012-01-08,https://www.airbnb.com/users/show/1581619
1913,2749987,"London, England, United Kingdom",Anne,2012-06-26,https://www.airbnb.com/users/show/2749987
1914,2564851,"London, England, United Kingdom",Roddy,2012-06-06,https://www.airbnb.com/users/show/2564851
1915,2751830,"London, England, United Kingdom",Alan,2012-06-26,https://www.airbnb.com/users/show/2751830
1916,2752127,"London, England, United Kingdom",Marvel,2012-06-26,https://www.airbnb.com/users/show/2752127
1917,2752243,"London, England, United Kingdom",Bel Richard And Aphra,2012-06-26,https://www.airbnb.com/users/show/2752243
1918,2753430,"London, England, United Kingdom",Benjamin,2012-06-26,https://www.airbnb.com/users/show/2753430
1919,518433,"London, England, United Kingdom",Tomasz,2011-04-18,https://www.airbnb.com/users/show/518433
1920,2764375,london,Ivona,2012-06-27,https://www.airbnb.com/users/show/2764375
1921,2769192,"London, England, United Kingdom",Jacob,2012-06-28,https://www.airbnb.com/users/show/2769192
1922,2769843,"London, England, United Kingdom",Ewan,2012-06-28,https://www.airbnb.com/users/show/2769843
1923,2769968,"Chipping Norton, England, United Kingdom",Elizabeth & Hugo,2012-06-28,https://www.airbnb.com/users/show/2769968
1924,2771823,"London, England, United Kingdom",Lala,2012-06-28,https://www.airbnb.com/users/show/2771823
1925,2778256,"London, England, United Kingdom",Dominic,2012-06-29,https://www.airbnb.com/users/show/2778256
1926,2768975,"London, England, United Kingdom",Juan José,2012-06-28,https://www.airbnb.com/users/show/2768975
1927,2779219,GB,Shama,2012-06-29,https://www.airbnb.com/users/show/2779219
1928,2779580,"London, England, United Kingdom",Evelin,2012-06-29,https://www.airbnb.com/users/show/2779580
1929,2780410,"London, England, United Kingdom",Paul,2012-06-29,https://www.airbnb.com/users/show/2780410
1930,1956027,"London, England, United Kingdom",Paul,2012-03-18,https://www.airbnb.com/users/show/1956027
1931,1958273,"Middlesex, United Kingdom",Mandeep,2012-03-18,https://www.airbnb.com/users/show/1958273
1932,1895075,"London, England, United Kingdom",Mike,2012-03-10,https://www.airbnb.com/users/show/1895075
1933,2786213,GB,Patricia,2012-06-30,https://www.airbnb.com/users/show/2786213
1934,2786390,"London, England, United Kingdom",Jo,2012-06-30,https://www.airbnb.com/users/show/2786390
1935,2788818,"London, England, United Kingdom",Mark,2012-06-30,https://www.airbnb.com/users/show/2788818
1936,1494934,"Rio de Janeiro, State of Rio de Janeiro, Brazil",Sven Olaf,2011-12-11,https://www.airbnb.com/users/show/1494934
1937,2792529,"London, England, United Kingdom",Ryan,2012-07-01,https://www.airbnb.com/users/show/2792529
1938,2677307,"London, England, United Kingdom",Radka,2012-06-19,https://www.airbnb.com/users/show/2677307
1939,2802322,"Greater London, England, United Kingdom",John & Dee,2012-07-02,https://www.airbnb.com/users/show/2802322
1940,2802762,"London, England, United Kingdom",Dominic,2012-07-02,https://www.airbnb.com/users/show/2802762
1941,2804661,GB,Pav,2012-07-02,https://www.airbnb.com/users/show/2804661
1942,2807074,"London, England, United Kingdom",Barbara,2012-07-02,https://www.airbnb.com/users/show/2807074
1943,2808427,"London, England, United Kingdom",Alanna,2012-07-02,https://www.airbnb.com/users/show/2808427
1944,375971,"London, England, United Kingdom",Cathy,2011-02-03,https://www.airbnb.com/users/show/375971
1945,2815205,"London, United Kingdom",Caroline,2012-07-03,https://www.airbnb.com/users/show/2815205
1946,1950947,London,Helena,2012-03-18,https://www.airbnb.com/users/show/1950947
1947,1941522,"Greater London, England, United Kingdom",Rachel,2012-03-17,https://www.airbnb.com/users/show/1941522
1948,1814506,"London, England, United Kingdom",Allan,2012-02-26,https://www.airbnb.com/users/show/1814506
1949,2315261,"London, England, United Kingdom",Jennifer,2012-05-07,https://www.airbnb.com/users/show/2315261
1950,2819163,"London, England, United Kingdom",Helen,2012-07-03,https://www.airbnb.com/users/show/2819163
1951,1975517,"Brighton, England, United Kingdom",Diana,2012-03-20,https://www.airbnb.com/users/show/1975517
1952,2821391,"Beckenham, England, United Kingdom",Kim,2012-07-03,https://www.airbnb.com/users/show/2821391
1953,2821534,"London, England, United Kingdom",Celene,2012-07-03,https://www.airbnb.com/users/show/2821534
1954,1259046,"London, England, United Kingdom",Puc,2011-10-07,https://www.airbnb.com/users/show/1259046
1955,2826850,"163 Castle Road, Northolt. Middlesex, United Kingdom",Sandra,2012-07-04,https://www.airbnb.com/users/show/2826850
1956,2508126,"London, England, United Kingdom",Niki,2012-05-31,https://www.airbnb.com/users/show/2508126
1957,2283114,"London, England, United Kingdom",Bridget,2012-05-03,https://www.airbnb.com/users/show/2283114
1958,2727949,"London, England, United Kingdom",Laura,2012-06-24,https://www.airbnb.com/users/show/2727949
1959,2779109,"London, England, United Kingdom",Nicholas,2012-06-29,https://www.airbnb.com/users/show/2779109
1960,2837165,"London, England, United Kingdom",Sami,2012-07-05,https://www.airbnb.com/users/show/2837165
1961,2852824,GB,Hilary,2012-07-06,https://www.airbnb.com/users/show/2852824
1962,2855825,GB,Roger,2012-07-07,https://www.airbnb.com/users/show/2855825
1963,1743556,"Greater London, England, United Kingdom",Les,2012-02-13,https://www.airbnb.com/users/show/1743556
1964,2858771,"London, England, United Kingdom",Alexander,2012-07-07,https://www.airbnb.com/users/show/2858771
1965,2860415,"New York, New York, United States",Vasu,2012-07-07,https://www.airbnb.com/users/show/2860415
1966,2865624,"London, England, United Kingdom",Cristina,2012-07-08,https://www.airbnb.com/users/show/2865624
1967,2865741,London,Su,2012-07-08,https://www.airbnb.com/users/show/2865741
1968,1314904,"London, England, United Kingdom",Lewis,2011-10-20,https://www.airbnb.com/users/show/1314904
1969,2833727,"London, England, United Kingdom",Tom,2012-07-04,https://www.airbnb.com/users/show/2833727
1970,2284487,"London, England, United Kingdom",Rafik And Evelin,2012-05-03,https://www.airbnb.com/users/show/2284487
1971,2875995,"London, England, United Kingdom",Haroun,2012-07-09,https://www.airbnb.com/users/show/2875995
1972,2876123,"London, England, United Kingdom",Vilma,2012-07-09,https://www.airbnb.com/users/show/2876123
1973,2877076,"London, England, United Kingdom",Karen,2012-07-09,https://www.airbnb.com/users/show/2877076
1974,2879842,"London, England, United Kingdom",Chris,2012-07-09,https://www.airbnb.com/users/show/2879842
1975,2555218,"Miami, Florida, United States",Mitul,2012-06-05,https://www.airbnb.com/users/show/2555218
1976,2890473,GB,Daniel,2012-07-10,https://www.airbnb.com/users/show/2890473
1977,2893768,"London, England, United Kingdom",Isaac,2012-07-10,https://www.airbnb.com/users/show/2893768
1978,2894965,"Coulsdon, England, United Kingdom",Bonnie,2012-07-10,https://www.airbnb.com/users/show/2894965
1979,2896525,"London, England, United Kingdom",Rakesh,2012-07-10,https://www.airbnb.com/users/show/2896525
1980,478692,"London, England, United Kingdom",Temi From Scion Property Management,2011-04-02,https://www.airbnb.com/users/show/478692
1981,2341115,"England, United Kingdom",Vasile Razvan,2012-05-10,https://www.airbnb.com/users/show/2341115
1982,2901132,GB,Marin,2012-07-11,https://www.airbnb.com/users/show/2901132
1983,2900824,"London, England, United Kingdom",Mick,2012-07-11,https://www.airbnb.com/users/show/2900824
1984,2901454,"London, England, United Kingdom",Tommaso,2012-07-11,https://www.airbnb.com/users/show/2901454
1985,2041009,"London, England, United Kingdom",Claudia,2012-03-31,https://www.airbnb.com/users/show/2041009
1986,2903101,London,Vidur,2012-07-11,https://www.airbnb.com/users/show/2903101
1987,2904987,"London, England, United Kingdom",Mike,2012-07-11,https://www.airbnb.com/users/show/2904987
1988,2906576,GB,Federica,2012-07-11,https://www.airbnb.com/users/show/2906576
1989,2907117,"London, England, United Kingdom",Kazuyo,2012-07-11,https://www.airbnb.com/users/show/2907117
1990,2712908,"London, England, United Kingdom",Freddy,2012-06-22,https://www.airbnb.com/users/show/2712908
1991,2913731,"London, England, United Kingdom",Veronique,2012-07-12,https://www.airbnb.com/users/show/2913731
1992,2914419,"London, England, United Kingdom",Liz,2012-07-12,https://www.airbnb.com/users/show/2914419
1993,2915155,United Kingdom,Frances,2012-07-12,https://www.airbnb.com/users/show/2915155
1994,2915501,"London, United Kingdom",Gonul,2012-07-12,https://www.airbnb.com/users/show/2915501
1995,2915687,"England, United Kingdom",Claire,2012-07-12,https://www.airbnb.com/users/show/2915687
1996,2915683,"London, England, United Kingdom",Jason,2012-07-12,https://www.airbnb.com/users/show/2915683
1997,454043,"Greater London, England, United Kingdom",Karen,2011-03-21,https://www.airbnb.com/users/show/454043
1998,2116996,London,Caroline,2012-04-11,https://www.airbnb.com/users/show/2116996
1999,2916200,"London, England, United Kingdom",Andy,2012-07-12,https://www.airbnb.com/users/show/2916200
2000,2919661,"Jersey, St. Ouen, Jersey",Paul,2012-07-12,https://www.airbnb.com/users/show/2919661
2001,2921815,"London, England, United Kingdom",Samuel,2012-07-13,https://www.airbnb.com/users/show/2921815
2002,2926478,GB,Sam,2012-07-13,https://www.airbnb.com/users/show/2926478
2003,2932253,"London, England, United Kingdom",Krisztina,2012-07-14,https://www.airbnb.com/users/show/2932253
2004,2933914,London,AnnM,2012-07-14,https://www.airbnb.com/users/show/2933914
2005,2935317,"London, England, United Kingdom",Eamon & Tomás,2012-07-14,https://www.airbnb.com/users/show/2935317
2006,2495327,"London, England, United Kingdom",Jude,2012-05-29,https://www.airbnb.com/users/show/2495327
2007,2701693,"London, England, United Kingdom",Jutta,2012-06-21,https://www.airbnb.com/users/show/2701693
2008,2938071,"London, England, United Kingdom",Eddie,2012-07-14,https://www.airbnb.com/users/show/2938071
2009,2939069,Israel,Reuven,2012-07-15,https://www.airbnb.com/users/show/2939069
2010,2940182,"London,UK",Stan And Monica,2012-07-15,https://www.airbnb.com/users/show/2940182
2011,2940314,"London, England, United Kingdom",Villi,2012-07-15,https://www.airbnb.com/users/show/2940314
2012,1489441,"London, England, United Kingdom",Melanie,2011-12-09,https://www.airbnb.com/users/show/1489441
2013,2942955,London,Bob,2012-07-15,https://www.airbnb.com/users/show/2942955
2014,914803,Your current city,Chelsea,2011-08-03,https://www.airbnb.com/users/show/914803
2015,2943461,"London, England, United Kingdom",Christina,2012-07-15,https://www.airbnb.com/users/show/2943461
2016,2940541,"London, England, United Kingdom",Dee &,2012-07-15,https://www.airbnb.com/users/show/2940541
2017,2945888,London,Michael,2012-07-15,https://www.airbnb.com/users/show/2945888
2018,2951231,"London, England, United Kingdom",Binit,2012-07-16,https://www.airbnb.com/users/show/2951231
2019,2952090,"London, England, United Kingdom",Joelle,2012-07-16,https://www.airbnb.com/users/show/2952090
2020,2945307,"London, England, United Kingdom",Johnnie,2012-07-15,https://www.airbnb.com/users/show/2945307
2021,2036946,"London, England, United Kingdom",Francesco,2012-03-30,https://www.airbnb.com/users/show/2036946
2022,2963206,GB,Anant,2012-07-17,https://www.airbnb.com/users/show/2963206
2023,1386377,"London, England, United Kingdom",Shweta,2011-11-08,https://www.airbnb.com/users/show/1386377
2024,2635161,"Prague, Prague, Czech Republic",Pavel,2012-06-14,https://www.airbnb.com/users/show/2635161
2025,2963769,GB,Tim,2012-07-17,https://www.airbnb.com/users/show/2963769
2026,1502158,"London, England, United Kingdom",Gabriela,2011-12-13,https://www.airbnb.com/users/show/1502158
2027,2846576,"Greenwich, london, UK",Amanda,2012-07-06,https://www.airbnb.com/users/show/2846576
