src,trg
2029,1467
2030,1468
2031,1469
2032,1470
2033,1471
2034,1472
2035,1473
2036,1474
2037,1475
2038,1476
2039,1477
2040,1478
2041,1479
2042,1480
2043,1481
2044,1482
2045,1483
2046,1484
2047,1485
2048,1486
2049,1487
2050,1488
2051,1489
2052,1490
2053,1491
2054,1492
2055,1493
2056,1494
2057,1495
2058,1496
2059,1497
2060,1498
2061,1499
2062,1500
2063,1501
2064,1502
2065,1503
2066,1504
2067,1505
2068,1506
2069,1507
2070,1508
2071,1509
2072,1510
2073,1511
2074,1512
2075,1513
2076,1514
2077,1515
2078,1516
2079,1517
2080,1518
2081,1519
2082,1520
2083,1521
2084,1522
2085,1523
2086,1524
2087,1525
2088,1526
2089,1527
2090,1528
2091,1529
2092,1530
2093,1531
2094,1532
2095,1533
2096,1534
2097,1535
2098,1536
2099,1537
2100,1538
2101,1539
2102,1540
2103,1541
2104,1542
2105,1543
2106,1544
2107,1545
2108,1546
2109,1547
2110,1548
2111,1549
2112,1550
2113,1551
2114,1552
2115,1553
2116,1554
2117,1555
2118,1556
2119,1557
2120,1558
2121,1559
2122,1560
2123,1561
2124,1562
2125,1563
2126,1564
2127,1565
2128,1566
1467,2029
1468,2030
1469,2031
1470,2032
1471,2033
1472,2034
1473,2035
1474,2036
1475,2037
1476,2038
1477,2039
1478,2040
1479,2041
1480,2042
1481,2043
1482,2044
1483,2045
1484,2046
1485,2047
1486,2048
1487,2049
1488,2050
1489,2051
1490,2052
1491,2053
1492,2054
1493,2055
1494,2056
1495,2057
1496,2058
1497,2059
1498,2060
1499,2061
1500,2062
1501,2063
1502,2064
1503,2065
1504,2066
1505,2067
1506,2068
1507,2069
1508,2070
1509,2071
1510,2072
1511,2073
1512,2074
1513,2075
1514,2076
1515,2077
1516,2078
1517,2079
1518,2080
1519,2081
1520,2082
1521,2083
1522,2084
1523,2085
1524,2086
1525,2087
1526,2088
1527,2089
1528,2090
1529,2091
1530,2092
1531,2093
1532,2094
1533,2095
1534,2096
1535,2097
1536,2098
1537,2099
1538,2100
1539,2101
1540,2102
1541,2103
1542,2104
1543,2105
1544,2106
1545,2107
1546,2108
1547,2109
1548,2110
1549,2111
1550,2112
1551,2113
1552,2114
1553,2115
1554,2116
1555,2117
1556,2118
1557,2119
1558,2120
1559,2121
1560,2122
1561,2123
1562,2124
1563,2125
1564,2126
1565,2127
1566,2128
2200,1755
2201,1756
2202,1757
2203,1758
2204,1759
2205,1760
2206,1761
2207,1762
2208,1763
2209,1764
2210,1765
2211,1766
2212,1767
2213,1768
2214,1769
2215,1770
2216,1771
2217,1772
2218,1773
2219,1774
2220,1775
2221,1776
2222,1777
2223,1778
2224,1779
2225,1780
2226,1781
2227,1782
2228,1783
2229,1784
2230,1785
2231,1786
2232,1787
2233,1788
2234,1789
2235,1790
2236,1791
2237,1792
2238,1793
2239,1794
2240,1795
2241,1796
2242,1797
2243,1798
2244,1799
2245,1800
2246,1801
2247,1802
2248,1803
2249,1804
2250,1805
2251,1806
2252,1807
2253,1808
2254,1809
2255,1810
2256,1811
2257,1812
2258,1813
2259,1814
2260,1815
2261,1816
2262,1817
2263,1818
2264,1819
2265,1820
2266,1821
2267,1822
2268,1823
2269,1824
2270,1825
2271,1826
2272,1827
2273,1828
2274,1829
2275,1830
2276,1831
2277,1832
2278,1833
2279,1834
2280,1835
2281,1836
2282,1837
2283,1838
2284,1839
2285,1840
2286,1841
2287,1842
2288,1843
2289,1844
2290,1845
2291,1846
2292,1847
2293,1848
2294,1849
2295,1850
2296,1851
2297,1852
2298,1853
2299,1854
1755,2200
1756,2201
1757,2202
1758,2203
1759,2204
1760,2205
1761,2206
1762,2207
1763,2208
1764,2209
1765,2210
1766,2211
1767,2212
1768,2213
1769,2214
1770,2215
1771,2216
1772,2217
1773,2218
1774,2219
1775,2220
1776,2221
1777,2222
1778,2223
1779,2224
1780,2225
1781,2226
1782,2227
1783,2228
1784,2229
1785,2230
1786,2231
1787,2232
1788,2233
1789,2234
1790,2235
1791,2236
1792,2237
1793,2238
1794,2239
1795,2240
1796,2241
1797,2242
1798,2243
1799,2244
1800,2245
1801,2246
1802,2247
1803,2248
1804,2249
1805,2250
1806,2251
1807,2252
1808,2253
1809,2254
1810,2255
1811,2256
1812,2257
1813,2258
1814,2259
1815,2260
1816,2261
1817,2262
1818,2263
1819,2264
1820,2265
1821,2266
1822,2267
1823,2268
1824,2269
1825,2270
1826,2271
1827,2272
1828,2273
1829,2274
1830,2275
1831,2276
1832,2277
1833,2278
1834,2279
1835,2280
1836,2281
1837,2282
1838,2283
1839,2284
1840,2285
1841,2286
1842,2287
1843,2288
1844,2289
1845,2290
1846,2291
1847,2292
1848,2293
1849,2294
1850,2295
1851,2296
1852,2297
1853,2298
1854,2299
