src,trg
2028,2985
2028,2985
2028,2985
2028,2985
2029,2986
2029,2986
2029,2986
2029,2986
2030,2987
2030,2987
2030,2987
2030,2987
2031,2988
2031,2988
2031,2988
2031,2988
2032,2989
2032,2989
2032,2989
2032,2989
2033,2990
2033,2990
2033,2990
2033,2990
2034,2991
2034,2991
2034,2991
2034,2991
2035,2992
2035,2992
2035,2992
2035,2992
2036,2993
2036,2993
2036,2993
2036,2993
2037,2994
2037,2994
2037,2994
2037,2994
2038,2995
2038,2995
2038,2995
2038,2995
2039,2996
2039,2996
2039,2996
2039,2996
2040,2997
2040,2997
2040,2997
2040,2997
2041,2998
2041,2998
2041,2998
2041,2998
2042,2999
2042,2999
2042,2999
2042,2999
2043,3000
2043,3000
2043,3000
2043,3000
2044,3001
2044,3001
2044,3001
2044,3001
2045,3002
2045,3002
2045,3002
2045,3002
2046,3003
2046,3003
2046,3003
2046,3003
2047,3004
2047,3004
2047,3004
2047,3004
2048,3005
2048,3005
2048,3005
2048,3005
2049,3006
2049,3006
2049,3006
2049,3006
2050,3007
2050,3007
2050,3007
2050,3007
2051,3008
2051,3008
2051,3008
2051,3008
2052,3009
2052,3009
2052,3009
2052,3009
2053,3010
2053,3010
2053,3010
2053,3010
2054,3011
2054,3011
2054,3011
2054,3011
2055,3012
2055,3012
2055,3012
2055,3012
2056,3013
2056,3013
2056,3013
2056,3013
2057,3014
2057,3014
2057,3014
2057,3014
2058,3015
2058,3015
2058,3015
2058,3015
2059,3016
2059,3016
2059,3016
2059,3016
2060,3017
2060,3017
2060,3017
2060,3017
2061,3018
2061,3018
2061,3018
2061,3018
2062,3019
2062,3019
2062,3019
2062,3019
2063,3020
2063,3020
2063,3020
2063,3020
2064,3021
2064,3021
2064,3021
2064,3021
2065,3022
2065,3022
2065,3022
2065,3022
2066,3023
2066,3023
2066,3023
2066,3023
2067,3024
2067,3024
2067,3024
2067,3024
2068,3025
2068,3025
2068,3025
2068,3025
2069,3026
2069,3026
2069,3026
2069,3026
2070,3027
2070,3027
2070,3027
2070,3027
2071,3028
2071,3028
2071,3028
2071,3028
2072,3029
2072,3029
2072,3029
2072,3029
2073,3030
2073,3030
2073,3030
2073,3030
2074,3031
2074,3031
2074,3031
2074,3031
2075,3032
2075,3032
2075,3032
2075,3032
2076,3033
2076,3033
2076,3033
2076,3033
2077,3034
2077,3034
2077,3034
2077,3034
2078,3035
2078,3035
2078,3035
2078,3035
2079,3036
2079,3036
2079,3036
2079,3036
2080,3037
2080,3352
2080,3037
2080,3352
2080,3037
2080,3352
2080,3037
2080,3352
2081,3038
2081,3038
2081,3038
2081,3038
2082,3039
2082,3039
2082,3039
2082,3039
2083,3040
2083,3040
2083,3040
2083,3040
2084,3041
2084,3041
2084,3041
2084,3041
2085,3042
2085,3042
2085,3042
2085,3042
2086,3043
2086,3043
2086,3043
2086,3043
2087,3044
2087,3044
2087,3044
2087,3044
2088,3045
2088,3045
2088,3045
2088,3045
2089,3046
2089,3046
2089,3046
2089,3046
2090,3047
2090,3047
2090,3047
2090,3047
2091,3048
2091,3048
2091,3048
2091,3048
2092,3049
2092,3049
2092,3049
2092,3049
2093,3050
2093,3050
2093,3050
2093,3050
2094,3051
2094,3051
2094,3051
2094,3051
2095,3052
2095,3052
2095,3052
2095,3052
2096,3053
2096,3053
2096,3053
2096,3053
2097,3054
2097,3054
2097,3054
2097,3054
2098,3055
2098,3055
2098,3055
2098,3055
2099,3056
2099,3056
2099,3056
2099,3056
2100,3057
2100,3057
2100,3057
2100,3057
2101,3058
2101,3058
2101,3058
2101,3058
2102,3059
2102,3059
2102,3059
2102,3059
2103,3060
2103,3060
2103,3060
2103,3060
2104,3061
2104,3061
2104,3061
2104,3061
2105,3062
2105,3062
2105,3062
2105,3062
2106,3063
2106,3063
2106,3063
2106,3063
2107,3064
2107,3064
2107,3064
2107,3064
2108,3065
2108,3065
2108,3065
2108,3065
2109,3066
2109,3066
2109,3066
2109,3066
2110,3067
2110,3067
2110,3067
2110,3067
2111,3068
2111,3068
2111,3068
2111,3068
2112,3069
2112,3069
2112,3069
2112,3069
2113,3070
2113,3070
2113,3070
2113,3070
2114,3071
2114,3071
2114,3071
2114,3071
2115,3072
2115,3072
2115,3072
2115,3072
2116,3073
2116,3073
2116,3073
2116,3073
2117,3074
2117,3074
2117,3074
2117,3074
2118,3075
2118,3075
2118,3075
2118,3075
2119,3076
2119,3076
2119,3076
2119,3076
2120,3077
2120,3077
2120,3077
2120,3077
2121,3078
2121,3078
2121,3078
2121,3078
2122,3079
2122,3079
2122,3079
2122,3079
2123,3080
2123,3080
2123,3080
2123,3080
2124,3081
2124,3081
2124,3081
2124,3081
2125,3082
2125,3082
2125,3082
2125,3082
2126,3083
2126,3083
2126,3083
2126,3083
2127,3084
2127,3084
2127,3084
2127,3084
2128,3085
2128,3085
2128,3085
2128,3085
2129,3086
2129,3086
2129,3086
2129,3086
2130,3087
2130,3087
2130,3087
2130,3087
2131,3088
2131,3088
2131,3088
2131,3088
2132,3089
2132,3089
2132,3089
2132,3089
2133,3090
2133,3090
2133,3090
2133,3090
2134,3091
2134,3091
2134,3091
2134,3091
2135,3092
2135,3092
2135,3092
2135,3092
2136,3093
2136,3093
2136,3093
2136,3093
2137,3094
2137,3094
2137,3094
2137,3094
2138,3095
2138,3095
2138,3095
2138,3095
2139,3096
2139,3096
2139,3096
2139,3096
2140,3097
2140,3097
2140,3097
2140,3097
2141,3098
2141,3098
2141,3098
2141,3098
2142,3099
2142,3099
2142,3099
2142,3099
2143,3100
2143,3100
2143,3100
2143,3100
2144,3101
2144,3101
2144,3101
2144,3101
2145,3102
2145,3102
2145,3102
2145,3102
2146,3103
2146,3103
2146,3103
2146,3103
2147,3104
2147,3104
2147,3104
2147,3104
2148,3105
2148,3105
2148,3105
2148,3105
2149,3106
2149,3106
2149,3106
2149,3106
2150,3107
2150,3107
2150,3107
2150,3107
2151,3108
2151,3108
2151,3108
2151,3108
2152,3109
2152,3109
2152,3109
2152,3109
2153,3110
2153,3110
2153,3110
2153,3110
2154,3111
2154,3111
2154,3111
2154,3111
2155,3112
2155,3112
2155,3112
2155,3112
2156,3113
2156,3113
2156,3113
2156,3113
2157,3114
2157,3114
2157,3114
2157,3114
2158,3115
2158,3115
2158,3115
2158,3115
2159,3116
2159,3116
2159,3116
2159,3116
2160,3117
2160,3117
2160,3117
2160,3117
2161,3118
2161,3118
2161,3118
2161,3118
2162,3119
2162,3119
2162,3119
2162,3119
2163,3120
2163,3120
2163,3120
2163,3120
2164,3124
2164,3121
2164,3121
2164,3124
2164,3121
2164,3124
2164,3121
2164,3124
2165,3122
2165,3122
2165,3122
2165,3122
2166,3123
2166,3123
2166,3123
2166,3123
2167,3125
2167,3125
2167,3125
2167,3125
2168,3126
2168,3126
2168,3126
2168,3126
2169,3127
2169,3127
2169,3127
2169,3127
2170,3128
2170,3128
2170,3128
2170,3128
2171,3129
2171,3129
2171,3129
2171,3129
2172,3130
2172,3130
2172,3130
2172,3130
2173,3131
2173,3131
2173,3131
2173,3131
2174,3132
2174,3132
2174,3132
2174,3132
2175,3133
2175,3133
2175,3133
2175,3133
2176,3134
2176,3134
2176,3134
2176,3134
2177,3135
2177,3135
2177,3135
2177,3135
2178,3136
2178,3136
2178,3136
2178,3136
2179,3137
2179,3137
2179,3137
2179,3137
2180,3138
2180,3138
2180,3138
2180,3138
2181,3139
2181,3139
2181,3139
2181,3139
2182,3140
2182,3140
2182,3140
2182,3140
2183,3141
2183,3141
2183,3141
2183,3141
2184,3142
2184,3142
2184,3142
2184,3142
2185,3143
2185,3143
2185,3143
2185,3143
2186,3144
2186,3144
2186,3144
2186,3144
2187,3145
2187,3145
2187,3145
2187,3145
2188,3146
2188,3146
2188,3146
2188,3146
2189,3147
2189,3147
2189,3147
2189,3147
2190,3148
2190,3148
2190,3148
2190,3148
2191,3149
2191,3149
2191,3149
2191,3149
2192,3150
2192,3150
2192,3150
2192,3150
2193,3151
2193,3151
2193,3151
2193,3151
2194,3152
2194,3152
2194,3152
2194,3152
2195,3153
2195,3153
2195,3153
2195,3153
2196,3154
2196,3154
2196,3154
2196,3154
2197,3155
2197,3155
2197,3155
2197,3155
2198,3156
2198,3156
2198,3156
2198,3156
2199,3157
2199,3157
2199,3157
2199,3157
2200,3158
2200,3158
2200,3158
2200,3158
2201,3159
2201,3159
2201,3159
2201,3159
2202,3160
2202,3160
2202,3160
2202,3160
2203,3161
2203,3161
2203,3161
2203,3161
2204,3162
2204,3162
2204,3162
2204,3162
2205,3163
2205,3163
2205,3163
2205,3163
2206,3164
2206,3164
2206,3164
2206,3164
2207,3165
2207,3165
2207,3165
2207,3165
2208,3166
2208,3166
2208,3166
2208,3166
2209,3167
2209,3167
2209,3167
2209,3167
2210,3168
2210,3168
2210,3168
2210,3168
2211,3169
2211,3169
2211,3169
2211,3169
2212,3170
2212,3170
2212,3170
2212,3170
2213,3171
2213,3171
2213,3171
2213,3171
2214,3172
2214,3172
2214,3172
2214,3172
2215,3173
2215,3173
2215,3173
2215,3173
2216,3174
2216,3174
2216,3174
2216,3174
2217,3175
2217,3175
2217,3175
2217,3175
2218,3176
2218,3176
2218,3176
2218,3176
2219,3177
2219,3177
2219,3177
2219,3177
2220,3178
2220,3178
2220,3178
2220,3178
2221,3179
2221,3179
2221,3179
2221,3179
2222,3180
2222,3180
2222,3180
2222,3180
2223,3181
2223,3181
2223,3181
2223,3181
2224,3182
2224,3182
2224,3182
2224,3182
2225,3183
2225,3183
2225,3183
2225,3183
2226,3184
2226,3184
2226,3184
2226,3184
2227,3185
2227,3185
2227,3185
2227,3185
2228,3186
2228,3186
2228,3186
2228,3186
2229,3187
2229,3187
2229,3187
2229,3187
2230,3188
2230,3188
2230,3188
2230,3188
2231,3189
2231,3189
2231,3189
2231,3189
2232,3190
2232,3190
2232,3190
2232,3190
2233,3191
2233,3191
2233,3191
2233,3191
2234,3192
2234,3192
2234,3192
2234,3192
2235,3193
2235,3193
2235,3193
2235,3193
2236,3194
2236,3194
2236,3194
2236,3194
2237,3195
2237,3195
2237,3195
2237,3195
2238,3196
2238,3196
2238,3196
2238,3196
2239,3197
2239,3197
2239,3197
2239,3197
2240,3198
2240,3198
2240,3198
2240,3198
2241,3199
2241,3199
2241,3199
2241,3199
2242,3200
2242,3200
2242,3200
2242,3200
2243,3201
2243,3201
2243,3201
2243,3201
2244,3202
2244,3202
2244,3202
2244,3202
2245,3203
2245,3203
2245,3203
2245,3203
2246,3204
2246,3204
2246,3204
2246,3204
2247,3205
2247,3205
2247,3205
2247,3205
2248,3206
2248,3206
2248,3206
2248,3206
2249,3207
2249,3207
2249,3207
2249,3207
2250,3208
2250,3208
2250,3208
2250,3208
2251,3209
2251,3209
2251,3209
2251,3209
2252,3210
2252,3210
2252,3210
2252,3210
2253,3211
2253,3211
2253,3211
2253,3211
2254,3212
2254,3212
2254,3212
2254,3212
2255,3213
2255,3213
2255,3213
2255,3213
2256,3214
2256,3214
2256,3214
2256,3214
2257,3215
2257,3215
2257,3215
2257,3215
2258,3216
2258,3216
2258,3216
2258,3216
2259,3217
2259,3217
2259,3217
2259,3217
2260,3218
2260,3218
2260,3218
2260,3218
2261,3219
2261,3219
2261,3219
2261,3219
2262,3220
2262,3220
2262,3220
2262,3220
2263,3221
2263,3221
2263,3221
2263,3221
2264,3222
2264,3222
2264,3222
2264,3222
2265,3223
2265,3223
2265,3223
2265,3223
2266,3224
2266,3224
2266,3224
2266,3224
2267,3225
2267,3225
2267,3225
2267,3225
2268,3226
2268,3226
2268,3226
2268,3226
2269,3227
2269,3227
2269,3227
2269,3227
2270,3228
2270,3228
2270,3228
2270,3228
2271,3229
2271,3229
2271,3229
2271,3229
2272,3230
2272,3230
2272,3230
2272,3230
2273,3231
2273,3231
2273,3231
2273,3231
2274,3232
2274,3232
2274,3232
2274,3232
2275,3233
2275,3233
2275,3233
2275,3233
2276,3234
2276,3234
2276,3234
2276,3234
2277,3235
2277,3235
2277,3235
2277,3235
2278,3236
2278,3236
2278,3236
2278,3236
2279,3237
2279,3237
2279,3237
2279,3237
2280,3238
2280,3238
2280,3238
2280,3238
2281,3239
2281,3239
2281,3239
2281,3239
2282,3240
2282,3240
2282,3240
2282,3240
2283,3241
2283,3241
2283,3241
2283,3241
2284,3242
2284,3242
2284,3242
2284,3242
2285,3243
2285,3243
2285,3243
2285,3243
2286,3244
2286,3244
2286,3244
2286,3244
2287,3245
2287,3245
2287,3245
2287,3245
2288,3246
2288,3246
2288,3246
2288,3246
2289,3247
2289,3247
2289,3247
2289,3247
2290,3248
2290,3248
2290,3248
2290,3248
2291,3249
2291,3249
2291,3249
2291,3249
2292,3250
2292,3250
2292,3250
2292,3250
2293,3251
2293,3251
2293,3251
2293,3251
2294,3252
2294,3252
2294,3252
2294,3252
2295,3253
2295,3253
2295,3253
2295,3253
2296,3254
2296,3254
2296,3254
2296,3254
2297,3255
2297,3255
2297,3255
2297,3255
2298,3256
2298,3256
2298,3256
2298,3256
2299,3257
2299,3272
2299,3272
2299,3257
2299,3257
2299,3272
2299,3257
2299,3272
2300,3258
2300,3258
2300,3258
2300,3258
2301,3259
2301,3259
2301,3259
2301,3259
2302,3260
2302,3260
2302,3260
2302,3260
2303,3261
2303,3261
2303,3261
2303,3261
2304,3262
2304,3262
2304,3262
2304,3262
2305,3263
2305,3263
2305,3263
2305,3263
2306,3264
2306,3264
2306,3264
2306,3264
2307,3265
2307,3265
2307,3265
2307,3265
2308,3266
2308,3266
2308,3266
2308,3266
2309,3267
2309,3267
2309,3267
2309,3267
2310,3268
2310,3268
2310,3268
2310,3268
2311,3269
2311,3269
2311,3269
2311,3269
2312,3270
2312,3270
2312,3270
2312,3270
2313,3271
2313,3271
2313,3271
2313,3271
2314,3273
2314,3283
2314,3273
2314,3283
2314,3283
2314,3273
2314,3283
2314,3273
2315,3274
2315,3274
2315,3274
2315,3274
2316,3275
2316,3275
2316,3275
2316,3275
2317,3276
2317,3276
2317,3276
2317,3276
2318,3277
2318,3277
2318,3277
2318,3277
2319,3278
2319,3278
2319,3278
2319,3278
2320,3279
2320,3279
2320,3279
2320,3279
2321,3280
2321,3280
2321,3280
2321,3280
2322,3281
2322,3281
2322,3281
2322,3281
2323,3282
2323,3282
2323,3282
2323,3282
2324,3284
2324,3284
2324,3284
2324,3284
2325,3285
2325,3285
2325,3285
2325,3285
2326,3286
2326,3286
2326,3286
2326,3286
2327,3287
2327,3287
2327,3287
2327,3287
2328,3288
2328,3288
2328,3288
2328,3288
2329,3289
2329,3289
2329,3289
2329,3289
2330,3290
2330,3290
2330,3290
2330,3290
2331,3291
2331,3291
2331,3291
2331,3291
2332,3292
2332,3292
2332,3292
2332,3292
2333,3293
2333,3293
2333,3293
2333,3293
2334,3294
2334,3294
2334,3294
2334,3294
2335,3295
2335,3295
2335,3295
2335,3295
2336,3296
2336,3296
2336,3296
2336,3296
2337,3297
2337,3297
2337,3297
2337,3297
2338,3298
2338,3298
2338,3298
2338,3298
2339,3299
2339,3299
2339,3299
2339,3299
2340,3300
2340,3300
2340,3300
2340,3300
2341,3301
2341,3301
2341,3301
2341,3301
2342,3302
2342,3302
2342,3302
2342,3302
2343,3303
2343,3303
2343,3303
2343,3303
2344,3304
2344,3304
2344,3304
2344,3304
2345,3305
2345,3305
2345,3305
2345,3305
2346,3306
2346,3306
2346,3306
2346,3306
2347,3307
2347,3307
2347,3307
2347,3307
2348,3308
2348,3308
2348,3308
2348,3308
2349,3309
2349,3309
2349,3309
2349,3309
2350,3310
2350,3310
2350,3310
2350,3310
2351,3311
2351,3311
2351,3311
2351,3311
2352,3312
2352,3312
2352,3312
2352,3312
2353,3313
2353,3313
2353,3313
2353,3313
2354,3314
2354,3314
2354,3314
2354,3314
2355,3315
2355,3315
2355,3315
2355,3315
2356,3316
2356,3316
2356,3316
2356,3316
2357,3317
2357,3317
2357,3317
2357,3317
2358,3318
2358,3318
2358,3318
2358,3318
2359,3319
2359,3319
2359,3319
2359,3319
2360,3320
2360,3320
2360,3320
2360,3320
2361,3321
2361,3321
2361,3321
2361,3321
2362,3322
2362,3322
2362,3322
2362,3322
2363,3323
2363,3323
2363,3323
2363,3323
2364,3324
2364,3324
2364,3324
2364,3324
2365,3325
2365,3325
2365,3325
2365,3325
2366,3326
2366,3326
2366,3326
2366,3326
2367,3327
2367,3327
2367,3327
2367,3327
2368,3328
2368,3328
2368,3328
2368,3328
2369,3329
2369,3329
2369,3329
2369,3329
2370,3330
2370,3330
2370,3330
2370,3330
2371,3331
2371,3331
2371,3331
2371,3331
2372,3332
2372,3332
2372,3332
2372,3332
2373,3333
2373,3333
2373,3333
2373,3333
2374,3334
2374,3334
2374,3334
2374,3334
2375,3335
2375,3335
2375,3335
2375,3335
2376,3336
2376,3337
2376,3340
2376,3339
2376,3340
2376,3339
2376,3336
2376,3337
2376,3339
2376,3336
2376,3340
2376,3337
2376,3336
2376,3337
2376,3339
2376,3340
2377,3342
2377,3338
2377,3342
2377,3338
2377,3338
2377,3342
2377,3342
2377,3338
2378,3341
2378,3341
2378,3341
2378,3341
2379,3343
2379,3343
2379,3343
2379,3343
2380,3344
2380,3344
2380,3344
2380,3344
2381,3345
2381,3345
2381,3345
2381,3345
2382,3346
2382,3346
2382,3346
2382,3346
2383,3347
2383,3347
2383,3347
2383,3347
2384,3348
2384,3348
2384,3348
2384,3348
2385,3349
2385,3349
2385,3349
2385,3349
2386,3350
2386,3350
2386,3350
2386,3350
2387,3351
2387,3351
2387,3351
2387,3351
2388,3353
2388,3353
2388,3353
2388,3353
2389,3354
2389,3354
2389,3354
2389,3354
2390,3355
2390,3355
2390,3355
2390,3355
2391,3356
2391,3356
2391,3356
2391,3356
2392,3357
2392,3357
2392,3357
2392,3357
2393,3358
2393,3358
2393,3358
2393,3358
2394,3359
2394,3359
2394,3359
2394,3359
2395,3360
2395,3360
2395,3360
2395,3360
2396,3361
2396,3361
2396,3361
2396,3361
2397,3362
2397,3362
2397,3362
2397,3362
2398,3363
2398,3363
2398,3363
2398,3363
2399,3364
2399,3364
2399,3364
2399,3364
2400,3365
2400,3365
2400,3365
2400,3365
2401,3366
2401,3366
2401,3366
2401,3366
2402,3367
2402,3367
2402,3367
2402,3367
2403,3368
2403,3368
2403,3368
2403,3368
2404,3369
2404,3369
2404,3369
2404,3369
2405,3370
2405,3370
2405,3370
2405,3370
2406,3371
2406,3371
2406,3371
2406,3371
2407,3372
2407,3372
2407,3372
2407,3372
2408,3373
2408,3373
2408,3373
2408,3373
2409,3374
2409,3374
2409,3374
2409,3374
2410,3375
2410,3375
2410,3375
2410,3375
2411,3376
2411,3376
2411,3376
2411,3376
2412,3377
2412,3377
2412,3377
2412,3377
2413,3378
2413,3378
2413,3378
2413,3378
2414,3379
2414,3379
2414,3379
2414,3379
2415,3380
2415,3380
2415,3380
2415,3380
2416,3381
2416,3381
2416,3381
2416,3381
2417,3382
2417,3382
2417,3382
2417,3382
2418,3383
2418,3383
2418,3383
2418,3383
2419,3384
2419,3384
2419,3384
2419,3384
2420,3385
2420,3385
2420,3385
2420,3385
2421,3386
2421,3386
2421,3386
2421,3386
2422,3387
2422,3387
2422,3387
2422,3387
2423,3388
2423,3388
2423,3388
2423,3388
2424,3389
2424,3389
2424,3389
2424,3389
2425,3408
2425,3390
2425,3408
2425,3390
2425,3408
2425,3390
2425,3408
2425,3390
2426,3391
2426,3391
2426,3391
2426,3391
2427,3392
2427,3392
2427,3392
2427,3392
2428,3393
2428,3393
2428,3393
2428,3393
2429,3394
2429,3394
2429,3394
2429,3394
2430,3395
2430,3395
2430,3395
2430,3395
2431,3396
2431,3396
2431,3396
2431,3396
2432,3397
2432,3397
2432,3397
2432,3397
2433,3398
2433,3398
2433,3398
2433,3398
2434,3399
2434,3399
2434,3399
2434,3399
2435,3400
2435,3400
2435,3400
2435,3400
2436,3401
2436,3401
2436,3401
2436,3401
2437,3402
2437,3402
2437,3402
2437,3402
2438,3403
2438,3403
2438,3403
2438,3403
2439,3404
2439,3404
2439,3404
2439,3404
2440,3405
2440,3405
2440,3405
2440,3405
2441,3406
2441,3406
2441,3406
2441,3406
2442,3407
2442,3407
2442,3407
2442,3407
2443,3409
2443,3409
2443,3409
2443,3409
2444,3429
2444,3410
2444,3410
2444,3429
2444,3429
2444,3410
2444,3429
2444,3410
2445,3411
2445,3411
2445,3411
2445,3411
2446,3412
2446,3412
2446,3412
2446,3412
2447,3413
2447,3413
2447,3413
2447,3413
2448,3414
2448,3414
2448,3414
2448,3414
2449,3415
2449,3415
2449,3415
2449,3415
2450,3416
2450,3416
2450,3416
2450,3416
2451,3417
2451,3417
2451,3417
2451,3417
2452,3418
2452,3418
2452,3418
2452,3418
2453,3419
2453,3419
2453,3419
2453,3419
2454,3420
2454,3420
2454,3420
2454,3420
2455,3421
2455,3421
2455,3421
2455,3421
2456,3422
2456,3422
2456,3422
2456,3422
2457,3423
2457,3423
2457,3423
2457,3423
2458,3424
2458,3424
2458,3424
2458,3424
2459,3425
2459,3425
2459,3425
2459,3425
2460,3426
2460,3426
2460,3426
2460,3426
2461,3427
2461,3427
2461,3427
2461,3427
2462,3428
2462,3428
2462,3428
2462,3428
2463,3430
2463,3430
2463,3430
2463,3430
2464,3431
2464,3431
2464,3431
2464,3431
2465,3432
2465,3432
2465,3432
2465,3432
2466,3433
2466,3433
2466,3433
2466,3433
2467,3434
2467,3434
2467,3434
2467,3434
2468,3435
2468,3435
2468,3435
2468,3435
2469,3436
2469,3436
2469,3436
2469,3436
2470,3437
2470,3437
2470,3437
2470,3437
2471,3438
2471,3438
2471,3438
2471,3438
2472,3439
2472,3439
2472,3439
2472,3439
2473,3440
2473,3440
2473,3440
2473,3440
2474,3441
2474,3441
2474,3441
2474,3441
2475,3442
2475,3442
2475,3442
2475,3442
2476,3443
2476,3443
2476,3443
2476,3443
2477,3444
2477,3444
2477,3444
2477,3444
2478,3445
2478,3445
2478,3445
2478,3445
2479,3446
2479,3446
2479,3446
2479,3446
2480,3447
2480,3447
2480,3447
2480,3447
2481,3448
2481,3448
2481,3448
2481,3448
2482,3449
2482,3449
2482,3449
2482,3449
2483,3450
2483,3450
2483,3450
2483,3450
2484,3451
2484,3451
2484,3451
2484,3451
2485,3452
2485,3452
2485,3452
2485,3452
2486,3453
2486,3453
2486,3453
2486,3453
2487,3454
2487,3454
2487,3454
2487,3454
2488,3455
2488,3459
2488,3455
2488,3459
2488,3455
2488,3459
2488,3455
2488,3459
2489,3456
2489,3456
2489,3456
2489,3456
2490,3457
2490,3457
2490,3457
2490,3457
2491,3458
2491,3458
2491,3458
2491,3458
2492,3460
2492,3460
2492,3460
2492,3460
2493,3461
2493,3461
2493,3461
2493,3461
2494,3462
2494,3462
2494,3462
2494,3462
2495,3463
2495,3463
2495,3463
2495,3463
2496,3464
2496,3464
2496,3464
2496,3464
2497,3465
2497,3465
2497,3465
2497,3465
2498,3466
2498,3466
2498,3466
2498,3466
2499,3467
2499,3467
2499,3467
2499,3467
2500,3468
2500,3468
2500,3468
2500,3468
2501,3469
2501,3469
2501,3469
2501,3469
2502,3470
2502,3470
2502,3470
2502,3470
2503,3471
2503,3471
2503,3471
2503,3471
2504,3472
2504,3472
2504,3472
2504,3472
2505,3473
2505,3473
2505,3473
2505,3473
2506,3474
2506,3474
2506,3474
2506,3474
2507,3475
2507,3475
2507,3475
2507,3475
2508,3476
2508,3476
2508,3476
2508,3476
2509,3477
2509,3477
2509,3477
2509,3477
2510,3478
2510,3478
2510,3478
2510,3478
2511,3479
2511,3479
2511,3479
2511,3479
2512,3480
2512,3480
2512,3480
2512,3480
2513,3481
2513,3481
2513,3481
2513,3481
2514,3482
2514,3482
2514,3482
2514,3482
2515,3483
2515,3483
2515,3483
2515,3483
2516,3484
2516,3484
2516,3484
2516,3484
2517,3485
2517,3485
2517,3485
2517,3485
2518,3486
2518,3486
2518,3486
2518,3486
2519,3487
2519,3487
2519,3487
2519,3487
2520,3488
2520,3488
2520,3488
2520,3488
2521,3489
2521,3489
2521,3489
2521,3489
2522,3490
2522,3490
2522,3490
2522,3490
2523,3491
2523,3491
2523,3491
2523,3491
2524,3492
2524,3492
2524,3492
2524,3492
2525,3493
2525,3493
2525,3493
2525,3493
2526,3494
2526,3494
2526,3494
2526,3494
2527,3495
2527,3495
2527,3495
2527,3495
2528,3496
2528,3496
2528,3496
2528,3496
2529,3497
2529,3497
2529,3497
2529,3497
2530,3498
2530,3498
2530,3498
2530,3498
2531,3499
2531,3499
2531,3499
2531,3499
2532,3500
2532,3500
2532,3500
2532,3500
2533,3501
2533,3501
2533,3501
2533,3501
2534,3502
2534,3502
2534,3502
2534,3502
2535,3503
2535,3503
2535,3503
2535,3503
2536,3504
2536,3504
2536,3504
2536,3504
2537,3505
2537,3505
2537,3505
2537,3505
2538,3506
2538,3506
2538,3506
2538,3506
2539,3507
2539,3507
2539,3507
2539,3507
2540,3508
2540,3508
2540,3508
2540,3508
2541,3509
2541,3509
2541,3509
2541,3509
2542,3510
2542,3510
2542,3510
2542,3510
2543,3511
2543,3511
2543,3511
2543,3511
2544,3512
2544,3512
2544,3512
2544,3512
2545,3513
2545,3513
2545,3513
2545,3513
2546,3514
2546,3514
2546,3514
2546,3514
2547,3515
2547,3515
2547,3515
2547,3515
2548,3516
2548,3516
2548,3516
2548,3516
2549,3517
2549,3517
2549,3517
2549,3517
2550,3518
2550,3518
2550,3518
2550,3518
2551,3519
2551,3519
2551,3519
2551,3519
2552,3520
2552,3520
2552,3520
2552,3520
2553,3521
2553,3521
2553,3521
2553,3521
2554,3522
2554,3522
2554,3522
2554,3522
2555,3523
2555,3523
2555,3523
2555,3523
2556,3524
2556,3524
2556,3524
2556,3524
2557,3525
2557,3525
2557,3525
2557,3525
2558,3526
2558,3526
2558,3526
2558,3526
2559,3527
2559,3527
2559,3527
2559,3527
2560,3528
2560,3528
2560,3528
2560,3528
2561,3529
2561,3529
2561,3529
2561,3529
2562,3530
2562,3530
2562,3530
2562,3530
2563,3531
2563,3531
2563,3531
2563,3531
2564,3532
2564,3532
2564,3532
2564,3532
2565,3533
2565,3533
2565,3533
2565,3533
2566,3534
2566,3534
2566,3534
2566,3534
2567,3535
2567,3535
2567,3535
2567,3535
2568,3536
2568,3536
2568,3536
2568,3536
2569,3537
2569,3537
2569,3537
2569,3537
2570,3538
2570,3538
2570,3538
2570,3538
2571,3539
2571,3539
2571,3539
2571,3539
2572,3540
2572,3540
2572,3540
2572,3540
2573,3541
2573,3541
2573,3541
2573,3541
2574,3542
2574,3542
2574,3542
2574,3542
2575,3543
2575,3543
2575,3543
2575,3543
2576,3544
2576,3544
2576,3544
2576,3544
2577,3545
2577,3545
2577,3545
2577,3545
2578,3546
2578,3546
2578,3546
2578,3546
2579,3547
2579,3547
2579,3547
2579,3547
2580,3548
2580,3548
2580,3548
2580,3548
2581,3549
2581,3549
2581,3549
2581,3549
2582,3550
2582,3550
2582,3550
2582,3550
2583,3551
2583,3551
2583,3551
2583,3551
2584,3552
2584,3552
2584,3552
2584,3552
2585,3553
2585,3553
2585,3553
2585,3553
2586,3554
2586,3554
2586,3554
2586,3554
2587,3555
2587,3555
2587,3555
2587,3555
2588,3556
2588,3556
2588,3556
2588,3556
2589,3557
2589,3557
2589,3557
2589,3557
2590,3558
2590,3558
2590,3558
2590,3558
2591,3559
2591,3559
2591,3559
2591,3559
2592,3560
2592,3560
2592,3560
2592,3560
2593,3561
2593,3561
2593,3561
2593,3561
2594,3562
2594,3562
2594,3562
2594,3562
2595,3563
2595,3563
2595,3563
2595,3563
2596,3564
2596,3564
2596,3564
2596,3564
2597,3565
2597,3565
2597,3565
2597,3565
2598,3566
2598,3566
2598,3566
2598,3566
2599,3567
2599,3567
2599,3567
2599,3567
2600,3568
2600,3568
2600,3568
2600,3568
2601,3569
2601,3569
2601,3569
2601,3569
2602,3570
2602,3570
2602,3570
2602,3570
2603,3571
2603,3571
2603,3571
2603,3571
2604,3572
2604,3572
2604,3572
2604,3572
2605,3573
2605,3573
2605,3573
2605,3573
2606,3574
2606,3574
2606,3574
2606,3574
2607,3575
2607,3575
2607,3575
2607,3575
2608,3576
2608,3579
2608,3860
2608,3860
2608,3579
2608,3576
2608,3579
2608,3576
2608,3860
2608,3576
2608,3579
2608,3860
2609,3577
2609,3577
2609,3577
2609,3577
2610,3578
2610,3578
2610,3578
2610,3578
2611,3580
2611,3580
2611,3580
2611,3580
2612,3584
2612,3581
2612,3583
2612,3583
2612,3584
2612,3581
2612,3584
2612,3583
2612,3581
2612,3581
2612,3584
2612,3583
2613,3582
2613,3582
2613,3582
2613,3582
2614,3589
2614,3638
2614,3594
2614,3626
2614,3597
2614,3628
2614,3585
2614,3632
2614,3585
2614,3589
2614,3638
2614,3626
2614,3628
2614,3632
2614,3597
2614,3594
2614,3597
2614,3585
2614,3628
2614,3638
2614,3626
2614,3594
2614,3632
2614,3589
2614,3632
2614,3628
2614,3594
2614,3597
2614,3638
2614,3626
2614,3589
2614,3585
2615,3596
2615,3586
2615,3586
2615,3596
2615,3586
2615,3596
2615,3596
2615,3586
2616,3587
2616,3587
2616,3587
2616,3587
2617,3588
2617,3588
2617,3588
2617,3588
2618,3590
2618,3590
2618,3590
2618,3590
2619,3591
2619,3592
2619,3592
2619,3591
2619,3591
2619,3592
2619,3591
2619,3592
2620,3593
2620,3593
2620,3593
2620,3593
2621,3595
2621,3595
2621,3595
2621,3595
2622,3598
2622,3598
2622,3598
2622,3598
2623,3599
2623,3599
2623,3599
2623,3599
2624,3600
2624,3600
2624,3600
2624,3600
2625,3601
2625,3601
2625,3601
2625,3601
2626,3602
2626,3602
2626,3602
2626,3602
2627,3603
2627,3603
2627,3603
2627,3603
2628,3604
2628,3604
2628,3604
2628,3604
2629,3642
2629,3605
2629,3642
2629,3605
2629,3605
2629,3642
2629,3642
2629,3605
2630,3606
2630,3606
2630,3606
2630,3606
2631,3607
2631,3607
2631,3607
2631,3607
2632,3608
2632,3608
2632,3608
2632,3608
2633,3609
2633,3609
2633,3609
2633,3609
2634,3610
2634,3610
2634,3610
2634,3610
2635,3611
2635,3611
2635,3611
2635,3611
2636,3612
2636,3612
2636,3612
2636,3612
2637,3613
2637,3613
2637,3613
2637,3613
2638,3614
2638,3614
2638,3614
2638,3614
2639,3615
2639,3615
2639,3615
2639,3615
2640,3616
2640,3616
2640,3616
2640,3616
2641,3617
2641,3617
2641,3617
2641,3617
2642,3618
2642,3618
2642,3618
2642,3618
2643,3619
2643,3619
2643,3619
2643,3619
2644,3620
2644,3620
2644,3620
2644,3620
2645,3621
2645,3621
2645,3621
2645,3621
2646,3622
2646,3622
2646,3622
2646,3622
2647,3623
2647,3623
2647,3623
2647,3623
2648,3624
2648,3624
2648,3624
2648,3624
2649,3625
2649,3625
2649,3625
2649,3625
2650,3627
2650,3627
2650,3627
2650,3627
2651,3629
2651,3629
2651,3629
2651,3629
2652,3630
2652,3630
2652,3630
2652,3630
2653,3631
2653,3631
2653,3631
2653,3631
2654,3633
2654,3633
2654,3633
2654,3633
2655,3634
2655,3634
2655,3634
2655,3634
2656,3636
2656,3635
2656,3636
2656,3635
2656,3636
2656,3635
2656,3636
2656,3635
2657,3637
2657,3637
2657,3637
2657,3637
2658,3639
2658,3639
2658,3639
2658,3639
2659,3640
2659,3640
2659,3640
2659,3640
2660,3641
2660,3641
2660,3641
2660,3641
2661,3643
2661,3643
2661,3643
2661,3643
2662,3644
2662,3644
2662,3644
2662,3644
2663,3645
2663,3645
2663,3645
2663,3645
2664,3646
2664,3646
2664,3646
2664,3646
2665,3648
2665,3647
2665,3647
2665,3648
2665,3647
2665,3648
2665,3647
2665,3648
2666,3649
2666,3649
2666,3649
2666,3649
2667,3650
2667,3650
2667,3650
2667,3650
2668,3680
2668,3651
2668,3651
2668,3680
2668,3680
2668,3651
2668,3680
2668,3651
2669,3652
2669,3652
2669,3652
2669,3652
2670,3653
2670,3653
2670,3653
2670,3653
2671,3654
2671,3654
2671,3654
2671,3654
2672,3655
2672,3655
2672,3655
2672,3655
2673,3656
2673,3656
2673,3656
2673,3656
2674,3850
2674,3657
2674,3850
2674,3657
2674,3657
2674,3850
2674,3850
2674,3657
2675,3658
2675,3658
2675,3658
2675,3658
2676,3659
2676,3659
2676,3659
2676,3659
2677,3660
2677,3660
2677,3660
2677,3660
2678,3661
2678,3661
2678,3661
2678,3661
2679,3662
2679,3662
2679,3662
2679,3662
2680,3663
2680,3663
2680,3663
2680,3663
2681,3664
2681,3664
2681,3664
2681,3664
2682,3665
2682,3665
2682,3665
2682,3665
2683,3666
2683,3666
2683,3666
2683,3666
2684,3667
2684,3667
2684,3667
2684,3667
2685,3668
2685,3668
2685,3668
2685,3668
2686,3669
2686,3669
2686,3669
2686,3669
2687,3670
2687,3670
2687,3670
2687,3670
2688,3671
2688,3671
2688,3671
2688,3671
2689,3672
2689,3672
2689,3672
2689,3672
2690,3685
2690,3695
2690,3673
2690,3682
2690,3673
2690,3685
2690,3695
2690,3682
2690,3682
2690,3695
2690,3673
2690,3685
2690,3685
2690,3673
2690,3695
2690,3682
2691,3674
2691,3674
2691,3674
2691,3674
2692,3675
2692,3675
2692,3675
2692,3675
2693,3842
2693,3959
2693,3962
2693,3906
2693,3676
2693,3676
2693,3842
2693,3906
2693,3959
2693,3962
2693,3842
2693,3676
2693,3959
2693,3962
2693,3906
2693,3842
2693,3906
2693,3962
2693,3676
2693,3959
2694,3677
2694,3677
2694,3677
2694,3677
2695,3678
2695,3678
2695,3678
2695,3678
2696,3679
2696,3679
2696,3679
2696,3679
2697,3681
2697,3681
2697,3681
2697,3681
2698,3683
2698,3683
2698,3683
2698,3683
2699,3684
2699,3684
2699,3684
2699,3684
2700,3686
2700,3686
2700,3686
2700,3686
2701,3687
2701,3687
2701,3687
2701,3687
2702,3688
2702,3688
2702,3688
2702,3688
2703,3689
2703,3689
2703,3689
2703,3689
2704,3690
2704,3690
2704,3690
2704,3690
2705,3691
2705,3691
2705,3691
2705,3691
2706,3692
2706,3692
2706,3692
2706,3692
2707,3693
2707,3693
2707,3693
2707,3693
2708,3694
2708,3694
2708,3694
2708,3694
2709,3696
2709,3696
2709,3696
2709,3696
2710,3697
2710,3697
2710,3697
2710,3697
2711,3698
2711,3698
2711,3698
2711,3698
2712,3699
2712,3699
2712,3699
2712,3699
2713,3700
2713,3700
2713,3700
2713,3700
2714,3701
2714,3701
2714,3701
2714,3701
2715,3702
2715,3702
2715,3702
2715,3702
2716,3703
2716,3703
2716,3703
2716,3703
2717,3704
2717,3704
2717,3704
2717,3704
2718,3705
2718,3705
2718,3705
2718,3705
2719,3706
2719,3706
2719,3706
2719,3706
2720,3707
2720,3707
2720,3707
2720,3707
2721,3942
2721,3708
2721,3708
2721,3942
2721,3708
2721,3942
2721,3942
2721,3708
2722,3709
2722,3709
2722,3709
2722,3709
2723,3710
2723,3710
2723,3710
2723,3710
2724,3711
2724,3711
2724,3711
2724,3711
2725,3712
2725,3712
2725,3712
2725,3712
2726,3713
2726,3713
2726,3713
2726,3713
2727,3714
2727,3714
2727,3714
2727,3714
2728,3715
2728,3715
2728,3715
2728,3715
2729,3716
2729,3716
2729,3716
2729,3716
2730,3717
2730,3717
2730,3717
2730,3717
2731,3718
2731,3718
2731,3718
2731,3718
2732,3719
2732,3719
2732,3719
2732,3719
2733,3720
2733,3720
2733,3720
2733,3720
2734,3721
2734,3721
2734,3721
2734,3721
2735,3722
2735,3722
2735,3722
2735,3722
2736,3723
2736,3723
2736,3723
2736,3723
2737,3724
2737,3724
2737,3724
2737,3724
2738,3725
2738,3725
2738,3725
2738,3725
2739,3726
2739,3726
2739,3726
2739,3726
2740,3727
2740,3727
2740,3727
2740,3727
2741,3728
2741,3728
2741,3728
2741,3728
2742,3729
2742,3729
2742,3729
2742,3729
2743,3730
2743,3730
2743,3730
2743,3730
2744,3731
2744,3731
2744,3731
2744,3731
2745,3732
2745,3732
2745,3732
2745,3732
2746,3733
2746,3733
2746,3733
2746,3733
2747,3734
2747,3734
2747,3734
2747,3734
2748,3735
2748,3735
2748,3735
2748,3735
2749,3736
2749,3736
2749,3736
2749,3736
2750,3737
2750,3737
2750,3737
2750,3737
2751,3738
2751,3738
2751,3738
2751,3738
2752,3739
2752,3739
2752,3739
2752,3739
2753,3740
2753,3740
2753,3740
2753,3740
2754,3741
2754,3741
2754,3741
2754,3741
2755,3742
2755,3742
2755,3742
2755,3742
2756,3743
2756,3743
2756,3743
2756,3743
2757,3744
2757,3744
2757,3744
2757,3744
2758,3745
2758,3745
2758,3745
2758,3745
2759,3746
2759,3746
2759,3746
2759,3746
2760,3747
2760,3747
2760,3747
2760,3747
2761,3748
2761,3748
2761,3748
2761,3748
2762,3749
2762,3749
2762,3749
2762,3749
2763,3750
2763,3750
2763,3750
2763,3750
2764,3751
2764,3751
2764,3751
2764,3751
2765,3752
2765,3752
2765,3752
2765,3752
2766,3753
2766,3753
2766,3753
2766,3753
2767,3754
2767,3754
2767,3754
2767,3754
2768,3755
2768,3755
2768,3755
2768,3755
2769,3756
2769,3756
2769,3756
2769,3756
2770,3758
2770,3757
2770,3758
2770,3757
2770,3758
2770,3757
2770,3757
2770,3758
2771,3759
2771,3759
2771,3759
2771,3759
2772,3760
2772,3760
2772,3760
2772,3760
2773,3761
2773,3761
2773,3761
2773,3761
2774,3762
2774,3762
2774,3762
2774,3762
2775,3763
2775,3763
2775,3763
2775,3763
2776,3764
2776,3764
2776,3764
2776,3764
2777,3765
2777,3765
2777,3765
2777,3765
2778,3766
2778,3766
2778,3766
2778,3766
2779,3767
2779,3767
2779,3767
2779,3767
2780,3768
2780,3768
2780,3768
2780,3768
2781,3769
2781,3769
2781,3769
2781,3769
2782,3913
2782,3770
2782,3913
2782,3770
2782,3770
2782,3913
2782,3770
2782,3913
2783,3771
2783,3771
2783,3771
2783,3771
2784,3772
2784,3772
2784,3772
2784,3772
2785,3773
2785,3773
2785,3773
2785,3773
2786,3774
2786,3774
2786,3774
2786,3774
2787,3775
2787,3775
2787,3775
2787,3775
2788,3776
2788,3776
2788,3776
2788,3776
2789,3777
2789,3777
2789,3777
2789,3777
2790,3778
2790,3778
2790,3778
2790,3778
2791,3779
2791,3779
2791,3779
2791,3779
2792,3780
2792,3780
2792,3780
2792,3780
2793,3781
2793,3781
2793,3781
2793,3781
2794,3782
2794,3782
2794,3782
2794,3782
2795,3783
2795,3783
2795,3783
2795,3783
2796,3784
2796,3784
2796,3784
2796,3784
2797,3785
2797,3785
2797,3785
2797,3785
2798,3786
2798,3786
2798,3786
2798,3786
2799,3787
2799,3787
2799,3787
2799,3787
2800,3788
2800,3788
2800,3788
2800,3788
2801,3789
2801,3789
2801,3789
2801,3789
2802,3790
2802,3790
2802,3790
2802,3790
2803,3791
2803,3791
2803,3791
2803,3791
2804,3792
2804,3792
2804,3792
2804,3792
2805,3793
2805,3793
2805,3793
2805,3793
2806,3794
2806,3794
2806,3794
2806,3794
2807,3795
2807,3795
2807,3795
2807,3795
2808,3796
2808,3796
2808,3796
2808,3796
2809,3797
2809,3797
2809,3797
2809,3797
2810,3798
2810,3798
2810,3798
2810,3798
2811,3799
2811,3799
2811,3799
2811,3799
2812,3800
2812,3800
2812,3800
2812,3800
2813,3801
2813,3801
2813,3801
2813,3801
2814,3802
2814,3802
2814,3802
2814,3802
2815,3803
2815,3803
2815,3803
2815,3803
2816,3804
2816,3804
2816,3804
2816,3804
2817,3805
2817,3805
2817,3805
2817,3805
2818,3806
2818,3806
2818,3806
2818,3806
2819,3807
2819,3807
2819,3807
2819,3807
2820,3808
2820,3808
2820,3808
2820,3808
2821,3809
2821,3809
2821,3809
2821,3809
2822,3810
2822,3810
2822,3810
2822,3810
2823,3811
2823,3811
2823,3811
2823,3811
2824,3812
2824,3812
2824,3812
2824,3812
2825,3813
2825,3813
2825,3813
2825,3813
2826,3814
2826,3814
2826,3814
2826,3814
2827,3815
2827,3815
2827,3815
2827,3815
2828,3816
2828,3816
2828,3816
2828,3816
2829,3817
2829,3817
2829,3817
2829,3817
2830,3818
2830,3818
2830,3818
2830,3818
2831,3819
2831,3819
2831,3819
2831,3819
2832,3820
2832,3820
2832,3820
2832,3820
2833,3821
2833,3821
2833,3821
2833,3821
2834,3822
2834,3822
2834,3822
2834,3822
2835,3823
2835,3823
2835,3823
2835,3823
2836,3824
2836,3824
2836,3824
2836,3824
2837,3825
2837,3825
2837,3825
2837,3825
2838,3826
2838,3826
2838,3826
2838,3826
2839,3827
2839,3829
2839,3829
2839,3827
2839,3829
2839,3827
2839,3829
2839,3827
2840,3828
2840,3828
2840,3828
2840,3828
2841,3830
2841,3830
2841,3830
2841,3830
2842,3831
2842,3831
2842,3831
2842,3831
2843,3832
2843,3832
2843,3832
2843,3832
2844,3833
2844,3833
2844,3833
2844,3833
2845,3834
2845,3834
2845,3834
2845,3834
2846,3835
2846,3835
2846,3835
2846,3835
2847,3836
2847,3836
2847,3836
2847,3836
2848,3837
2848,3837
2848,3837
2848,3837
2849,3838
2849,3838
2849,3838
2849,3838
2850,3839
2850,3839
2850,3839
2850,3839
2851,3840
2851,3840
2851,3840
2851,3840
2852,3841
2852,3841
2852,3841
2852,3841
2853,3843
2853,3843
2853,3843
2853,3843
2854,3844
2854,3844
2854,3844
2854,3844
2855,3845
2855,3845
2855,3845
2855,3845
2856,3846
2856,3846
2856,3846
2856,3846
2857,3847
2857,3847
2857,3847
2857,3847
2858,3848
2858,3848
2858,3848
2858,3848
2859,3849
2859,3849
2859,3849
2859,3849
2860,3851
2860,3851
2860,3851
2860,3851
2861,3852
2861,3852
2861,3852
2861,3852
2862,3853
2862,3853
2862,3853
2862,3853
2863,3854
2863,3854
2863,3854
2863,3854
2864,3855
2864,3855
2864,3855
2864,3855
2865,3856
2865,3856
2865,3856
2865,3856
2866,3857
2866,3857
2866,3857
2866,3857
2867,3858
2867,3858
2867,3858
2867,3858
2868,3859
2868,3859
2868,3859
2868,3859
2869,3861
2869,3861
2869,3861
2869,3861
2870,3862
2870,3862
2870,3862
2870,3862
2871,3863
2871,3863
2871,3863
2871,3863
2872,3864
2872,3864
2872,3864
2872,3864
2873,3865
2873,3865
2873,3865
2873,3865
2874,3866
2874,3866
2874,3866
2874,3866
2875,3867
2875,3867
2875,3867
2875,3867
2876,3868
2876,3868
2876,3868
2876,3868
2877,3869
2877,3869
2877,3869
2877,3869
2878,3870
2878,3870
2878,3870
2878,3870
2879,3871
2879,3876
2879,3871
2879,3876
2879,3876
2879,3871
2879,3871
2879,3876
2880,3872
2880,3872
2880,3872
2880,3872
2881,3873
2881,3873
2881,3873
2881,3873
2882,3874
2882,3874
2882,3874
2882,3874
2883,3875
2883,3875
2883,3875
2883,3875
2884,3877
2884,3877
2884,3877
2884,3877
2885,3878
2885,3878
2885,3878
2885,3878
2886,3879
2886,3879
2886,3879
2886,3879
2887,3880
2887,3880
2887,3880
2887,3880
2888,3881
2888,3881
2888,3881
2888,3881
2889,3882
2889,3882
2889,3882
2889,3882
2890,3883
2890,3883
2890,3883
2890,3883
2891,3884
2891,3884
2891,3884
2891,3884
2892,3885
2892,3885
2892,3885
2892,3885
2893,3886
2893,3886
2893,3886
2893,3886
2894,3887
2894,3887
2894,3887
2894,3887
2895,3888
2895,3888
2895,3888
2895,3888
2896,3889
2896,3889
2896,3889
2896,3889
2897,3890
2897,3890
2897,3890
2897,3890
2898,3891
2898,3891
2898,3891
2898,3891
2899,3892
2899,3892
2899,3892
2899,3892
2900,3893
2900,3893
2900,3893
2900,3893
2901,3894
2901,3894
2901,3894
2901,3894
2902,3895
2902,3895
2902,3895
2902,3895
2903,3896
2903,3896
2903,3896
2903,3896
2904,3897
2904,3897
2904,3897
2904,3897
2905,3898
2905,3898
2905,3898
2905,3898
2906,3899
2906,3899
2906,3899
2906,3899
2907,3900
2907,3900
2907,3900
2907,3900
2908,3901
2908,3901
2908,3901
2908,3901
2909,3902
2909,3902
2909,3902
2909,3902
2910,3903
2910,3903
2910,3903
2910,3903
2911,3904
2911,3904
2911,3904
2911,3904
2912,3905
2912,3905
2912,3905
2912,3905
2913,3907
2913,3907
2913,3907
2913,3907
2914,3908
2914,3908
2914,3908
2914,3908
2915,3909
2915,3909
2915,3909
2915,3909
2916,3910
2916,3910
2916,3910
2916,3910
2917,3911
2917,3911
2917,3911
2917,3911
2918,3912
2918,3912
2918,3912
2918,3912
2919,3914
2919,3914
2919,3914
2919,3914
2920,3915
2920,3915
2920,3915
2920,3915
2921,3916
2921,3916
2921,3916
2921,3916
2922,3917
2922,3917
2922,3917
2922,3917
2923,3918
2923,3918
2923,3918
2923,3918
2924,3919
2924,3919
2924,3919
2924,3919
2925,3920
2925,3920
2925,3920
2925,3920
2926,3921
2926,3921
2926,3921
2926,3921
2927,3922
2927,3922
2927,3922
2927,3922
2928,3923
2928,3923
2928,3923
2928,3923
2929,3924
2929,3924
2929,3924
2929,3924
2930,3925
2930,3925
2930,3925
2930,3925
2931,3926
2931,3926
2931,3926
2931,3926
2932,3927
2932,3927
2932,3927
2932,3927
2933,3928
2933,3928
2933,3928
2933,3928
2934,3929
2934,3929
2934,3929
2934,3929
2935,3930
2935,3930
2935,3930
2935,3930
2936,3931
2936,3931
2936,3931
2936,3931
2937,3932
2937,3932
2937,3932
2937,3932
2938,3933
2938,3933
2938,3933
2938,3933
2939,3934
2939,3934
2939,3934
2939,3934
2940,3935
2940,3935
2940,3935
2940,3935
2941,3936
2941,3936
2941,3936
2941,3936
2942,3937
2942,3937
2942,3937
2942,3937
2943,3938
2943,3938
2943,3938
2943,3938
2944,3939
2944,3939
2944,3939
2944,3939
2945,3940
2945,3940
2945,3940
2945,3940
2946,3941
2946,3941
2946,3941
2946,3941
2947,3943
2947,3943
2947,3943
2947,3943
2948,3944
2948,3944
2948,3944
2948,3944
2949,3945
2949,3945
2949,3945
2949,3945
2950,3946
2950,3946
2950,3946
2950,3946
2951,3947
2951,3947
2951,3947
2951,3947
2952,3948
2952,3948
2952,3948
2952,3948
2953,3949
2953,3949
2953,3949
2953,3949
2954,3950
2954,3950
2954,3950
2954,3950
2955,3951
2955,3951
2955,3951
2955,3951
2956,3952
2956,3952
2956,3952
2956,3952
2957,3953
2957,3953
2957,3953
2957,3953
2958,3954
2958,3954
2958,3954
2958,3954
2959,3956
2959,3955
2959,3955
2959,3956
2959,3956
2959,3955
2959,3955
2959,3956
2960,3957
2960,3957
2960,3957
2960,3957
2961,3958
2961,3958
2961,3958
2961,3958
2962,3960
2962,3966
2962,3960
2962,3966
2962,3960
2962,3966
2962,3966
2962,3960
2963,3961
2963,3961
2963,3961
2963,3961
2964,3963
2964,3963
2964,3963
2964,3963
2965,3964
2965,3964
2965,3964
2965,3964
2966,3965
2966,3965
2966,3965
2966,3965
2967,3967
2967,3967
2967,3967
2967,3967
2968,3968
2968,3968
2968,3968
2968,3968
2969,3969
2969,3969
2969,3969
2969,3969
2970,3970
2970,3970
2970,3970
2970,3970
2971,3971
2971,3971
2971,3971
2971,3971
2972,3972
2972,3972
2972,3972
2972,3972
2973,3973
2973,3973
2973,3973
2973,3973
2974,3974
2974,3974
2974,3974
2974,3974
2975,3975
2975,3975
2975,3975
2975,3975
2976,3976
2976,3976
2976,3976
2976,3976
2977,3977
2977,3977
2977,3977
2977,3977
2978,3978
2978,3978
2978,3978
2978,3978
2979,3979
2979,3979
2979,3979
2979,3979
2980,3980
2980,3980
2980,3980
2980,3980
2981,3981
2981,3981
2981,3981
2981,3981
2982,3982
2982,3982
2982,3982
2982,3982
2983,3983
2983,3983
2983,3983
2983,3983
2984,3984
2984,3984
2984,3984
2984,3984
