id,src,trg
5805210,18890764,4422979
21834201,83182319,9500429
91925176,52111837,48002535
22707858,66229078,14940832
79070933,86333822,50322097
92554558,24967509,95438130
37081206,57037822,32954105
3332978,79687121,87915529
27120400,6266500,30423312
41461475,62018431,28448137
53890673,70739635,2985099
93885633,37238011,33164843
25023430,41467956,78270972
40511707,46375296,15787399
32936192,63268090,11219716
40316397,97930259,75656446
98019210,1324938,53584916
97756661,23827843,37476370
13910942,84207027,88184070
38192549,56128392,97814537
6519428,56690933,47593244
73936966,77523217,95077310
41028476,26225449,84636241
78858780,71414378,51338647
19445406,16372987,50330967
63697690,45025587,64268717
9052832,39631376,52580754
5806990,37129062,99259181
5592952,90362966,29735517
54018888,65308024,44382024
9102219,50929457,80846596
96873237,37524242,14791250
85005766,90145646,37277356
56241970,42042384,14136878
63993199,36318252,73786627
67577156,95757596,10333214
97838477,18206940,13347499
84846124,94689585,93750050
13827218,31506828,19063393
30202932,49075841,4792845
7966775,84920099,36754679
94865309,91796848,31057462
80211074,19894232,21541507
98690934,44206542,12055159
33896553,1930288,8736292
46454691,23872586,61988013
92986135,74906956,49681217
25741972,77383773,46751914
44673682,68463288,64839971
67715155,56401354,6131144
386522,1251731,55381893
46766039,76240321,50868123
20337343,12731179,37354910
82958857,62094686,85496947
89387850,98385585,51465862
58376453,14539829,65274818
64891385,4892001,27302996
53083638,46600897,11033039
26069738,92626610,75782136
26674142,55694211,65570061
40332904,62645375,95949058
3052866,73032494,51118367
84318881,49639643,23527314
27819652,38643996,7811079
25262388,77090196,30263423
14419295,18980348,99064522
5909924,97100397,11939263
40462466,47244410,5006200
70367803,69587578,43736334
71451209,26607241,99775692
33109218,18519718,68733174
23292699,20334320,42065835
8719251,52578922,28717068
15052887,13251135,26719168
3115056,62381541,12232535
13135689,86108635,4175067
54511220,61043388,85630072
47180161,8947104,54487046
63442854,47368,71684707
80927581,78395430,5805589
76119045,98821211,73347691
96437682,4121358,97538456
2533022,24753579,54308183
16452555,25613130,8687753
1334892,75523524,77501052
40249551,2328873,39725811
91478162,55715099,29957963
68927125,24650545,12881077
49635732,75335896,80846596
63000000,55059013,15485181
85282106,986647,49146401
43911697,78753208,72606690
4547399,14394436,66431409
30739657,85344301,38606608
34783665,46237378,38727785
99901846,82547157,46904625
37688670,69431293,25267490
71644221,96767561,20104931
56434172,60861607,43695564
16399288,56669362,71001001
63801147,69112539,7759137
18243618,2489063,8334933
9384595,1045329,6459407
82414406,11712511,65596355
1431336,92428057,28925238
68289505,95081525,95621806
55472155,53219172,86954425
73899135,55808051,51465862
8234194,92001889,93093186
71237403,19708012,93313478
465736,82470622,39512910
21105626,26306633,76382686
45249542,38292731,53048753
8676260,60671867,95247040
43982536,82122773,14358554
36460920,42262378,56935143
12414965,10561579,98342874
75378722,67022100,79615454
46706745,10176057,72922084
90518216,37607722,10968823
9360309,38007922,54577506
75774323,58799729,66046765
86381023,5139163,46485736
52003331,84584975,913365
37069587,2244699,30123587
2261452,9497618,31817646
81122282,63684488,51778792
59372726,80220938,91810053
89016259,44257979,61656471
56010521,86871548,3995993
10731892,31230410,9468624
14656203,38211243,58420390
55470830,95999474,54383948
11383147,6131497,80402159
95078835,32578910,16518375
98860748,54915465,91783482
23512023,28578369,86980862
25539459,96809083,28707179
42612759,55933320,15857047
28502593,94354112,12100801
26001542,35012523,19952638
62657996,99163983,91948729
27727303,58902150,81049986
4865165,42074398,46872681
61489907,32726453,51415975
65926032,68565037,85947945
42862365,11888651,16781261
71363182,38591227,94083217
72681736,30228410,2617152
82189217,50387513,19063393
17050714,33184560,67471604
22055908,16892922,58240007
11280000,51469333,89182825
91159823,68904597,48640046
68939249,21070198,42156678
16669129,53111065,52921908
23889609,63280434,48585996
67749610,95644091,67881336
46850440,17535820,46495044
32867552,19720104,79901594
11191441,51250645,63059027
34692355,36500451,12705409
2389087,11509342,56935143
98311929,23394108,38585476
61265138,5574450,89434692
80469951,61919113,85653075
53628872,81138384,25981147
43453780,20114908,67901440
88747116,57599417,51415653
98588104,48742515,77808229
30396045,42353675,9055788
57929450,88365319,68723063
70532699,56963837,77735758
95176948,90509287,87721155
58271434,82291926,4651850
60015297,88946741,14363896
63402152,44814585,89123754
82660970,48707031,73052322
98458356,20381097,20094872
10296975,37266313,61343473
94120382,77780078,19910621
76375316,4023638,1176987
37008038,73500961,15094724
20724988,743046,53471591
8440366,88847737,83129029
94770991,53928464,12728289
86239190,44395293,12048957
77872498,55591954,4942206
17455520,28334818,540403
60257301,90303258,13357533
45320600,42584000,58434437
97342779,60015079,57810059
16206034,40728194,61225723
98161741,58940262,6578239
40372243,6433205,99705182
6989878,48927580,58751586
77080063,71808386,92852179
22339986,23376763,53947959
15172028,41094326,61030033
87645812,14094263,61787956
7244329,69755938,20912963
25415594,93551574,3434025
60535043,86041045,62050763
73657800,1427408,54647825
60794942,57953164,20302889
30979823,89735490,57180980
97292573,86945988,79515271
59854351,48765152,74492659
2561345,68574144,57817347
13910622,2614301,83959978
98788300,93428496,96999178
74916454,64618749,83131690
77119991,55753720,68705926
27521424,27450463,20601558
65812125,45487595,72359787
49603727,89140688,87572957
77157727,82656506,5522189
41533780,65615213,3388267
33205934,39965026,51465862
32899619,54823100,28358506
25277565,4873867,3937562
48200878,62589029,32470265
11461448,4633989,45925841
31086531,18447040,57810059
89541723,85287137,29621653
98736252,14916302,24585282
78563980,61427703,39512910
27709625,5184874,74518212
34177546,39831154,81928129
93191643,56340724,83518882
87665492,90765667,47092188
34978721,16563159,16072212
20646432,67751008,55974158
47268250,98557990,15062272
88934427,62585098,72978858
96179646,6977964,78777283
58909771,79707207,13216588
12375775,61995529,5883509
52379733,7748076,61362763
24259914,87510028,46904625
49842575,31563038,99851353
64408765,37395101,98217051
43733017,9376209,12244981
21445214,17606171,61534003
28184383,11430827,70197479
68256948,61757029,96625174
90472079,56062433,95100541
29483381,58142566,67527817
55623848,83197989,77175722
58146045,39114299,30906575
49689037,42247311,23229138
57541092,31941021,50868123
15044592,28978251,94985890
15634261,63740223,99611781
60144925,50700437,7654749
7610078,93418696,12909622
78837483,83558433,47186359
46289250,14376705,83129029
51466147,52773329,80402159
51891731,57576580,48831625
61586575,47590152,1192656
6502247,35469413,54638097
71482933,75216545,77915316
1769998,297249,36729128
68522765,37430741,12189657
85226615,65587618,53606132
93179808,67444571,70618156
46893726,38648353,40917376
33806906,32213891,5815573
73233276,20894602,29957963
15167324,53145276,53352847
76344376,72711730,57810059
67090501,37975521,19797404
31819082,97199055,99863319
9268833,6137783,3359206
59628716,73447334,97007120
94745923,21650748,32693782
67385723,68599079,78554269
26035948,75854372,84088340
50266809,24149680,52069373
49028739,43954563,55302166
14572817,89911077,76070985
97044384,36461246,52069373
75283186,19054226,46916992
88553996,9409741,5011736
30121823,51639413,59146080
40044023,53880077,20377060
39508015,5005629,42620827
37128497,7705461,21263122
33243718,4081884,47345995
88619471,1417994,11219716
53831015,76992085,52069373
60656003,46506354,47687451
68565249,94671688,44792693
72097979,48127395,22261301
74109636,35040284,12738589
85628414,40506068,68149717
60741672,87164546,83436929
19486810,3245821,64269396
77556209,37882690,94150404
89495679,31002061,78808411
7290725,66805290,61390170
29028915,82147365,82913369
81984232,97571766,21894834
12654681,24966951,22630084
6619490,77130464,84664518
11027525,1895628,35757573
58019943,42831321,85117188
25855985,75654528,62060949
78691303,71977778,47447991
58044170,10628628,88132844
10536322,56172954,82818555
18741086,65647427,95816105
51016333,99895627,23184296
1318486,22868127,52242823
40512258,72818704,83030241
97516518,59628560,94935543
36708089,66384309,33620608
35766971,52593583,77082025
61650573,34128133,46683236
44936739,26221825,47055884
15962818,5030548,30123587
8165683,94830484,6013747
56311931,7592336,30762264
96674867,41835959,11683709
98935466,12200603,79582698
35821383,61970236,56436856
95807188,25246263,69832599
28590150,12423741,58973927
35737474,78751491,98029368
6657682,49147251,12705409
24374412,24879491,84722321
84086156,15209977,40808208
12863172,35429943,33303398
49918360,38619148,62337062
10611196,82203632,54318218
60926480,42974628,8883846
62793806,7143419,16041184
57165103,75327434,51441305
62723706,25881895,29437416
72246945,89979866,47092188
56663588,85741877,90327141
68564019,81078412,28640353
94750341,88606704,99429577
9733723,27137519,14625747
84629920,65892128,63142935
17585068,73088417,7151852
74138632,29144457,53352847
20711732,22030736,46877399
17880606,41470326,89765560
43400551,83543881,99266689
93701710,26385882,67417843
76293258,82208602,40465549
53674610,60967126,22081347
48425811,58747903,359038
43752601,25749873,14749821
55776648,22477529,16201530
58229808,67917156,75054975
53937850,48488969,77082025
39034908,28849576,87093924
423028,78138923,16434557
31274407,92683007,22236135
59145229,12874602,61988013
3236743,60752327,80846596
96477024,75674129,89558384
98878039,73766343,79498566
36481816,82565028,55800915
24132393,2660696,49745181
37897084,67495251,10955963
98491271,28557568,59477764
11151935,91030667,7341418
76292202,49364020,60587393
53546455,84991913,19199582
95085160,27382864,16099772
10453694,79155903,66410115
79090213,62880713,13380126
3625574,47699742,2435606
83290113,35704761,28567833
53817844,21890894,72990190
52492481,59102085,62545989
73158012,9135617,81458506
69121626,62725999,80887134
58137999,34049300,28640353
75060976,15670908,52161554
44499595,7766049,70278028
29860693,17178535,84636241
42144982,128432,28714283
38395126,78129482,7728771
50565889,12769641,11683709
68759199,83388550,6050490
60669754,85626035,78003863
93498840,50757158,81049986
85215906,51230819,47861656
22304410,76156686,67880148
51116606,53962579,51224864
57057315,90214318,12612556
63843655,5004675,2474212
79697816,58499309,45253531
57475936,87747470,91013
84831743,15624352,55062359
94053679,67700034,59564296
46153890,34016561,10923053
78911577,52333183,2078213
91192496,91145258,11683709
83273256,16527449,2556089
44700459,27547183,27639174
20446544,1766162,3923644
58299639,2652286,68346821
79296353,28653045,83308149
5389937,94053294,84636241
7229984,34569326,43781283
81471640,22678068,69017231
59355890,96626428,44902504
99050226,90218946,44883682
4925381,43859153,4804723
28146105,79644996,70393606
71208206,83943283,26219296
28714789,41348289,59292509
71067199,31318504,10449767
70103780,26118229,71619695
89519262,5382962,45033839
87150884,2784206,61787956
84413841,71795333,73344088
15730802,16919797,62804453
68674626,8701051,95200905
57646912,12225948,83164636
62934098,63158851,4343066
96491851,62766286,2032634
96181139,87666100,48440394
88440640,25416319,55872807
34277909,21185141,14576499
33870806,10701995,43288660
2866946,74348889,86430263
37832526,56230140,90014763
19098507,21421357,600657
1469118,37377607,83308149
49490133,40162381,49886767
58453664,12196622,4290022
48566991,11744320,82980885
43927269,90472248,22248480
6795856,23369922,84660055
79364930,97772799,60105515
61721427,21034400,79098506
91188493,78031791,77260044
37187038,23966872,80634939
8479078,2832402,87959874
73592054,7793438,56690933
6906888,96339008,54647825
49491521,40325386,85189787
10116875,46919336,82390845
13312452,72067514,36374611
96422504,8302295,22939852
53503412,66624109,5011736
40904435,41674253,5005137
50325848,88608935,95738787
29707255,3790021,52955281
41242476,24425211,28313714
17075535,52273109,56535516
2251804,57336934,27077239
59433062,84253096,43957904
93652846,18499600,56883188
19531666,78709474,31906729
3627523,915398,61988013
52790413,51531380,34105994
82823439,33794569,32448104
79500106,76298317,14184176
61160562,74558975,88547168
73710307,79393427,42297967
80080579,43121186,84891598
43208119,18941541,37416264
46001541,3347391,47296803
90585675,42077500,60234725
76004860,39483947,29610092
88029098,3570728,89006601
15600076,24670749,41974557
10143320,55760347,47447991
31399048,86150140,15143169
92970971,27167803,61893213
45830624,40790844,16894501
48387802,65865124,44309594
64918546,76641734,7595661
40844381,86856075,86639511
5173452,37051451,70229001
80945717,99660484,12504056
48073965,83445611,79339039
73915461,38987469,67317869
71900377,24742947,41521605
44837182,31954793,46799791
74945759,61757053,84374919
21435984,17997448,56145319
19481257,73512452,29320845
28333793,85751357,22630084
48792791,76085597,24233177
14220111,38836659,27899224
75759323,35234805,5266627
14416846,15357648,63205582
54808596,61182517,38864940
50923917,84826349,97003761
56835761,47957428,69786184
19374972,56896684,17366687
29990421,54714397,7761865
17781265,4527030,97149305
69533571,28279207,2593722
7411708,68114462,90791629
84196626,69328591,47638592
2741449,32432028,19911456
57678992,92344994,69368899
69726501,14635132,57692022
27178864,61489016,40868295
60730302,28071448,95123038
4277456,67666601,76242779
46727441,47725862,65415071
18144342,84331281,16869402
9885611,65343262,97445868
71787420,81929602,70671387
68748221,29044986,18990225
28062998,80865362,83701119
40125840,2128587,88198087
89135931,23876758,47357606
19306708,77636317,10923053
25995342,79250440,84657582
40634400,70045197,54557078
88274036,27180099,11714866
53313307,21986507,459750
39588227,34008500,61146389
52944066,51570170,86671243
48637883,94380318,73665504
14010847,45244981,38585476
89607032,84929266,90471046
91065417,95291041,1485966
59948471,2677555,71577226
43358691,88496960,34335379
54166911,12584447,69605176
82358069,60981341,96272311
27469059,25725281,53072531
25660648,10641489,19174015
55233570,43504258,71662929
86062163,43652315,83886063
53755687,22543669,80095484
50815866,13823200,20602571
51021824,4437959,71286759
39195811,19702621,62158970
39651899,63147850,84278816
24159663,45880967,74376640
90326579,77800638,57192766
34946638,62942283,30289468
65214517,16903703,84718725
36621862,13589617,45781504
37782999,82606061,82227918
55298571,47081402,15061242
57811326,88394688,18374344
91550915,58622974,88503415
61198028,85319732,61165147
45862591,80586127,56935143
45406047,18465823,83686457
55579189,22976560,61140155
21155099,30672108,15370808
56070820,94703249,72562698
5590571,17842847,10463456
86623630,52114738,28955349
42677607,60469730,99863387
37474014,40547674,81022129
69883717,61004999,12760345
42511471,33301007,54647825
78401305,97029503,74089114
53186364,81724302,47687451
48063902,35306654,17085245
51664691,88746740,82119143
55873819,75641641,78534479
57081118,28234564,29866881
7506641,34896609,53343415
8008807,22643337,84601344
50416884,86923129,79079813
5363546,34634417,10337917
73339575,93309254,30734633
43582000,83383992,37785478
19399963,51072374,84997544
82226847,52319471,53092940
36865050,80788304,83144204
61102709,28448350,75314400
17426015,58724942,75384926
38225915,43210919,5658700
32713440,81749686,53963733
79143243,63009174,92212327
68809490,57353951,35022447
4314071,28607380,83701119
87115370,56451835,14547210
87601200,69601276,76500781
75636213,66727027,65366584
21739213,48055663,37612670
50647427,99471668,62805031
19544169,67326842,38799466
78460892,31265240,99541458
2325864,49556365,66299587
62997451,38426673,53462645
18933615,8514228,19608763
90511633,52166775,61146389
70028026,88277995,43804189
76267988,12699785,84179909
87732139,51649033,521061
86399875,38546675,73151858
48470464,58800217,77202794
36664635,22346219,3388267
60232666,11535941,11147482
64376628,25001148,4863208
83516180,37087486,79494474
21602080,70400207,73347691
73953387,66768945,39059603
21097205,54343892,48677827
12210144,94683763,42864537
76910143,8697466,11683709
76479789,62053192,26108554
69623228,76812583,40476114
50497279,4748207,15240047
27215076,99778503,71713820
32173032,82794298,62804453
19458715,35603274,96303916
70614375,51091019,2415148
97733060,12399713,76070985
63960694,75882432,92107880
41392645,12844639,46360592
41138449,71533277,28717068
63659642,54783108,19414563
5864786,52667151,70216807
40714960,89180329,3455826
90774302,62310417,22870910
50089905,49479970,17943998
81851241,42456711,52805965
35071291,46638666,53087844
90927120,68711186,88656691
77228646,71976441,50077063
97153519,70950707,35819674
11785325,9611821,18285355
80012354,50549569,52804197
21581808,67352278,21321402
63783158,88416714,33141399
39188366,31403156,79378803
92098703,73498837,95070982
30823918,10848790,84054065
45250685,16062387,71933553
26047793,52157095,90141442
10554602,96752592,66134947
25832555,26338263,4179477
40363195,57930600,6794378
3965409,9627852,59826813
2403316,90042385,56407278
86875391,85990085,12738589
50454947,62306552,82994737
53925566,43811359,92824060
53194366,35666431,9531092
79068741,2653691,56935143
69340823,41104917,53460739
72402444,4432790,50026197
49270582,44169253,13380126
19768687,70756463,73426246
33387649,18201377,57820255
7648115,8924568,42584000
77347842,53743751,18260160
41141350,53602027,42191067
29241038,42914391,17294323
40065548,6833603,66355514
4186620,12939453,62420878
73608633,68598705,97742506
62570557,99291448,20308532
67202858,48175261,21371843
57861061,12337535,78795542
22766244,64107034,16099772
570867,87177764,83518882
6976142,21346076,87915529
41517725,5175436,73022187
26099830,25169124,63958323
32740257,56638267,3521154
45228771,79534275,13380126
5187789,72336926,41903746
40568707,30826448,38987260
8094209,13974613,80972962
76486460,84473797,44073160
48750379,61005504,92370926
42666722,81939406,45308400
24594096,88502421,4481781
43505252,1256367,60104708
21713724,9753937,61455811
14766987,61103351,21263122
67233372,1415466,54487046
71120496,73651436,50900012
98806027,80786541,18719028
49039851,6547407,87882290
37188530,44496408,58729563
18976537,64926738,43463623
10274728,76286536,84979688
29868559,71336243,52261459
2389643,53472153,86001873
74705447,12046277,49959106
89894620,64996329,12134436
11020508,78841926,32448104
8904923,87986928,88535040
470422,25649886,31757123
31946560,92032155,62334524
68263051,43242032,82033056
83228807,74085362,87704094
3972543,78101062,57810059
11069145,76194951,61045859
9099032,30453771,57425
79243113,18221830,58927638
41007234,80673272,64740293
47550160,9790330,88085208
40816646,42943451,96390009
25405755,68366069,40214624
94051557,96198882,34778436
90341571,92370384,52139752
36359809,40785767,48600423
94645576,57552152,65121457
29739410,82830986,83448157
59616392,37406933,61993290
37337274,96592871,65052132
84962825,18095521,15153190
53305677,26059264,78554269
22860080,53448829,47738642
29344074,81552039,35852583
27919529,97707223,80882147
71461795,26464992,72858424
85834382,9531267,43307887
23813301,56486373,24017266
54874732,92329224,68296903
21060434,48098247,21321402
4342793,79732534,77501052
12323856,51339862,89297068
97103456,19312377,8302281
42099620,57513421,8456679
3237840,53956976,67703577
24144597,24122974,71461325
7984890,17002679,56305260
77884521,28868300,3960863
34910991,49578829,2560407
34617471,62404529,86795791
5999591,68701829,14794782
37700209,78719976,32414368
83003303,25631791,4281200
64637741,83129029,44529346
33534778,78822796,18541307
46040508,30392899,24574186
78988923,16087070,40494781
45980574,72713571,3332107
14797698,54332099,72765689
30192661,41030906,17085245
81780325,93613012,22150191
94625637,82529462,81500625
33880705,93993609,51083269
89095714,87295616,64786159
45165055,92011391,59400742
24751804,14262623,88051381
64495081,36995833,7754877
99734207,20120868,5000974
26529116,85407440,96513527
60084023,28611836,1973114
10650278,16945496,91948729
49325361,10338077,21647338
23851030,16326637,98940368
94665517,6990451,19332543
94995905,96893152,57245309
84884379,78261596,84859531
53494450,43092781,54647825
47669912,96478727,87236669
85139233,58675537,11683709
49688459,33044007,51071848
78625258,62168371,5312080
24118135,51453255,22523738
49278966,59310962,35657245
43245161,99495836,57425
61791346,67500522,87572957
48622719,63179465,53525859
49344533,16862590,92824060
69062884,54332329,11683709
48055776,58170976,68113790
18236223,96583134,98473792
17413436,13654148,73344088
65035554,72594432,38585476
75370746,30144779,71568808
12467861,53576326,68149717
89665422,21364354,65182047
67194280,76500278,85986541
26182437,44978877,57664586
91695682,65743861,58753445
94230803,68068175,82004114
23127650,13345079,52349792
25235466,26156064,50064077
33775094,39641031,56739342
4930053,16460505,87519930
49231077,72849452,80783403
12452111,41630140,28008777
37576922,9839379,57398164
87446207,44426432,84074065
26944697,21953581,32686490
28867448,73195396,41414923
6053539,69530620,6727288
52224658,57569184,45471835
23933125,19105969,11426948
85106335,90513329,87236669
34175420,74812395,98705048
29380781,86179159,9836385
94088454,23667446,42414238
75296848,42589916,55302166
38344908,98284442,92965391
5463125,3960747,7402778
38396087,68418047,50038258
16640562,97695167,2460243
26688251,96120982,2617152
40789233,40786219,7815174
32580495,82252287,74098336
36743086,67528582,15938616
8190532,9089423,19476423
79152320,31040156,78320609
77351584,52859789,69937068
69787892,84722396,79724904
66477416,7762265,44384229
35656228,33323076,64412376
61993834,70025487,59498706
78509187,81767714,2620054
87706685,39529956,37880724
19942587,65707938,67295971
14336913,17841702,93188314
21429480,7981091,12303797
47909823,15433018,17402335
381064,43539376,32658888
5397568,83364301,7550795
47796108,48362962,64589285
90445404,70186637,33133025
88977620,40886451,79498566
49487288,22451899,61169497
56080681,13842657,19557741
62498202,67395198,11720065
36491683,49375612,32448104
91545433,56912917,1503172
37027532,55525723,63750887
40383916,33399358,23535231
65342819,25391251,28381717
42680263,46203958,8456679
19543785,46511305,87868145
17996728,10918771,46238346
81224628,55853128,5086186
87778371,77807709,81393006
74981905,98431075,13570923
59745037,75841903,60023556
54417006,1514042,14724883
87132588,74964217,46650096
38439141,24065585,41974557
50297764,99008600,85651999
58671801,24163201,95241082
66624965,76715002,14303735
49908306,260539,65415071
32018973,90885597,53982837
36787509,42652392,25516758
97359573,23130244,24622561
65391858,25324877,90028475
25441984,54136131,21634237
43825845,58387360,45234341
68943565,26396635,14981391
41556641,23133882,38917909
8602243,76433260,76068304
52131964,73452761,70530497
19571857,36349055,44406945
48689984,73742206,95248329
15166903,73747533,93313478
8201232,26878475,92370337
40438292,46928900,55944512
46034630,57247164,54767664
62778781,59217589,7216223
95219772,93991099,10257151
11119606,11651391,82012309
35558873,14804657,69613540
61727739,3014523,28684224
27592999,42549327,22405563
96168459,28555029,80095911
11016640,22792170,88547168
1046143,38618763,50988556
90539701,83695868,68623022
26612608,86410902,47289346
4153271,8111139,83360981
19436349,48262658,34749764
93696541,8646090,70278028
71652371,40201134,79850155
81979371,75885661,53944582
29758052,15939318,61787956
1582543,85144023,43736334
508668,23509982,7151852
38486875,94959909,18306233
11907791,92509844,51980439
51651458,51229591,50440750
38424677,88771262,1245674
69074715,73569091,62864207
67762267,39988365,65769630
27731828,63049225,9265490
41685124,25811857,5949127
99245828,18395405,10598147
49441371,61918604,66293006
24511767,34826322,16888954
41216348,1607710,13570923
57343502,35228551,93507403
32246658,86832066,28069008
32142767,96368390,35552892
58091043,24196421,92072049
71234786,21468108,84346768
48567595,77641866,54041251
16996306,14174350,73743379
13816481,16274112,63653017
73987244,99287442,58911871
20867058,59288327,52353876
82031696,21616721,83129734
20224865,84405838,88818506
70458930,35981192,85075138
86198058,23271522,52281805
71715735,5155847,13357533
21038475,68510703,93313478
41667843,27532902,62972275
14042447,65876590,75049951
42324614,77211826,78554269
43663227,42374577,86003452
56486104,37192522,95738787
19958798,13680150,61787956
54397929,12720666,92107880
30006130,99085254,86919994
22608562,69688650,5607297
99798744,58543468,42804714
58871656,56731072,57810059
89042507,92186159,47654561
59177425,62658140,68733174
40435537,91090003,56101756
53172104,29688233,37461424
51763552,94695468,87358191
4324209,65287756,79678424
8744099,32137734,72995832
59587393,76438715,86980862
53160758,57552729,4739839
51940997,80672299,92310602
19289960,4713773,52348098
72951585,2924564,78078391
80768903,9654764,84801856
38585159,12722715,21915
23300800,50836804,11669763
81889179,85745131,46219960
39034274,75897403,99429577
39854111,43719308,5011736
18157226,26669549,9300217
14747644,27711914,10413743
31108558,49876149,28955349
14651691,17669760,62763510
25357174,87479431,15605549
2128518,6826775,47707778
14799227,20321220,16072212
24304175,85803353,99705182
39366221,86473374,65007276
14047254,57488524,1503172
19918804,38168100,22859642
79684403,60893539,69584801
39128208,83502570,72875205
29742067,79258688,27545439
6628716,83915470,55153375
72477418,16410152,42653260
56931628,39920949,28640353
44950143,49155190,91346547
20146262,20268511,15998170
71814684,55031648,95912375
78966790,9150869,66293006
83761992,48656,55013260
44332656,66720241,70415063
26467896,55583655,15312163
78013033,83246459,60593983
50978571,69347828,54150615
67240067,20534721,50937922
99244981,26515655,65676202
43157669,58035532,81586908
2289746,16389792,17309240
65606237,33501704,29438025
38574505,60293163,47345995
88795653,961592,55624413
45603931,48014270,62558208
52305175,15787140,83518882
19423760,66002399,4622111
7182318,27220822,19199582
23963993,75769187,44375082
28834508,54952209,70278028
28988461,90474221,74639939
54506573,90228882,7607856
98464831,95170931,79921590
53968402,13223193,58164799
23409912,54774231,78795542
91954667,75156520,95738787
50670165,93943827,79515271
65534327,54890985,34499072
57328793,50198775,25933303
11020861,65401282,32403779
41921364,18846658,5600029
33138975,26886831,93208722
46177707,15470863,43288660
98241038,13299717,83319120
80027797,91212318,60477892
7607904,10839661,68998806
70932105,38650378,71993250
7352724,9833673,50064077
12369422,26837728,91028163
28420479,90176445,82083138
56049158,40225002,22646
50447330,51413576,33133025
78728177,19208721,5829732
89036871,68924308,58299240
30273831,20569419,3388267
90557345,58992454,11563209
20753155,79536202,68507810
70947311,87540512,57425
96903176,48712147,67471122
41004739,63984561,25516758
87136569,99192754,56648424
36600982,20040181,50068343
30019980,27634162,4484333
54377775,91290636,22652220
2468153,16312679,3677397
19493259,5663346,68300657
24801479,49363854,5998452
57314133,30716463,70237588
45766307,82485512,12912215
8874107,23497330,7691344
93336538,89781409,5405551
50424784,88191995,38289921
9578864,29979039,14303735
65180665,41127042,51465862
88884835,68426697,34574357
54496280,2702650,15019116
76191690,4607862,7691344
87941085,26501608,47055884
96232029,15846869,91150424
51162735,84983418,30591458
57267499,35541927,69168071
34837232,37749956,21286429
51314359,37309748,52921908
10666189,37892151,79135021
44912814,38103122,32562033
31777250,94167471,45063995
10112572,60999973,33729179
39751961,3990179,25240721
85925130,97076459,76420998
93070243,3593680,46926092
54169556,96710398,61756595
58764291,37530173,64599137
31714465,22788008,5091181
33137746,28506673,67839453
49102020,70571400,91028163
76806709,48683905,65603781
26831438,74833231,41541286
29625567,75816645,86043236
74988330,85380322,49023258
54965847,72194751,11172070
6001853,67163041,72359787
29029349,8793188,2523923
63737011,35813351,32833819
77421499,97762778,76228151
8411742,7108905,65734444
89361243,42995558,1503172
55902786,40738069,45336786
15074607,22035650,37174156
90008474,51716267,51155387
31968829,41513917,73665504
79562772,89621014,20046712
66848866,37701504,19194691
17303127,36946730,32459039
16857936,89632728,23298663
55946294,94505250,4617193
57555379,47602998,63384578
56464701,75634169,91385431
71504738,97613822,70346519
891091,31564904,10682304
20994000,18146594,28336052
25642227,72532516,20613657
19525159,62277283,41932863
30259459,40334196,79515271
70921278,38841690,11578022
86063945,41140091,38028740
11555627,72526126,13667876
16519500,89362898,2725792
56151381,83491514,7186960
65503687,44694209,36198736
20344473,31198657,28640353
23730608,22059664,51347927
3511481,60080883,31894537
77176004,37889193,10979869
52988360,81772478,28312875
22241276,59136706,61937537
78486102,18164322,58558826
55059471,62063995,28931939
62035892,59051016,50946884
85224021,63987463,52369032
66970382,63129421,71924460
9550054,93413290,17867785
75724788,8612159,74242520
57763842,13454766,15226470
29662342,23898962,46751914
16574724,33947243,49035749
37643271,96376064,44664455
18250354,6929443,84068162
93236095,2750469,58420390
33990811,52449000,91028163
78602542,35264686,53095241
96925513,44974842,667734
24262047,21739727,83223765
89392877,10770776,30174678
10031943,14303533,4766633
64567030,97730595,36727495
53859535,20190652,71934371
30357130,67147586,28432482
2192398,98085138,92454618
60031863,6794356,35399532
6664275,92729490,44950307
74422030,51305259,33324021
56869872,88425896,95739879
44453955,86254264,90256268
20958841,30057188,67880148
28424901,4777310,54562981
6449237,59000986,32943879
83438976,64083647,17408215
26412590,99127648,46872681
55575940,1791943,70995973
25210394,74889960,87573772
44968662,56971544,13452673
3452587,24446168,78973031
10307356,82136689,71053946
12671569,84861755,38368053
54624625,25442278,99348064
77677198,87404356,50656856
41261444,87756953,4730382
59529450,69604893,92951119
66558208,52547759,12570817
14911352,90498883,44833117
86906330,42104300,97747927
7822180,76553424,46064575
68466446,38729572,831773
8460739,68599558,28931939
66805932,31558124,17085865
14270017,26750538,73182513
58424002,71511679,21875773
72634369,39987919,66134947
24801460,11033155,21263122
62758119,30721924,69412287
92566428,53728745,99402484
82932717,45146215,13568845
63257271,51548723,8736292
74314175,64750603,43375501
99992117,74710482,74817270
55537135,74572863,50064077
70971003,18324639,9041891
84928827,96082137,40531703
7599093,80902975,90535022
45330530,99613788,19199582
26837812,14184799,78162995
60579746,27003176,6081805
14902239,41367841,17298705
77654270,42653755,45063995
44742735,76642427,72372475
56885447,54735912,92884220
21774058,1066665,13830135
97925344,53463283,40857672
96094200,50652660,69671600
71890605,94609042,58603279
56631773,88138569,3388267
28849315,49205341,31016913
95292603,10937685,38134764
7809751,45994499,57098160
79141216,43392789,61988013
47830969,79198255,30758345
71673440,45918439,96940684
8968538,18116198,74492659
47735095,16354274,65569719
5031264,26618043,4077669
64105649,36735371,44595083
17236631,33775366,46909780
50656562,1683658,57166917
65646407,56548596,23229138
98373197,7444329,69937068
45848978,74540879,43985149
70634346,9641262,1239903
78332072,77437690,26880509
86748378,47626332,44343002
93064310,98789953,74745588
13128143,38407298,31746145
3870393,10097602,29486087
91855533,24454583,67194910
30753560,76709207,46568856
5539938,710596,34455876
41927102,23275072,36999174
74266676,56383616,71680989
43630218,68531565,95786779
24555095,89176091,34084429
73293243,54272937,45965744
39501670,58410454,77913284
59394015,90943647,1176987
16152347,64844847,7583458
2886798,82336033,95547034
16911232,61997184,19970881
13142343,83950274,76070113
26938685,71436130,34915729
80620120,17907106,18838741
3294841,19619466,4422979
47344391,82672504,25069271
65577230,59813815,70415063
74147313,10935455,93573172
39231620,89635813,43513926
83980232,26600121,34861402
53077265,74695139,10700091
77367796,3223129,91385431
24774843,87117668,43729533
19875078,58661741,23445147
21811873,7176063,44087775
66990184,82506630,92068527
83525281,25228373,79190658
82072168,9775797,63704433
19466089,32523548,97970715
77928982,14735500,5482822
14787129,79820010,83959978
36549716,22842075,81716175
11590444,40765470,83144204
91375165,1856063,19093013
89638643,15790674,97430859
17988695,87576910,50268370
6337950,51040997,36213026
44151951,56043733,10463456
49888875,29184521,85364108
43542485,23807042,68323641
19285225,68258606,79537310
976345,92781440,63670918
3698314,81135873,667734
39233991,42886145,10450586
51295022,35079045,64655810
17501377,63584943,32116532
1716367,50505535,68652115
63312692,66273046,40334095
49925412,36103316,27475454
20893605,85282648,33133025
66088475,91791898,83427692
55015001,58861085,97466043
87431751,38845763,12612556
10917066,72063518,72945506
52815472,25087158,81625043
96066345,94272382,76669717
59334925,27006590,72401160
54175102,50519631,35038213
90540937,37888572,38487143
30041975,11704130,63191703
39265327,9924192,33262229
80310010,61765908,56475363
54431977,23302257,90864029
91231356,47726801,91385431
88677886,73271854,2601041
78067318,4265161,69864080
74692135,48807253,61416634
72578538,52730142,67752822
13519653,91045820,96480656
61142610,56103610,49860235
30521356,13899086,5667028
14502868,92951591,88905971
95004657,73929021,26828714
24971357,27453523,64771937
64658870,77288845,15194034
49707405,74792224,3923644
34383811,57642668,95123038
90226120,51124922,55753502
60431422,3205074,75147225
50895382,61759132,41385612
29374787,21032307,74557022
35016777,62402545,36064773
73553558,69706938,6221788
64227556,60833010,64716253
973823,19275840,79848266
92586148,75510914,92555162
60648724,38790202,50424412
92820169,82848589,68093287
37758700,50446052,98016290
23791337,34524910,35781692
46719138,33588256,15949518
81897240,94070638,11367601
38137374,12154342,32448104
830858,21911801,77572318
55832564,66440725,63676248
57057191,20224437,54041251
41662792,43865451,77202794
9690783,77505025,29753337
61561913,72086994,98467299
77522088,68995652,24011966
24651931,96064849,85486419
46092779,7844402,69916587
41208411,19432603,4481781
16516745,13700052,6731836
52107438,34463392,68821174
28792056,90932297,98342874
84591078,56621791,91406019
10707219,37251999,15043743
98911515,31220319,54487046
61252046,1712108,53393372
29972220,74459852,17943998
10360839,4916845,17957645
46913689,7291598,78554269
98603571,9948741,63172165
56334185,85871503,86654365
51324886,16336147,34592702
72606396,9734577,70393606
68144428,40798701,48019850
86049570,17793795,15324241
76018610,2645002,42951101
46810140,39829087,98352560
27382672,31269035,93131840
62982108,62622542,89623
57098416,83988748,79494474
60339346,81634266,54710991
69215435,96516575,15487701
37583927,88784983,2418625
15570355,40147602,8839682
67275148,95884884,79515271
34998757,62223407,58292318
59273429,52694439,63553814
17706225,34582278,58164799
62686216,18315941,50026197
28984737,36047150,2415148
57114869,37796907,75228288
22625079,31223493,34242233
27574497,57776594,64589285
23773116,4335756,45781504
61786719,60302731,66617414
62331692,9786703,23321712
73780671,79246404,89230442
5035703,36934117,41521605
84185014,19189713,26939986
28738825,9091858,56101756
18616337,75908293,49577462
61263759,66326446,59563045
14446886,83293950,52974494
70691316,27352982,48520575
34402186,23179923,91736990
94439905,771215,35819674
72678209,50143678,81049986
49597617,84141568,6412945
91698805,59069764,71454862
43724304,62606197,30591458
24570491,60129317,53087844
57371104,82658088,20771368
88253334,21091630,68226812
46694972,58675769,87051783
92204412,52329606,42858573
62284906,21898999,9557892
75509363,53206863,40071032
87441789,10978733,52740207
7065627,26902910,43736334
26476505,57903884,10923053
18843534,36307714,96060903
92119177,37509063,44528976
26933881,40885276,57425
92395332,51596025,83436929
75560011,64294477,19613843
17899985,99969004,38987260
35702067,55877128,25267490
77799000,6209422,11889760
32327038,93183152,53587964
77438370,80531733,28929902
67211119,33991362,1172146
95448696,86298716,70393606
51091174,50318758,72869917
97517590,38470439,79494474
9995725,79074516,38585476
42410031,75453767,131062
41750487,29125313,35042351
6899436,30930718,36469081
61230882,35362471,91948729
61166663,78217831,51492640
96090109,71460236,95155240
88524907,9341866,72811973
92600855,42729053,66566853
3980496,28739908,40677549
89511889,86433871,5818408
39357310,72018336,98930324
16426153,95752471,24196714
32723769,98137750,42045389
85212777,24268539,18193802
72559862,1565679,69214017
53065577,49704392,51651520
47861437,5332215,90089876
18388825,98977611,48509804
14114688,70647025,36530424
40038944,89717115,35399532
50271616,12352678,97949930
91308997,19036141,32399827
97972060,88502597,44521971
67874444,5435439,22863599
74862012,92970754,34379357
25330717,39871004,86858057
52256765,64978894,95313700
83632990,15688734,53352847
23311357,34208788,34121813
64038158,55057490,1514280
90555078,12596090,47049403
1327353,68071134,37896696
4852698,14760116,52784739
87817392,25469653,97172564
21053562,23028265,71697498
32363083,84534711,5842988
25754459,6993905,46088498
59526721,21150569,85237871
58347309,92924880,14519978
26312435,38208737,8729932
89629359,26158202,30762264
99264677,69907854,40568551
309628,538891,45184088
87213563,60371718,54671263
2170689,2505401,33313017
93980723,59338234,15801423
31846621,72680926,23917264
44161770,11642027,16865724
92537460,81414118,65430414
41665498,93285666,70359504
99306516,24035932,51465862
62712505,21199308,53127816
5725121,27766045,32448104
81218562,19146419,82260912
76509016,78876988,28771776
15743279,54816130,7151852
57508875,35553721,74396002
26773336,39228163,50064077
55208093,48770189,23471944
50690563,13773575,51065394
63503831,75466467,42156678
91079940,84196750,43607398
28946275,11940736,32894585
35112700,4680439,16826925
84536293,41825896,66717127
76253069,65052427,38864940
23940474,21927520,91175367
6065550,50000372,3943902
13883420,74908103,13435690
41689404,75527376,65309568
70817724,99581732,87915529
33790487,42067119,88905971
22429288,41301208,17957645
90314924,44954417,1779239
50597089,2853081,60458632
35487744,3836390,10485819
25367991,61456723,58420390
8003035,65502227,93892351
51573987,47373765,53944582
34166742,34684104,70098357
38740173,4510376,10338718
65432757,40857171,88547168
14321847,23425962,20094872
13798316,53862001,36729128
7212077,41472652,86739116
28129942,52293778,81163563
2852166,37069988,33620608
88469540,20265688,3766719
31466551,31213960,45775264
64813962,64320368,65387122
34689166,30940507,10463456
28265449,77483171,28086720
99598173,20451880,33657108
84396531,29359158,70214457
17497634,9761091,19332543
68364430,40983126,26247576
88982310,16372778,22604424
2537174,25053268,62184433
48452720,50860755,40808208
57596709,88802400,88818506
8711623,51025501,91028163
93183041,7471302,12504056
25335405,86517758,47638592
17862682,8149049,51415975
35480927,95009619,40838632
84839928,29371066,38042855
82768424,14442802,48345098
178952,96371506,75796430
39758193,99941150,74319535
47059990,34882496,69584801
61783463,51275786,1733148
38332160,88028623,85741536
10145405,18164652,96424364
7583571,30613596,82495644
57736530,14660559,78073257
13197713,72598149,72273993
6825429,99204999,47049403
59227066,22780621,5600029
59851233,7578618,94045433
8229598,51236080,17372762
85942811,74680937,41583039
64941256,99729512,64756035
70934408,11621956,15271363
43241906,99861926,70600357
60889589,9888029,9790668
11771364,2917150,84657582
70709727,10841398,93318799
43576995,91062780,65571098
54196000,33569295,68140964
51189837,58715392,5588447
90217114,98289095,90221495
36805391,73819314,55753502
17892423,57759165,61117660
15027548,51831316,1503172
58709482,44268536,23100061
65386540,41520390,38390049
44346937,76288645,62805964
57374143,9909625,90658197
33896360,67315424,10700919
55728449,89097523,95001907
5211219,97510926,13380126
88110833,12558083,70418859
72689590,20220754,85602591
92597322,34420857,24583591
67210136,36633121,15271363
84267577,56421963,82597332
43975725,33192371,26018056
11844877,80846558,38585476
23657783,56612525,63923721
39051245,71771899,13432652
24101647,13020845,53287406
19138842,15896075,12705409
46630144,79271935,14034297
8269717,4516378,92872542
38702665,69204472,33324021
32054734,21698025,52921908
2535592,60615315,28532557
44621329,27809405,43729533
46269478,53848093,61030033
38684108,8618839,97337648
27995317,64675417,72945506
43853769,48155167,83599965
15723853,78642863,88510903
34652025,26005407,30689633
76761724,24979060,14806732
67708607,11743980,22927185
31907907,25444146,24622561
13636294,50169622,88015743
97759661,7938956,65586673
71876172,92804499,76639611
76692320,30346193,24218904
62988612,30675394,52069373
95965684,62989931,89261946
45594178,96064857,3677397
60799474,64055249,95912375
97839106,93065599,31842757
8051732,4652712,90327141
6836769,89606081,56634788
53502101,94729108,78959204
10163000,41755553,37199985
53961112,60061334,12110082
61142234,67488381,36608570
80481356,66483448,50440750
13638697,11217044,913365
9149137,99830930,40794335
87821743,32883663,83518882
27739824,29118450,65121457
34943945,20073657,42928956
45808440,73827185,7151852
31394270,11414399,49050772
32333926,75079779,18797627
49637115,10422788,53556421
56614907,44958384,34613258
34935458,96025399,32247275
98144001,15675208,83436929
35423771,70017954,84637342
94416964,70155370,62371861
73625162,35580535,66670863
30889974,88092969,94518035
28378496,40905863,36156838
23370327,98740250,7190307
86886355,77729639,9502193
6301806,38336992,98539292
47108468,7414297,23573018
23913070,71318594,30411595
45861063,98006084,3603062
75542713,24073975,14068046
51879831,77141740,65226817
82867917,6347352,62184433
4889794,84263944,61888290
23173068,92466849,96424364
94462751,59015515,53502197
7988642,79859313,56117575
82789132,62337325,57810059
52063597,95543786,62558208
97468882,39730413,22206424
47738052,86028910,81251851
72369116,57715186,80426911
34030446,92489367,82921993
40256354,63270433,65121457
91246746,24946832,61016304
63461935,7537376,63343101
56318154,98284687,65676202
34630443,75566738,66403023
68021790,79839694,38585476
99653840,63268139,13071025
78168289,45206566,81478918
12839994,46640812,28955267
15924845,15582569,5006200
74294291,96609843,13827726
35147442,69380109,30868740
62566328,64522586,92261302
85864150,44793064,65226817
2566157,21675848,62702661
39019861,734039,55367467
78828871,74150923,80897339
11249144,58193590,40435766
11898620,81231627,87906976
31605144,99605602,52792121
1691039,45161019,35413332
17592279,27854677,5011736
99044317,22577207,21263122
5537885,88455538,76412711
84189625,47924556,5011736
30485356,16541775,21170450
63240361,65114761,22368833
88160367,11667166,14068866
37445572,77512132,76580223
67936693,5031776,99498905
16755706,98136435,98105969
34314686,7888866,15153924
65712142,5339033,25675477
46280485,46025052,76781197
32536676,41538548,26416184
44287364,95560532,53181207
71171445,61497301,13087603
80735570,82702743,32693782
29188484,59919554,31474100
17845745,68277782,21286429
64192410,58243686,90282877
72727198,7288863,94840897
9277593,54906823,39909125
71783899,95217885,50830122
36660229,16226988,53883324
35949281,45118041,68655640
37957549,68470068,8999445
27951629,15094995,86919994
56971034,43707787,94490835
9250667,19732210,15949584
62844220,22873242,888571
63418679,85587132,61664916
54920356,78167305,75453128
92400386,59938196,84307129
23695839,7137930,18144080
22961334,39282556,12738589
40398243,36651298,68623022
86098043,55876959,61633480
90481988,51431926,92222595
14414654,80960387,32459039
84831524,93852865,83223765
1855511,66733839,92261302
90534957,70767116,42156678
82054268,92737525,68925748
89394719,97487793,44950307
41587215,69693226,24594844
4247774,53475659,25800564
14770893,13101414,63509928
48801440,58259842,33330706
80801382,72382554,16865724
33146784,23418471,77974022
29659739,74909017,71801321
33361060,83892699,55753502
40222420,48579522,39909125
44007055,27854494,73690321
71190671,98497810,53982837
26977857,41626448,61453652
22165923,10398001,80095911
7250413,63892842,82951192
2560773,67387467,25332839
5226392,44457259,98697912
82211789,55586495,24475678
7045091,12814554,70466089
47673722,46536353,57834087
56321364,13671794,34075526
54666573,51167953,51818334
56573153,81655182,9435321
37906088,4594931,27704055
44100001,51217619,11683709
39484374,68065282,11397789
15236935,49185083,16434557
81140884,20309831,50244627
10475765,92528213,35641506
97450876,75278082,13435690
93072047,73348003,9246474
49613133,68963035,91152684
67937960,72231583,25705215
94566047,77264608,42671909
27949110,44916924,2828169
1034735,32720503,57166917
60937017,20508429,30389447
31832331,65742795,57403761
28341449,90587994,35468872
10554822,94732583,43624709
90988256,72978622,90123124
47923650,28771539,9706345
21886399,72668044,624148
21992179,57673979,8578140
49553460,65728847,13812627
50408533,41850051,55013260
51555872,99992212,69178091
44408915,8606187,5522189
81404219,94713835,84237473
33443835,34251069,34115228
92095379,45609113,28330538
24936328,68167311,14363896
60746823,3879837,2533628
42318077,38505394,53593567
35370607,84731008,33931557
5729695,60894492,28591951
71710950,21739089,41492187
36727704,7189916,52349792
85814061,21344707,84068681
99552737,5923123,50077063
75228759,4875887,15992312
60521891,11428983,56511762
31430654,7741215,7932497
74374361,96074759,31629818
87150877,14074678,95827555
25374108,87873614,86430263
75648443,29019597,47296803
98815220,59761926,9942237
33521668,46770939,81978809
66702317,20460605,44395399
85044021,21543088,42893406
94860093,17505031,96123578
24787031,4410484,77713335
705283,60860969,47378293
66564915,90277107,80468566
30459743,23373801,88781226
80018750,48440996,99225583
90595907,70391536,30285371
42218556,66845472,28717068
65687610,88010633,47593244
58897585,89760074,4422979
97293875,45539438,24011966
14838674,20760639,22014606
407762,8665685,55800915
81638834,13170202,48084223
29239533,40324616,88547168
20016539,67744093,2541978
76000947,41697684,94453251
29487180,51421028,28448137
77379490,69675,79515271
26284639,29418421,57166917
35188831,48794788,16367569
4632169,75947582,12738589
24105983,70913364,62805031
71916319,71319208,11669763
96671970,51113417,35819674
17664923,827516,68930795
35554279,21022150,23808648
51933461,22922759,58973927
14257955,61842934,77089842
85013306,5882307,86506799
94122768,72635834,63736074
79850893,26325974,22630084
5064038,77493246,28931939
99951042,4027372,47638592
82640923,67393308,49587593
99024846,61508224,28931939
84185166,2390394,91812587
68500727,91088713,3388267
24485334,71466719,86115344
6332590,53076440,667734
52724311,56482228,33324021
82308950,78073083,97928198
87192417,79157365,36867597
79300331,91156380,63736074
56200575,23230373,82471665
92613533,96817765,26880509
79394029,11703842,20601558
76259893,18494058,33413309
27089848,94091369,831773
60773800,96597993,95123038
77455009,44065282,87572957
38085635,95303423,64771937
31680142,16668643,7686782
59649779,38135070,55381893
88462290,71889406,17632705
36624867,54916623,69732302
21331520,29839380,57810059
38584327,57255505,10923053
38687656,66868086,30762264
85240546,91451236,21634237
50105210,78003351,50440750
12065233,17639927,62805031
91917393,55308130,52161554
28411826,41928400,55942897
70721017,10018594,29627628
85871928,98014147,15271363
17678011,85044922,70515139
19301898,56459922,50656856
45719902,39871406,84074065
99559037,41735823,85740401
440601,41901555,99892726
91209310,80203234,85422601
19002244,63688720,41235343
90650632,57917422,40214624
57163147,36255170,40035255
78070838,30010050,12297621
37385418,27919275,23275867
18453611,33223198,54647825
99368938,9752340,25800564
52682542,56764184,79187329
6044632,21677340,25267490
78628734,12048186,61567764
96733695,80292160,1622207
91837443,7998761,70554686
99560771,68652767,50853398
11823695,69206650,40374014
36647659,3105930,26951550
5900122,76189625,32485426
39038053,40160621,71745939
23735160,85393079,84286317
17956156,56525033,35178855
9826995,10372669,71849828
73332023,60434268,79419071
6149847,46990718,66443081
5534011,15793566,74889276
1327898,58385977,34005643
4742496,16398735,63280535
18095565,47438502,15933046
99880200,16759274,72449379
84543561,25380622,30012684
89564779,6654815,53762721
7511530,51666985,31935133
9043045,75276967,23607723
44383793,21587902,40441747
32413969,10714001,13981674
73377051,4671256,66670863
288874,94318050,83436929
32942456,33379886,96314762
29306783,91128730,97007718
29587028,68709793,11834435
46180151,19867648,86957810
87081945,71733901,22150191
59547475,2403885,49233035
70347613,65482035,39117554
84605042,18313748,39890211
98231617,11897810,62518106
5516063,50283258,18403531
18899464,21032256,34894838
99888278,66900168,48019850
84123344,46632153,60849814
42031593,32873386,38904540
77023222,51339345,6913459
30370272,12280473,83959978
78851948,99701186,76423134
65625762,95850118,324952
27457472,28670387,4617193
38750722,23702937,26984276
31115333,96393881,41182579
70096693,46330705,69357920
98954786,82257875,56777444
7618344,91709163,28717068
36124826,34530340,51224864
15770338,94893647,76521271
44637784,63892840,19199582
37365416,67184682,10876930
96543267,2907005,54487046
42854469,94884976,49274289
10920050,87055598,70197479
9172084,73577650,72273993
48452372,92207521,71454862
12786100,64505522,76548104
1765024,26109413,41491794
91764637,92277181,99429577
83728448,38957763,81389624
65114862,40606349,91948729
44887665,67873200,46992925
48778641,70327495,13401276
79974761,75271479,5287514
22068488,52429356,68925748
62284990,83499975,91385431
97497224,99575545,71309123
21249871,92723993,22440068
81881007,67038018,90123124
14986,80313880,5760885
76844247,44053380,5911679
66841968,10141173,47124253
39787595,33887422,32323736
70035783,40342458,63252243
86260956,35041224,7846920
16006268,81867495,53352847
81353540,70821002,71619695
81690384,55430911,46591516
5652050,9102656,96758906
90766587,81693231,95912375
53893304,62461564,871939
49615236,50810309,68821174
93603110,36853759,69208094
60764827,25203816,62334524
39287542,50405405,30314339
95296243,13233695,88184070
25933666,54230834,35477271
68220267,4330955,41928048
46182017,4048742,41761812
29011303,97094932,45648652
56533741,54384473,26776352
56996684,14602488,49598133
54792013,38826672,88651969
14831249,19717192,83221391
3181359,38527022,21647338
28244900,6526794,35585730
43155853,74633563,2593722
62970939,700518,85351265
64100865,7270906,98606489
97475421,48317426,51118367
72379883,44784683,58861649
19436950,12282399,84637342
18489594,1778515,97925399
78210187,12646244,94453522
19438404,88041108,38289921
36965151,72229680,99429577
29954675,30100756,70706378
69789913,98329671,72372475
18336874,35858444,83701119
86548469,63052057,42156678
40745894,5003610,57425
34964164,84115672,92252058
50521925,44268679,28931939
40309170,34008720,99744611
8964594,44907282,28717068
5876800,21090365,99348064
72529562,148870,64496376
60282274,36371664,24054333
66354510,50960098,36395273
1205968,60750096,29442643
58122208,60198927,84068681
16934617,91614928,37011284
37510268,10419023,40693905
44782001,85223677,78351520
30578949,70869630,39725811
76809359,27188496,62636587
97379184,53896967,3665011
69359065,75568029,56944301
38530005,12717270,64269396
69208236,30660355,11714866
30299310,80754434,12990794
13808283,35450697,19145244
52380707,64372963,28717068
77017184,54879517,667734
1999382,63096285,38202437
