id,src,trg
95370991,39871004,24339970
66806307,8606187,46770328
26467868,57037822,49061102
62811534,14184799,21915257
93173072,23394108,12609983
16508990,28071448,81259012
43605240,24065585,35685240
4173122,5031776,78500588
30028157,13101414,44156947
49021475,96064857,59115784
27264592,37203866,5386471
50240905,24454583,98486751
92063733,12829035,60325038
73981372,40785767,12704575
94656416,15896075,29187103
37093888,97695167,8976789
74068690,89140688,90202222
1589864,14303533,6550394
8400069,76642427,56705879
65146934,31551219,56560575
36876250,53848093,84224536
28937896,31269035,19744819
99715576,85287137,5746749
50442556,48794788,94447706
23785408,90362966,41220801
87463946,60129317,1428378
34639161,92951591,33129571
66033409,2784206,74366667
44018614,70950707,41931996
29411599,24879491,44953644
84775633,1712108,6784916
80466211,12596090,60319077
9844356,13170202,77176664
50108396,74984903,17536412
20657034,14760116,88849395
70895852,99163983,33633920
70075696,7176063,89276883
50031828,95812891,84356577
35525514,37377607,77949907
97741313,24446168,74666693
42928948,89979866,67371890
99711760,37129062,37740938
37271250,87117668,83272998
44105104,40765470,81982899
80356307,41467956,60319077
2518781,92489367,21525837
90137307,24073975,50628194
90666064,78997907,48303592
27002524,94380318,84354218
60923472,88502421,52234617
78061831,3245821,94173528
20636088,75466467,63192293
9106335,89911077,66713321
28135100,69907854,83315563
95248181,38643996,81265262
32199293,96597993,97606279
26989248,63158851,46086196
94403349,99613788,94854344
10825267,80673272,82695778
71189953,38135070,56299744
90824198,90513329,91981804
39716606,22577207,57929589
52358470,40325386,79890962
30040926,71808386,6828637
85135123,1256367,4885449
95555993,91583052,82004243
1938025,50143678,94340098
74491009,58369901,36010010
60518312,88746740,53219482
64148747,1930288,12209423
79178844,21616721,32505876
27649941,19708012,93334016
78786845,53880077,41329407
21836827,83543881,15790433
90134559,42653755,28960490
27388500,56612525,93791807
54265307,9734577,92664989
92801990,76992085,14149331
54702296,7748076,5612448
47249083,34049300,42301515
37737818,64372963,60252319
66243761,55525723,8218158
34554854,26385882,71170065
1178423,85626035,28887788
61166746,27766045,49493368
1625680,36651298,34640701
90306063,92207521,64088979
99772379,68565037,1203685
83234389,11744320,62381508
95023804,37069988,90595837
83513328,50810309,93682930
76619610,39965026,81794184
31529193,27450463,78096620
77180109,33301007,59104275
5765247,15470863,53750104
35579276,97510926,13086406
14324909,66624109,30624691
8837341,69675,18496226
62242097,12720666,20355497
9465933,44694209,93193252
55964026,1324938,4488580
81591936,40324616,71295281
94186214,48765152,64165290
12889080,97094932,9621567
30714201,74348889,44472392
66698129,77493246,21282543
14835420,42262378,93595068
90142759,56896684,6179417
16540126,54774231,65374204
84369254,3836390,23121558
2034072,10338077,44898898
73752159,63688720,83468370
15926708,82470622,22769985
64081448,92683007,57149075
86541047,11621956,89691840
8193519,69431293,16045151
70417617,18395405,99637878
16161161,32720503,38275582
65140562,92737525,10951977
63401543,91451236,7558126
30629469,52329606,29187103
6910201,31506828,45406512
87995129,26225449,64316774
4673302,77141740,12125534
47948957,84584975,15945091
97059712,20321220,26959164
3581987,11642027,14920995
76787140,96393881,49667396
91679014,86517758,74283945
54961671,46506354,78509442
32646576,21091630,62519062
75811518,6137783,63407353
97931694,62658140,42315581
4281502,37087486,62819347
11059241,69587578,11520535
25133804,91145258,43447954
61328889,34634417,64153095
22119273,72532516,36060417
97581905,64978894,90059331
13497023,81003429,63606726
20967364,260539,2530779
76363223,83892699,85790621
92084920,20569419,97283870
15304412,30613596,26097929
71009039,6990451,45804639
54436942,88425896,52040438
28655293,827516,3801645
57508421,70391536,15450611
86106816,34530340,61830190
13944918,26464992,41451027
62415963,22030736,71737713
18764184,70571400,31935355
1392731,53448829,63120316
56671601,56621791,81558263
55640611,58193590,220829
51588376,86028910,90954590
45026794,23179923,83294334
7174877,82506630,58945514
208755,57255505,22507265
62575676,17669760,34946893
54779285,2244699,98305055
43318526,31213960,38551442
98034471,14976179,94336714
68905133,57917422,68308799
18927427,71319208,43781723
37730459,26156064,94727207
86000988,66900168,47679738
7361623,23667446,37866148
11713650,58259842,17346712
87302448,81867495,13359828
31189103,6689800,67281463
48769203,73742206,75215089
39406896,3990179,57723193
3376375,21587902,8868039
44621212,915398,66552749
