id,src,trg
58143913,92027669,50464981
14872988,73857344,49758020
32480948,26868971,87969376
52502417,29335952,32087521
2269735,89243478,20723515
98161878,31607283,68766939
77188332,22481337,20117041
71400844,35375493,59942008
54331936,15970610,77661463
