id,src,trg
92779957,69587578,43513681
73099600,62255908,15236495
29154992,32597360,88783829
81958270,7888866,88492383
68043409,37069988,88492383
61604993,93991099,69246964
23433140,90738689,88492383
63706693,96579755,12850462
5200502,79201636,15236495
33554692,24446168,44611083
95579997,40956224,12850462
65012931,50366143,28679601
47140731,80892656,90370818
32812439,29915283,12481332
216660,78087222,24457898
12875637,93673303,47650468
65072224,12720666,45302654
83341358,54384473,16248319
47340166,41071568,94758004
7592568,69194253,94758004
41448869,87978535,1713327
41024346,86548593,45302654
29658365,79536202,78108656
72873990,6611019,88492383
69562613,81003429,28697031
21800906,77700624,15236495
82855907,48060107,45302654
73529638,52619205,47650468
9016291,39871004,22015841
6513143,51134438,94758004
97990002,55927403,45302654
86027215,99778503,88492383
52966221,76992085,73627472
88551824,37377607,28060967
52258712,27450463,92958976
57566568,17179384,12850462
66278625,47826974,88783829
37929356,11744320,2143246
14905618,78876988,28679601
37266408,1324938,56249085
29370895,53962579,78108656
89404700,37069988,34962849
75642391,7176063,32505898
38255867,38643996,80319224
42129898,28717063,1713327
41061121,32387585,78108656
40159480,98137750,88492383
46347348,7297363,88492383
32121880,51791640,1713327
87379215,21927520,12648846
26672904,6694756,96370803
27077974,7705461,28679601
26998439,55927403,88492383
18496125,98821211,49129060
38978239,24879491,98616298
99366326,63740223,57799130
14309530,50549569,88492383
2432016,69206650,88492383
32333760,64978894,88492383
82466748,827516,59003897
44776184,23849080,66754998
38065374,70950707,78108656
69135821,68623465,94758004
67371722,2701809,15236495
75229594,57435228,45302654
14702359,26225449,58704192
62176948,29915283,24328221
72212204,92234180,12850462
13446566,34926592,1713327
3280160,23849080,88492383
7598273,97510926,4324825
4070885,14086522,45302654
11137715,32720503,18545127
685245,37573560,12850462
21717596,50810309,88492383
24576452,40575050,96356079
57232686,81867495,47363493
8225861,61566124,88492383
31783151,5683502,45302654
83431649,91231490,1713327
93005229,12829035,57799130
59466823,37455077,45302654
17459142,37266313,63956856
57035995,56963837,88492383
36091392,7269268,15236495
91051142,49622297,12446286
8157312,51613698,45302654
84822288,99666278,68107783
87319759,63093375,71629177
81083596,51361665,88492383
15718452,92951591,5214141
48383543,44694209,57799130
93555895,26118229,75466436
17538378,46943628,90370818
67822284,35580535,78108656
75327011,16099075,1713327
74298196,26225449,29673321
87614648,63584943,12463656
35595805,27450463,88492383
64148296,78167305,94758004
15837408,30010050,117392
67494582,68463288,39798468
65066895,76642427,11171614
61349559,37455077,88492383
64316941,51867365,94758004
43062101,10134709,45302654
53917726,37892151,88492383
32019062,62404529,28679601
16680992,44421269,1713327
88312819,31633624,45302654
47023880,71976505,28390840
99696486,33146136,94758004
41228025,53862001,78108656
23561642,98497810,8877542
22444924,13773575,3556304
68507903,1364556,15236495
47985616,10134709,12850462
42687772,37907279,88492383
52613212,51305259,36038389
82578660,61566124,1713327
51482666,56896684,28679601
24017098,80237187,96356079
12904967,73154186,28679601
85682507,26118229,64464118
24124530,11157415,47650468
58737449,37907279,45302654
84600855,44457259,88492383
8519561,18164652,78108656
10278581,92050018,15236495
88790372,9023969,49129060
16004500,58675537,28697031
22434566,60129317,88492383
39898897,15896075,1713327
5187344,15534294,14006912
503812,98738773,45302654
65109504,37087486,28679601
48308782,15535603,88492383
77691762,84255244,15236495
6449212,39329846,29818510
24050118,31633624,88492383
55643810,89497395,12446286
55070096,68764899,45302654
67049828,22999181,90370818
70523615,63584943,88492383
82531719,18822802,88492383
28011542,92737525,88607760
79378081,18846658,28679601
25031238,37573560,45302654
76568457,38135070,64464118
96330794,40765470,28697031
61666312,7878047,41095267
88876892,53880077,88492383
27852313,2750469,78108656
22449203,26156064,58733704
78067328,34103621,97047721
12334444,68565037,28679601
50698769,60296303,94758004
75113746,88502421,47543529
6227609,97613822,12648846
22139300,61842934,16678362
57117875,77493246,48869849
80499105,77938212,47650468
51335808,27450463,69219572
96231874,52967605,90370818
96317697,23325533,12446286
7120560,41467956,70855678
1739915,10338077,28697031
1911276,37266313,45264598
80664534,83892699,49129060
52132420,69462918,11028719
91780293,90981413,96356079
83869673,92234180,45302654
49466774,51361665,1713327
99579638,75079779,88492383
36257086,72978858,12446286
33153677,8446706,88492383
23329944,33301007,44984657
46057005,35234805,78108656
50402307,97541476,49129060
38942972,26385882,88492383
81059202,54230834,68613784
53572277,31213960,36038389
29660861,34103621,48869849
2917467,70214424,88492383
26017987,47235574,45302654
83589337,1712108,28318929
55206177,83445611,12278207
62904298,53762721,96370803
20841414,63593270,88492383
54633224,11621956,82682847
57927648,31269035,28697031
16011195,30891964,1713327
54980709,98136435,78108656
71663308,34103621,75385970
72634968,20149791,96356079
85824937,80972962,78108656
93924713,34634417,88492383
21785386,94695468,9624812
68544216,92466849,78108656
99212168,92207521,47543529
73389194,17179384,45302654
15042175,10561579,88607760
88344603,7297363,1713327
18919536,66229078,3715459
65703406,71867688,1713327
9384594,76709207,88492383
88668006,95825638,88492383
55612715,67700034,88492383
46450559,43329553,88492383
18055297,86548593,12850462
50901784,72249581,15236495
97742957,96579755,45302654
85920751,43970570,48869849
39327336,69462918,28679601
39198036,43329553,45302654
53625885,18395405,98616298
68011903,39309715,45302654
66110700,20321220,71123105
51969734,87525489,96356079
8741350,75764589,90370818
21997876,34103621,98616298
25294150,17813798,1713327
11596711,14184799,78108656
62212286,92070427,90370818
46897093,40956224,45302654
55398888,99281470,88492383
69009615,73742206,48869849
9723622,44641053,15236495
36702331,1503172,45302654
70619467,42831321,12648846
26066118,50013640,45302654
6843477,96393881,84295214
53524281,22505088,88492383
13203615,45427979,48869849
26324804,260539,39284703
37578178,95560532,88492383
13683400,88425896,28679601
17763188,29730843,1713327
54688705,18784383,45302654
28046026,76628488,1713327
43019221,84582799,88783829
98471147,39965026,57799130
23947067,62808557,15236495
98693022,4027372,12648846
24794907,36853759,88492383
95558090,62018431,57613269
10627542,77141740,57799130
30580763,9468269,88783829
31061888,6137783,28679601
48008471,47235574,94758004
59131789,33943216,45302654
38821934,27450463,28318929
76615787,18784383,88492383
95003904,21587902,78108656
38192643,39035631,15236495
16118533,68565037,61066336
58413369,3643249,1713327
58113835,69907854,78108656
42700837,22505088,45302654
27900238,58791424,96370803
11765439,14760116,28697031
35610962,63093375,24328221
50092199,28334818,73634278
19745936,10338077,89137400
97344242,1503172,88492383
81217228,19206712,15236495
72854800,36371664,88492383
24339225,99281470,45302654
89038355,6929443,78108656
81847447,38643996,98023268
38045278,16964562,1713327
69046752,84584975,58830178
27898052,99422034,15236495
89358747,54903161,88492383
94640410,39309715,94758004
55067710,51496538,49129060
69832973,42479436,45302654
48172180,38135070,77803479
35849230,4027372,21027990
9826284,1764253,88492383
39131462,94380318,54650556
17717589,1503172,18888423
13508686,1764253,45302654
84236137,79084084,24328221
75368946,68531565,71123105
23382454,21927520,88492383
96864761,97704308,15236495
78770502,54903161,45302654
32066169,19469724,45302654
80970224,29915283,71629177
58462948,50143678,59003897
75814411,5031776,83704634
86409029,68764899,94758004
49640901,41467956,21027990
71626993,63093375,12481332
70163924,81258331,90370818
77841953,43539376,12648846
76752600,17186245,28679601
39636366,50414092,47650468
86137676,44758436,15236495
20634193,65424128,45302654
54277285,68366069,88492383
5763103,2652286,82624316
27090425,52454862,45302654
40669248,40342458,21027990
4549754,88746740,88492383
65543030,73860872,12850462
39155342,27450463,19995327
70241274,68781281,96370803
16236521,22030736,71385208
31733021,27766045,87765903
21364519,60708847,94758004
96218656,64953235,14006912
63919535,89012224,45302654
4734155,74984903,76720234
19812595,60981341,88492383
19289736,31633624,94758004
27699932,95825638,83706713
33678805,15470863,78108656
68463453,62289268,12850462
94432298,56482228,36038389
56135797,18395405,32971784
95367768,57037822,38942582
34403878,74348889,10630852
5033054,56621791,57799130
70185131,86433871,35025744
25320568,76693120,15236495
39405438,24073975,78867138
24065681,11509342,3556304
58789393,27450463,95519684
92922468,63688720,33032067
23075991,95812891,900955
23835864,65527553,45302654
20557912,93699392,12850462
75964102,76784414,96356079
78353975,80649708,53970251
32204942,7849736,96370803
24435286,40342458,12648846
21284837,42262378,3556304
86378497,85531692,45302654
21977669,81714676,47650468
41237458,60296303,45302654
67346684,44257979,12788239
53798121,73686747,78108656
73221246,79536202,28679601
9735618,68781281,24328221
18345406,53862001,42266436
43095443,16752016,1713327
51452200,18784383,66754998
75137506,47957428,24376976
38289171,18283783,90522185
81022477,50414092,90370818
21972763,60296303,88783829
82019356,90362966,28679601
64376268,72720336,45302654
58537411,99666278,45302654
84795822,67727118,15236495
20666213,74709520,45302654
86438239,91507437,15236495
65769570,69675,75466436
77715799,13170202,550253
26360948,36371664,71010018
90651979,13170202,28679601
16380521,14086522,94758004
97660803,57336581,15236495
74976242,21616721,29283356
21390517,79523427,45302654
28905778,25185336,94758004
53562087,44206542,63332262
46483505,18283783,24328221
95197535,90176445,88492383
65758255,75676316,18888423
94367900,86517758,12648846
3471491,10422788,88492383
90440256,95412704,41247542
76360640,68781281,90522185
81548608,95812891,59003897
97120358,57435228,94758004
3689657,93699392,45302654
30940530,54774231,88492383
10502916,97094932,88492383
27396650,68623465,45302654
51601868,94070638,12648846
82813687,74984903,88492383
9466407,72720336,88492383
11252729,99291448,88492383
2608375,50823200,15236495
17906733,75676316,45302654
34524403,73860872,45302654
70142528,61059270,53970251
80450759,62289268,45302654
77874975,82606061,94004985
65048584,1712108,88492383
55996588,35196569,45302654
47306891,12829035,92133989
46630386,92528213,88492383
64205884,16752016,88492383
37834861,26118229,22015841
25554731,22780621,28679601
63942409,27450463,5035964
52762109,50148495,49129060
23875429,72532516,88492383
17461007,94167471,78108656
99998021,19439728,15236495
31548529,35196569,88492383
86697457,16338279,88783829
61152094,75676316,88492383
86829461,26225449,11868276
55990753,96064857,57799130
2088527,65424128,12850462
67320770,18283783,96370803
50865266,1256367,3556304
32938668,63593270,3556304
59230297,61757029,97950541
59965626,61842934,88492383
96447710,17322133,1713327
17751076,94612311,88492383
38186903,82470622,57799130
20186594,15193546,1713327
76256086,45667288,96356079
28275443,51536707,88492383
80296483,71795333,78108656
67381824,21091630,57799130
43698931,8606187,98023268
3160151,44446005,1713327
57621856,89979866,39239221
92085565,48765152,78108656
58513034,27766045,50362435
61299267,69194253,45302654
35303795,56006202,54650556
58249928,41071568,45302654
11476034,11642027,28697031
77207423,51715714,53970251
70314883,43960104,90370818
81009233,37129062,29812667
61841577,91145258,28697031
94980042,99613788,4796346
40058731,71365125,90370818
45346032,64372963,78108656
61422356,86433871,46462892
56696082,92789145,88492383
20238445,62238877,45302654
23972140,51536707,45302654
38013202,79084084,90522185
5414843,55715099,58733704
71914827,94612311,45302654
28764978,42479436,12850462
17225868,78087222,88492383
87568931,62404529,78108656
34137417,55218743,90370818
37998713,13773575,88492383
19815800,23179923,78108656
37013468,42291850,12446286
41627344,14796202,2232519
28554057,48794788,21027990
24974024,79536202,42266436
23906768,54332099,28679601
86311799,55209305,15236495
23579280,12040128,90370818
59726098,53862001,28679601
35963541,90524637,96370803
45188451,93285666,71123105
71871330,13170202,48869849
79677446,86433871,18467944
7827310,37756669,88783829
41956487,51534196,96356079
49808637,23667446,88492383
39970585,42653755,78108656
86343201,30613596,78108656
83159253,52773329,88492383
59881897,56523509,87468145
6193673,51134438,45302654
33093585,72640498,1713327
46544173,43652283,62831589
26126616,53848093,37593459
69046200,23394108,79135170
80975445,48060107,94758004
20439421,49415232,88783829
37700107,35196569,41247542
36330331,13101414,88492383
4174422,52578922,78108656
33219096,18164652,88492383
65117379,86517758,78108656
426374,12388386,90370818
19494392,71319208,28679601
48630874,58369901,78108656
37759139,58193590,88492383
36042358,52619205,94758004
84253398,70391536,47706779
69764839,75676316,41247542
73566120,94070638,78108656
50235881,87525489,45302654
74661810,86028910,61254956
6442145,99633053,88492383
34144936,98738773,15236495
55502081,14796202,98616298
58795735,84255244,88492383
21348807,80731822,15236495
69143734,99633053,45302654
75499260,21537239,12850462
25594471,44206542,88492383
54753521,51677211,1713327
48758881,46844392,15236495
91164634,81273413,52904475
1038717,67395198,88492383
59545891,18011485,88492383
62463468,27450463,27190694
88736154,88191995,23192211
13103502,32597360,47314888
70133973,60708847,15236495
32838858,69462918,57799130
54784915,19996669,94758004
71780145,40973681,12850462
12838697,28818255,45302654
75590199,95412704,88492383
30548848,82529462,28679601
23873156,24259132,1713327
48737478,46667032,15236495
81421753,20149791,45302654
30482422,53400016,45302654
46626230,51536707,47650468
5437424,23805441,12481332
80810524,34049300,92731545
71397475,76617006,1713327
76028990,62238877,47650468
35513804,96064849,58830178
62700633,6611019,96370803
10767253,36853759,18778287
83185266,46219473,45302654
89058567,15243027,90370818
32533066,63158851,28679601
78490003,90738689,96370803
74187509,34103621,3556304
36592306,91290636,49129060
60691202,95412704,45302654
50526199,8606187,47448873
75472290,78876988,69604655
38787325,96428349,45000539
73904184,37129062,88492383
3502864,26118229,96733759
99420548,17669760,60637940
97558987,56612525,57799130
11735401,93703334,45302654
44820565,11957705,3281954
15930436,40785767,28679601
54749456,13359435,48869849
29489347,34103621,55346271
69990930,24065585,54650556
49117119,33515702,45302654
57903340,40394144,88783829
99469337,66624109,3623257
93309378,92466849,88492383
11772530,29915283,88783829
60256490,79523427,90370818
18567473,13638525,12850462
23839137,71795333,12648846
98753811,72539109,15236495
59700929,99291448,28679601
32870854,22030736,28679601
31704219,55715099,77803479
58228790,63688720,88492383
47996841,25361136,47650468
44848856,50898739,45302654
72720490,4121358,53726395
73359078,73355588,94758004
72913197,827516,1713327
56423816,65348073,45302654
94765858,35704761,27384113
60338570,5102491,12850462
23752219,13101414,23192211
15316891,77807709,39798468
53226141,80237187,45302654
61467107,42291850,45302654
64240149,26109413,28679601
39595523,67315424,88492383
77227167,97094932,40050883
94840111,97094932,28679601
20085879,5376363,96370803
86864548,82506630,78108656
28941983,77141740,28697031
88654081,68463288,98023268
11514621,67447288,1713327
74064577,63147850,49682495
23908897,23805441,24328221
1479297,37888572,3556304
98840100,46943628,94758004
45971002,52773329,63945309
43600444,19723087,96370803
20548952,27741707,12850462
60311309,42291850,88492383
89990952,70571400,64464118
66894784,96393881,88492383
31619029,24073975,88492383
33584960,66384309,34962849
2804000,88191995,88492383
39119309,74893044,15236495
35248485,78087222,12446286
8289436,37181315,44984657
187990,74343335,88783829
18670949,12596090,59003897
27599784,62018431,28679601
14259208,11645955,49129060
42041453,42156939,88492383
89001811,52329606,23192211
79134950,3245821,68706001
1031283,3029796,15236495
3576755,64063621,88492383
3447284,39988365,52973942
77908584,92528213,36016590
29551600,23179923,1106514
13149504,37907279,28390840
37441176,27741707,45302654
56677265,95959105,1713327
43616003,20569419,51910394
8084445,40188007,78108656
23114038,8446706,96370803
79485728,70840472,94758004
98389068,79201636,45302654
96146714,95812891,48871877
23963579,18822802,96370803
8711565,42831321,78108656
63695946,51613698,96356079
97155561,46770939,28679601
83129381,54384473,98023268
47491466,64063621,45302654
3044574,37069988,78108656
78680563,92489367,76292732
70116369,5102491,45302654
73932479,22505088,12446286
6451447,77437318,15236495
31057733,15896075,58872133
19375998,26118229,58733704
83757673,31213960,88492383
94417984,71976505,45302654
79108027,8343884,90370818
58581054,20321220,3556304
66905238,62223407,88492383
22148441,99281470,12446286
54797355,19312377,1713327
16198713,38619148,88492383
82838992,86433871,54074619
94424719,3990179,57799130
62563045,99163983,39798468
4948465,64953235,88492383
58180040,91290636,98023268
58172802,13638525,45302654
38288354,54809840,88783829
71838537,89091146,78108656
6604919,18519718,78108656
8257579,66900168,78108656
69628503,90221099,1713327
29496940,75453128,15236495
31308671,86433871,99857496
36828893,68463288,15955024
40449293,38135070,58733704
12049330,42044216,96370803
15777387,13834188,49655967
65010965,94703659,45302654
60786649,79198255,88492383
24369472,34103621,71799077
11993907,15534294,94758004
7104448,26464992,32894608
51130958,40575050,45302654
17648125,65527553,90370818
29344589,60981341,28679601
25274965,1503172,41247542
68239006,40575050,88492383
12859268,43203524,90370818
37395314,17186245,88492383
32009923,83543881,78108656
94855740,915398,57799130
88223393,74984903,62300700
23058885,18670667,15236495
1020069,41360558,45302654
51255450,93815090,15236495
8018889,64953235,45302654
88680237,50414092,45302654
84113872,84255244,1713327
13112298,91507437,94758004
10466470,57336581,94758004
90077280,39329846,41170108
17847331,71989045,90370818
75860371,26118229,10815545
72599090,95036481,90370818
55096482,56523509,1713327
5139693,11621956,8159088
66197804,67727118,94758004
88069576,44257979,54074619
90486059,68995652,77812482
11174725,61757029,57799130
34983615,84975561,45302654
89990881,40973681,45302654
6065938,78709474,88492383
6476770,84584975,98800416
64827229,46640812,3556304
20734554,46375296,28679601
25260965,43539376,78108656
19175084,36902456,84583531
49963520,59653567,45302654
15147056,2244699,78108656
96920311,51305259,88492383
33862085,25185336,15236495
95660762,34251069,28679601
29514535,86592454,49129060
69309714,32387585,25583816
32363512,92489367,88492383
74128567,20309831,28679601
80809683,53400016,12850462
89135261,50013640,14006912
44421983,51361665,15236495
14871249,27766045,117392
21001096,6137783,88492383
63218623,52329606,88492383
56716561,42445475,90370818
54540225,77264608,78108656
74334682,297249,78108656
2930104,1300332,45302654
55637479,12829035,59801836
20135843,21537239,45302654
78412632,34103621,80948314
93037696,43329553,28390840
30706642,57569184,63921223
78864377,3245821,98023268
72609311,99778503,33185754
47548785,78997907,33979812
20927432,84601344,94758004
32310473,96597993,83644756
67180594,95825638,24376976
44527102,97695167,88492383
75725241,56171074,12446286
9113556,95560532,28679601
65215668,28818255,34594193
58771791,19904531,49655967
68594122,2141838,88607760
82972552,58259842,57799130
37667628,89497395,88492383
36456388,18011485,16678362
70097720,6065600,15236495
47687406,15589864,88492383
37910321,23805441,71629177
33185222,1300332,68107783
20520196,78503691,45302654
80225386,88041108,71349765
88610833,2489063,54623852
6324133,84975561,94758004
20145396,92472068,45302654
77603766,61359592,45302654
73219495,84534966,14916879
43101374,78503691,88492383
95470069,78997907,88492383
4673004,77264608,42266436
72766416,94441992,18365919
28131488,297249,42266436
35174742,68766187,57799130
81780244,51534196,45302654
66801001,54384473,3623257
17560194,92472068,59106272
96857554,1503172,28390840
90018542,63093375,88783829
6181916,92489367,94758004
31599362,67598733,15236495
4441587,89497395,45302654
79954679,86433871,90714875
83673929,1256367,28679601
72351146,7748076,58830178
68147049,19439728,45302654
42387318,19867648,88492383
30909117,85099098,15236495
60443474,99291448,77996748
32174987,33790553,88492383
32208993,15589864,34893028
75020131,34530340,78108656
52430283,84601344,45302654
44748361,23325533,45302654
5178890,50366143,1713327
2955991,11621956,15715932
95578689,36902456,28697031
21406574,10509375,12850462
1411808,97695167,5035964
92469549,78167305,15236495
92906179,23325533,88492383
66423811,54783108,88492383
47784390,79084084,88783829
88197024,5215712,1713327
14295361,51867365,15236495
82124126,97613822,78108656
74603653,33790553,45302654
68187095,42584000,5214141
98206829,80649708,94758004
16962741,54037953,45302654
60338770,15534294,18888423
76241036,89140688,13690672
43058106,27450463,44784482
84576410,7849736,88492383
34489743,6990451,45264598
84359994,96645987,45302654
31377772,56963837,58404469
88797688,23292612,12850462
41662336,39988365,88492383
74445205,95613728,45302654
25452933,9627852,88492383
86131839,1256367,48869849
34607972,65613774,1713327
69521341,34103621,41596290
41542464,98136435,12648846
58888810,31506828,89052805
8990777,62255908,94758004
49401289,67898304,45302654
25012522,14806732,21027990
41975763,70840472,45302654
16518616,3607588,78108656
52654076,35234805,12648846
22805544,42653755,75197416
90789079,71795333,88492383
36805144,10422788,54374384
48714729,20569419,91272093
95106250,75466467,34893028
4836638,31350441,1713327
23262327,98497810,25583816
2009848,16338279,90522185
90966634,56608279,58733704
75360954,23757077,12446286
65315295,37607722,88492383
56331075,63147850,73634278
46327873,81258331,94758004
44181168,96428349,88492383
1983059,68531565,3556304
73141264,47957428,88492383
49962769,50414092,94758004
32758955,42653755,88492383
78685152,64953235,94758004
60898564,38135070,12082594
18475526,20487087,1713327
30165562,83445611,88492383
67864034,84534966,57799130
3700102,15569067,45302654
9915046,25649886,88492383
27312938,11157415,45302654
91547916,2141838,88492383
57679932,52967605,45302654
13701512,97137200,15236495
3596881,39988365,34893028
78658934,62658140,78108656
63602400,25102394,47650468
89460741,87117668,78108656
83875347,30016652,96370803
91755820,15534294,45302654
26804478,31633624,47650468
54825748,64372963,75197416
87630856,2141838,45302654
21152625,52967605,88492383
10551375,24454583,80113201
69425471,11157415,88492383
19305695,43693280,96356079
70801254,56963837,61603123
60582522,63530864,49129060
92261899,14666453,49129060
9330229,68781281,88783829
85783442,75466467,88492383
53432413,62805222,12850462
90282316,16338279,76677444
22696492,93285666,3556304
3241551,86433871,62897394
38861139,69431293,48869849
84751491,39035631,45302654
53735634,73355588,45302654
28772527,36826667,1713327
6294855,27450463,29812667
70020277,77264608,28679601
4109592,297249,28679601
642285,14796202,32971784
84445559,92683007,78108656
90033739,71808386,27384113
41769785,62805222,45302654
96975461,44257979,8400181
10966016,88041108,88492383
48713922,77406226,49129060
4096873,24880751,15236495
79834204,41467956,28679601
12124089,55933320,88492383
76330208,32387585,8802341
3610667,33515702,94758004
56006181,18283783,88783829
30264782,2489063,62640030
87315103,39035631,88492383
59969517,73355588,88492383
59434574,71989045,15236495
66580772,80673272,2232519
37372620,60302731,88492383
94272627,81235744,96370803
46443709,40325386,26196351
28458388,52454862,96356079
51188928,89911077,28697031
47376122,55927403,12446286
36501310,90176445,96370803
27748229,46943628,45302654
12525322,5683502,47650468
57954075,24073975,61437019
53672238,81457339,45302654
73095654,23292612,45302654
33190268,61759132,28679601
99424637,96597993,98023268
92987709,16338279,24328221
46364622,38135070,18545127
14875088,67898304,12850462
84744904,75676316,28390840
73055934,5031776,17568445
21847597,27450463,98449824
94940959,46640812,88492383
38082354,827516,38942582
15407888,33146136,15236495
8385290,62815690,41170108
50274988,98137750,28679601
54349135,35580535,21027990
8870963,53902664,1713327
57033614,31488776,45302654
55453843,1364556,94758004
58381248,10509375,45302654
94175188,79198255,3556304
9923121,57084863,49655967
89778636,19904531,45302654
80134278,54037953,12850462
99168034,52619205,88492383
75457602,35704761,64864951
8161966,54903161,96356079
17528113,15470863,88492383
9813150,25811857,88492383
45836162,54714397,28679601
94358808,34103621,88460803
51195030,52619205,45302654
50826356,36651298,3623257
44223912,46506354,66754998
87797813,55715099,64464118
87319171,63593270,71123105
15739341,19904531,88492383
75609527,48060107,47650468
30279614,4594931,15236495
935535,34103621,16650011
98939147,77141740,28679601
5392901,92050018,94758004
47208818,78876988,88492383
25302569,14303533,3556304
99142271,2652286,28679601
25600978,49622297,45302654
52354399,86433871,8400181
6831277,61359592,12850462
39650503,7355716,1713327
90490994,14265666,88492383
82217976,24454583,57799130
60448642,92789145,96370803
3993733,59653567,49655967
5893326,46219473,94758004
69387071,60296303,15236495
19165584,61059270,94758004
61469716,9260267,94758004
2240206,41467956,48869849
28850906,27450463,47419932
79892775,11957705,45302654
52026078,19996669,45302654
28615907,4437959,59003897
14777626,22577207,28679601
78975151,44376445,88783829
77637761,49622297,88492383
52497760,69907854,25583816
