id,src,trg
45998675,12829035,60366911
29228906,81867495,18783121
38472779,73447334,36051008
49377219,72818704,90193709
80313299,53448829,99097934
15764570,9091858,58199961
45569963,90513329,20113518
33963762,75466467,54583447
29473251,21090365,67499878
87840637,26156064,34758739
64998314,64372963,31360568
10524938,14760116,42635336
81606205,70739635,40811623
21753828,56612525,61652647
66557834,86028910,52784069
46784808,57917422,69163231
50260801,19732210,1608022
58745530,1324938,66525585
24096830,85741877,36708644
79058714,57255505,36708644
59468902,80673272,34758739
84805696,37129062,24519731
30464802,31269035,27141586
54384404,85287137,56389988
1156453,40325386,88248956
69788586,58259842,97522733
12737075,46506354,83044246
87682440,76992085,77918564
72946043,57569184,15568476
74328679,21616721,9014553
29380186,88502421,93644849
3290093,32720503,89181316
53985349,38643996,81705522
68110839,68071134,4067849
52330797,66720241,70905034
61199691,51040997,70869539
34315389,24454583,59295413
2435747,32213891,20102346
29209208,915398,53638450
36816125,23394108,9932337
68403095,77505025,28725516
35072411,44694209,72970103
9543781,87117668,50122538
60381738,56621791,6253525
45960836,63147850,22545044
60958020,34049300,9932337
80403732,97510926,72578736
89644017,92737525,7247639
60508820,40324616,24748947
89649848,74348889,33522047
19430724,12282399,35593148
74525386,27450463,60530507
32656322,89140688,62580534
30303063,260539,1712918
3203859,99613788,14708539
75064056,24446168,96749015
42545317,15896075,16684034
85661395,22577207,17256523
15090421,82506630,14109121
14014467,41467956,21981185
70746358,71319208,19524876
6186673,72532516,61480578
53636881,43811359,85398902
34711150,66483448,37392469
99787250,74984903,5716434
16370635,66900168,7963301
55154694,54774231,71219801
61020450,39965026,52569772
44126357,64978894,50915748
40088891,53880077,52123392
43738497,62658140,12047730
34092159,31506828,85163567
96801559,39871004,59066113
80576923,1930288,4067849
26657596,21091630,13500564
80684553,40785767,90094654
70068055,95291041,87532109
66793782,42262378,93644849
38306179,42943451,2783861
30223219,17669760,97420946
3660943,1256367,83553161
11108353,12596090,4140290
74989221,90214318,82800814
46112645,66624109,38888979
